[
  {
    "model": "Baader LRGB Filters",
    "name": "Baader R",
    "type": "MONO_FILTER",
    "dataQualityMarker": 2,
    "dataSource": "Scanned from Transmission Chart",
    "manufacturer": "Baader",
    "version": 1,
    "channel": "RED",
    "wavelength": { 
       "value":  [354.6341,356.9756,359.3171,361.6585,363.2195,366.3415,367.1220,370.2439,374.1463,471.7073,550.5366,554.4390,560.6829,566.1463,570.0488,571.6098,575.5122,576.2927,578.6341,579.4146,580.1951,581.7561,583.3171,584.0976,584.8780,585.6585,586.4390,588.0000,588.7805,591.1220,591.9024,593.4634,595.8049,600.4878,609.8537,604.3902,616.0976,616.8780,623.1220,628.5854,634.0488,637.9512,643.4146,648.0976,650.4390,653.5610,655.1220,661.3659,665.2683,671.5122,674.6341,678.5366,680.0976,679.3171,681.6585,683.2195,684.0000,685.5610,686.3415,687.9024,688.6829,691.8049,694.9268,696.4878,701.1707,705.8537],
       "units": "nm"
    },
    "values": {
      "value": [0.369181380417331,1.13964686998393,2.03852327447832,3.32263242375602,5.37720706260032,2.68057784911717,1.52487961476726,0.62600321027287,0.112359550561791,0.000,0.000,0.240770465489561,0.240770465489561,0.62600321027287,1.52487961476726,2.5521669341894,3.70786516853933,7.17495987158908,8.33065810593901,11.0272873194221,16.4205457463884,18.9887640449438,25.9229534510433,28.3627608346709,45.1845906902087,49.5505617977528,62.3916532905297,65.3451043338684,76.5168539325843,82.4237560192617,95.7784911717496,96.5489566613162,97.5762439807384,96.5489566613162,98.8603531300161,97.5762439807384,98.7319422150883,98.2182985553772,98.9887640449438,98.2182985553772,97.7046548956661,97.7046548956661,98.4751203852327,98.4751203852327,98.2182985553772,98.2182985553772,97.8330658105939,98.4751203852327,99.2455858747994,99.2455858747994,98.9887640449438,98.0898876404494,96.0353130016051,93.5955056179775,83.1942215088283,80.6260032102729,71.3804173354735,65.9871589085072,58.5393258426966,44.5425361155698,28.3627608346709,10.8988764044944,8.58747993579455,3.06581059390048,1.26805778491172,0.62600321027287],
      "range": 100
    }
  },
  {
    "model": "Baader LRGB Filters",
    "name": "Baader G",
    "type": "MONO_FILTER",
    "dataQualityMarker": 2,
    "dataSource": "Scanned from Transmission Chart",
    "manufacturer": "Baader",
    "version": 1,
    "channel": "GREEN",
    "wavelength": { 
       "value":   [484.9756,481.8537,475.6098,488.8780,490.4390,492.0000,493.5610,494.3415,495.1220,495.9024,496.6829,498.2439,499.8049,503.7073,508.3902,513.0732,515.4146,519.3171,521.6585,525.5610,529.4634,531.8049,536.4878,541.9512,545.8537,550.5366,555.2195,560.6829,563.0244,565.3659,568.4878,569.2683,570.0488,570.8293,571.6098,573.1707,573.9512,574.7317,575.5122,576.2927,577.0732,578.6341,580.1951,580.9756,583.3171,584.0976,585.6585,586.4390,590.3415,595.8049,603.6098,624.6829,631.7073,640.2927,643.4146,648.0976,644.9756,651.2195,655.9024,662.9268,668.3902,673.0732,674.6341,679.3171,683.2195,688.6829,691.8049,699.6098,708.9756,712.8780,716.0000,719.1220,726.9268,729.2683,748.7805,751.1220,761.2683,763.6098,797.9512,799.5122,805.7561,811.2195,816.6829,822.9268,826.8293,830.7317],
       "units": "nm"
    },
    "values": {
      "value":[0.62600321027287,0.240770465489561,0.112359550561791,2.29534510433386,9.22953451043338,23.9967897271268,40.6902086677368,43.1300160513644,47.4959871589085,50.9630818619583,70.2247191011236,92.1829855537721,96.1637239165329,97.0626003210273,97.5762439807384,98.2182985553772,97.5762439807384,97.5762439807384,98.2182985553772,98.8603531300161,98.4751203852327,97.5762439807384,97.0626003210273,97.0626003210273,96.1637239165329,95.3932584269663,95.1364365971108,95.6500802568218,96.5489566613162,97.3194221508828,97.9614767255217,96.0353130016051,95.1364365971108,87.5601926163724,75.7463884430177,71.123595505618,69.0690208667737,59.3097913322632,51.6051364365971,48.7800963081862,25.53772070626,15.3932584269663,12.1829855537721,7.81701444622792,5.76243980738363,3.96468699839487,2.29534510433386,1.52487961476726,0.882825040128395,0.240770465489561,0.369181380417331,0.112359550561791,0.240770465489561,0.112359550561791,0.75441412520064,1.01123595505618,1.01123595505618,0.62600321027287,0.369181380417331,0.112359550561791,0.369181380417331,0.369181380417331,0.75441412520064,0.75441412520064,1.01123595505618,1.01123595505618,0.75441412520064,0.75441412520064,0.75441412520064,1.01123595505618,1.13964686998393,0.75441412520064,0.75441412520064,0.369181380417331,0.369181380417331,0.75441412520064,0.882825040128395,0.369181380417331,0.240770465489561,0.62600321027287,0.62600321027287,1.26805778491172,1.91011235955057,1.26805778491172,0.62600321027287,0.369181380417331],
      "range": 100
    }
  },
  {
    "model": "Baader LRGB Filters",
    "name": "Baader B",
    "type": "MONO_FILTER",
    "dataQualityMarker": 2,
    "dataSource": "Scanned from Transmission Chart",
    "manufacturer": "Baader",
    "version": 1,
    "channel": "BLUE",
    "wavelength": { 
       "value":   [375.7073,378.8293,379.6098,381.9512,383.5122,384.2927,386.6341,388.1951,388.9756,390.5366,393.6585,396.0000,402.2439,399.1220,406.9268,410.8293,413.9512,419.4146,424.8780,428.7805,431.9024,435.8049,438.9268,441.2683,443.6098,445.1707,450.6341,456.8780,460.7805,465.4634,468.5854,473.2683,474.8293,478.7317,480.2927,481.8537,483.4146,486.5366,490.4390,495.9024,499.0244,502.1463,504.4878,505.2683,506.0488,506.8293,508.3902,511.5122,513.0732,514.6341,515.4146,516.9756,520.0976,523.2195,526.3415,531.0244,370.2439],
       "units": "nm"
    },
        "values": {
        "value": [0.240770465489561,1.52487961476726,3.19422150882825,5.37720706260032,10.8988764044944,15.7784911717496,49.6789727126806,81.5248796147673,87.8170144462279,92.1829855537721,93.5955056179775,94.3659711075441,96.0353130016051,95.2648475120385,95.5216693418941,96.1637239165329,97.1910112359551,97.8330658105939,97.8330658105939,97.3194221508828,97.5762439807384,97.7046548956661,96.1637239165329,95.5216693418941,96.2921348314607,97.3194221508828,98.2182985553772,97.5762439807384,96.8057784911718,97.5762439807384,98.6035313001605,97.9614767255217,96.4205457463884,94.8796147672552,94.3659711075441,95.1364365971108,96.2921348314607,97.3194221508828,97.8330658105939,97.3194221508828,98.0898876404494,97.3194221508828,95.7784911717496,92.8250401284109,88.7158908507223,77.5441412520064,60.9791332263242,34.6548956661316,25.53772070626,8.58747993579455,5.37720706260032,3.45104333868379,2.03852327447832,0.882825040128395,0.369181380417331,0.369181380417331,0.240770465489561],
        "range": 100
      }
  },
  {
    "model": "Baader LRGB Filters",
    "name": "Baader L",
    "type": "MONO_FILTER",
    "dataQualityMarker": 2,
    "dataSource": "Scanned from Transmission Chart",
    "manufacturer": "Baader",
    "version": 1,
    "channel": "LUM",
    "wavelength": { 
       "value":   [307.0244,311.7073,314.8293,316.3902,317.1707,319.5122,321.0732,324.1951,328.8780,334.3415,338.2439,339.0244,339.8049,341.3659,343.7073,344.4878,346.0488,346.8293,349.1707,349.9512,353.8537,354.6341,355.4146,356.9756,358.5366,360.8780,361.6585,363.2195,364.0000,366.3415,367.1220,368.6829,370.2439,373.3659,390.5366,393.6585,395.2195,396.7805,399.1220,400.6829,402.2439,403.8049,405.3659,409.2683,410.8293,411.6098,413.9512,417.0732,418.6341,420.9756,424.8780,426.4390,433.4634,436.5854,440.4878,443.6098,445.1707,446.7317,448.2927,449.8537,451.4146,456.8780,460.7805,464.6829,466.2439,468.5854,474.0488,481.0732,488.0976,491.2195,498.2439,506.0488,509.9512,513.8537,520.0976,524.0000,531.8049,536.4878,540.3902,545.0732,550.5366,558.3415,561.4634,565.3659,571.6098,579.4146,585.6585,590.3415,594.2439,596.5854,600.4878,602.0488,605.9512,616.0976,620.7805,623.9024,629.3659,635.6098,640.2927,645.7561,653.5610,663.7073,666.8293,670.7317,678.5366,680.8780,683.2195,686.3415,687.9024,689.4634,690.2439,694.1463,696.4878,700.3902,704.2927,705.0732,706.6341,712.8780,716.7805,720.6829,744.0976,755.0244,765.9512],
       "units": "nm"
    },
    "values": {
      "value": [0.240770465489561,1.26805778491172,0.882825040128395,1.78170144462278,2.80898876404494,1.91011235955057,1.01123595505618,0.240770465489561,0.240770465489561,0.369181380417331,0.882825040128395,5.12038523274478,7.68860353130016,7.68860353130016,5.12038523274478,3.45104333868379,4.34991974317816,5.63402889245586,4.09309791332262,5.12038523274478,10.7704654895666,13.9807383627608,23.6115569823435,34.0128410914928,38.5072231139647,45.8266452648475,36.9662921348315,30.2889245585875,18.8603531300161,29.5184590690209,18.2182985553772,13.8523274478331,5.37720706260032,0.000,0.000,0.882825040128395,8.84430176565009,36.5810593900482,67.2712680577849,79.0850722311397,84.6067415730337,89.6147672552167,92.4398073836276,93.4670947030498,92.1829855537721,88.2022471910112,91.5409309791332,94.6227929373997,96.5489566613162,95.3932584269663,95.3932584269663,96.8057784911718,97.0626003210273,96.5489566613162,96.8057784911718,94.8796147672552,94.3659711075441,94.7512038523275,95.5216693418941,96.4205457463884,97.5762439807384,97.1910112359551,96.1637239165329,94.7512038523275,93.8523274478331,94.8796147672552,96.5489566613162,96.5489566613162,97.9614767255217,98.0898876404494,97.1910112359551,98.2182985553772,97.7046548956661,97.0626003210273,98.0898876404494,98.4751203852327,98.4751203852327,98.2182985553772,97.8330658105939,97.9614767255217,98.7319422150883,98.6035313001605,98.0898876404494,98.2182985553772,97.8330658105939,98.8603531300161,98.9887640449438,98.6035313001605,98.2182985553772,98.2182985553772,97.8330658105939,98.0898876404494,98.4751203852327,98.4751203852327,98.0898876404494,98.4751203852327,98.6035313001605,98.7319422150883,98.2182985553772,97.7046548956661,97.5762439807384,97.3194221508828,97.0626003210273,97.0626003210273,98.0898876404494,98.4751203852327,96.9341894060995,92.4398073836276,89.6147672552167,73.1781701444623,58.6677367576244,41.2038523274478,18.346709470305,9.87158908507223,6.01926163723915,4.09309791332262,2.68057784911717,1.52487961476726,1.26805778491172,0.882825040128395,0.75441412520064,0.112359550561791,0.112359550561791],
      "range": 100
  }
}
]
