[
  {
    "model": "Optolong RGB",
    "name": "Optolong Red",
    "type": "MONO_FILTER",
    "dataQualityMarker": 2,
    "dataSource": "Scanned from OEM transmittance plot",
    "manufacturer": "Optolong",
    "channel": "RED",
    "version": 1,
    "wavelength": { 
       "value":  [378,572,574,576,578,580,582,584,586,588,590,592,594,596,598,600,602,604,606,608,610,612,614,616,618,620,622,624,626,628,630,632,634,636,638,640,642,644,646,648,650,652,654,656,658,660,662,664,666,668,670,672,674,676,678,680,682,684,686,688,690,692,694,696,698,702],
       "units": "nm"
    },
    "values": {
      "value": [0.0,0.0,0.02392,0.064858,0.119023,0.272804,0.372528,0.630103,0.817813,0.941956,0.971376,0.967548,0.972185,0.973656,0.972037,0.972571,0.971647,0.967951,0.970224,0.968007,0.96926,0.970465,0.966566,0.966465,0.967856,0.969271,0.969676,0.966155,0.967553,0.967322,0.968854,0.966806,0.967249,0.968454,0.968244,0.966644,0.966334,0.969328,0.969359,0.968264,0.966955,0.965487,0.968318,0.968753,0.970422,0.972236,0.973576,0.973862,0.973514,0.974338,0.975678,0.976927,0.974341,0.964257,0.96429,0.960805,0.956705,0.901116,0.672745,0.371317,0.191692,0.107868,0.025254,0.014725,0.006082,0],
      "range": 1
    }
  },
  {
    "model": "Optolong RGB",
    "name": "Optolong Green",
    "type": "MONO_FILTER",
    "dataQualityMarker": 2,
    "dataSource": "Scanned from OEM transmittance plot",
    "manufacturer": "Optolong",
    "channel": "GREEN",
    "version": 1,
    "wavelength":  { 
       "value": [378,472,474,476,478,480,482,484,486,488,490,492,494,496,498,500,502,504,506,508,510,512,514,516,518,520,522,524,526,528,530,532,534,536,538,540,542,544,546,548,550,552,554,556,558,560,562,564,566,568,570,702],
       "units": "nm"
    },
    "values": {
      "value": [0.0,0.0,0.00211,0.031464,0.098462,0.282547,0.428682,0.579431,0.70095,0.783954,0.824455,0.860767,0.897699,0.913057,0.922797,0.94429,0.958425,0.966152,0.966793,0.966125,0.968089,0.96738,0.968383,0.965945,0.967077,0.965016,0.964923,0.967084,0.964595,0.964797,0.966811,0.966968,0.965919,0.969215,0.971862,0.969491,0.966879,0.968857,0.965309,0.965128,0.962766,0.956522,0.950539,0.947976,0.9423,0.890753,0.672564,0.274385,0.067188,0.010192,0.0,0.0],
      "range": 1
    }
  },
  {
    "model": "Optolong RGB",
    "name": "Optolong Blue",
    "type": "MONO_FILTER",
    "dataQualityMarker": 2,
    "dataSource": "Scanned from OEM transmittance plot",
    "manufacturer": "Optolong",
    "channel": "BLUE",
    "version": 1,
    "wavelength": { 
       "value":  [378,382,384,386,388,390,392,394,396,398,400,402,404,406,408,410,412,414,416,418,420,422,424,426,428,430,432,434,436,438,440,442,444,446,448,450,452,454,456,458,460,462,464,466,468,470,472,474,476,478,480,482,484,486,488,490,492,494,496,498,500,502,504,506,508,510,512,514,516,518,520,702],
       "units": "nm"
    },
    "values": {
      "value": [0.487103,0.641832,0.702067,0.747306,0.792559,0.822237,0.84495,0.871089,0.889818,0.90034,0.900255,0.911452,0.932061,0.943272,0.942841,0.931497,0.932145,0.949223,0.958034,0.958862,0.96115,0.95695,0.950615,0.958319,0.964633,0.962691,0.963774,0.964245,0.963791,0.961815,0.961697,0.968066,0.969004,0.96647,0.968639,0.965631,0.961919,0.965998,0.968974,0.961068,0.960942,0.962811,0.959943,0.961922,0.9626,0.964021,0.9676,0.963836,0.960556,0.966053,0.964567,0.954384,0.956556,0.963683,0.966899,0.959314,0.952424,0.958815,0.95878,0.950698,0.9508,0.932266,0.852827,0.716573,0.544945,0.326982,0.138395,0.044799,0.014681,0.004195,0.0,0.0],
      "range": 1
    }
  }
]
