[
  {
    "model": "M9iii",
    "name": "Star, type M9(iii)",
    "type": "WB_REF",
    "dataQualityMarker": 3,
    "dataSource": "https://www.eso.org/sci/facilities/paranal/decommissioned/isaac/tools/lib.html",
    "manufacturer": "A. Pickles (A.J. Pickles, PASP 110,863, 1998)",
    "version": 1,
    "wavelength": { 
       "value": [3350,3355,3360,3365,3370,3375,3380,3385,3390,3395,3400,3405,3410,3415,3420,3425,3430,3435,3440,3445,3450,3455,3460,3465,3470,3475,3480,3485,3490,3495,3500,3505,3510,3515,3520,3525,3530,3535,3540,3545,3550,3555,3560,3565,3570,3575,3580,3585,3590,3595,3600,3605,3610,3615,3620,3625,3630,3635,3640,3645,3650,3655,3660,3665,3670,3675,3680,3685,3690,3695,3700,3705,3710,3715,3720,3725,3730,3735,3740,3745,3750,3755,3760,3765,3770,3775,3780,3785,3790,3795,3800,3805,3810,3815,3820,3825,3830,3835,3840,3845,3850,3855,3860,3865,3870,3875,3880,3885,3890,3895,3900,3905,3910,3915,3920,3925,3930,3935,3940,3945,3950,3955,3960,3965,3970,3975,3980,3985,3990,3995,4000,4005,4010,4015,4020,4025,4030,4035,4040,4045,4050,4055,4060,4065,4070,4075,4080,4085,4090,4095,4100,4105,4110,4115,4120,4125,4130,4135,4140,4145,4150,4155,4160,4165,4170,4175,4180,4185,4190,4195,4200,4205,4210,4215,4220,4225,4230,4235,4240,4245,4250,4255,4260,4265,4270,4275,4280,4285,4290,4295,4300,4305,4310,4315,4320,4325,4330,4335,4340,4345,4350,4355,4360,4365,4370,4375,4380,4385,4390,4395,4400,4405,4410,4415,4420,4425,4430,4435,4440,4445,4450,4455,4460,4465,4470,4475,4480,4485,4490,4495,4500,4505,4510,4515,4520,4525,4530,4535,4540,4545,4550,4555,4560,4565,4570,4575,4580,4585,4590,4595,4600,4605,4610,4615,4620,4625,4630,4635,4640,4645,4650,4655,4660,4665,4670,4675,4680,4685,4690,4695,4700,4705,4710,4715,4720,4725,4730,4735,4740,4745,4750,4755,4760,4765,4770,4775,4780,4785,4790,4795,4800,4805,4810,4815,4820,4825,4830,4835,4840,4845,4850,4855,4860,4865,4870,4875,4880,4885,4890,4895,4900,4905,4910,4915,4920,4925,4930,4935,4940,4945,4950,4955,4960,4965,4970,4975,4980,4985,4990,4995,5000,5005,5010,5015,5020,5025,5030,5035,5040,5045,5050,5055,5060,5065,5070,5075,5080,5085,5090,5095,5100,5105,5110,5115,5120,5125,5130,5135,5140,5145,5150,5155,5160,5165,5170,5175,5180,5185,5190,5195,5200,5205,5210,5215,5220,5225,5230,5235,5240,5245,5250,5255,5260,5265,5270,5275,5280,5285,5290,5295,5300,5305,5310,5315,5320,5325,5330,5335,5340,5345,5350,5355,5360,5365,5370,5375,5380,5385,5390,5395,5400,5405,5410,5415,5420,5425,5430,5435,5440,5445,5450,5455,5460,5465,5470,5475,5480,5485,5490,5495,5500,5505,5510,5515,5520,5525,5530,5535,5540,5545,5550,5555,5560,5565,5570,5575,5580,5585,5590,5595,5600,5605,5610,5615,5620,5625,5630,5635,5640,5645,5650,5655,5660,5665,5670,5675,5680,5685,5690,5695,5700,5705,5710,5715,5720,5725,5730,5735,5740,5745,5750,5755,5760,5765,5770,5775,5780,5785,5790,5795,5800,5805,5810,5815,5820,5825,5830,5835,5840,5845,5850,5855,5860,5865,5870,5875,5880,5885,5890,5895,5900,5905,5910,5915,5920,5925,5930,5935,5940,5945,5950,5955,5960,5965,5970,5975,5980,5985,5990,5995,6000,6005,6010,6015,6020,6025,6030,6035,6040,6045,6050,6055,6060,6065,6070,6075,6080,6085,6090,6095,6100,6105,6110,6115,6120,6125,6130,6135,6140,6145,6150,6155,6160,6165,6170,6175,6180,6185,6190,6195,6200,6205,6210,6215,6220,6225,6230,6235,6240,6245,6250,6255,6260,6265,6270,6275,6280,6285,6290,6295,6300,6305,6310,6315,6320,6325,6330,6335,6340,6345,6350,6355,6360,6365,6370,6375,6380,6385,6390,6395,6400,6405,6410,6415,6420,6425,6430,6435,6440,6445,6450,6455,6460,6465,6470,6475,6480,6485,6490,6495,6500,6505,6510,6515,6520,6525,6530,6535,6540,6545,6550,6555,6560,6565,6570,6575,6580,6585,6590,6595,6600,6605,6610,6615,6620,6625,6630,6635,6640,6645,6650,6655,6660,6665,6670,6675,6680,6685,6690,6695,6700,6705,6710,6715,6720,6725,6730,6735,6740,6745,6750,6755,6760,6765,6770,6775,6780,6785,6790,6795,6800,6805,6810,6815,6820,6825,6830,6835,6840,6845,6850,6855,6860,6865,6870,6875,6880,6885,6890,6895,6900,6905,6910,6915,6920,6925,6930,6935,6940,6945,6950,6955,6960,6965,6970,6975,6980,6985,6990,6995,7000,7005,7010,7015,7020,7025,7030,7035,7040,7045,7050,7055,7060,7065,7070,7075,7080,7085,7090,7095,7100,7105,7110,7115,7120,7125,7130,7135,7140,7145,7150,7155,7160,7165,7170,7175,7180,7185,7190,7195,7200,7205,7210,7215,7220,7225,7230,7235,7240,7245,7250,7255,7260,7265,7270,7275,7280,7285,7290,7295,7300,7305,7310,7315,7320,7325,7330,7335,7340,7345,7350,7355,7360,7365,7370,7375,7380,7385,7390,7395,7400,7405,7410,7415,7420,7425,7430,7435,7440,7445,7450,7455,7460,7465,7470,7475,7480,7485,7490,7495,7500,7505,7510,7515,7520,7525,7530,7535,7540,7545,7550,7555,7560,7565,7570,7575,7580,7585,7590,7595,7600,7605,7610,7615,7620,7625,7630,7635,7640,7645,7650,7655,7660,7665,7670,7675,7680,7685,7690,7695,7700,7705,7710,7715,7720,7725,7730,7735,7740,7745,7750,7755,7760,7765,7770,7775,7780,7785,7790,7795,7800,7805,7810,7815,7820,7825,7830,7835,7840,7845,7850,7855,7860,7865,7870,7875,7880,7885,7890,7895,7900,7905,7910,7915,7920,7925,7930,7935,7940,7945,7950,7955,7960,7965,7970,7975,7980,7985,7990,7995,8000,8005,8010,8015,8020,8025,8030,8035,8040,8045,8050,8055,8060,8065,8070,8075,8080,8085,8090,8095,8100,8105,8110,8115,8120,8125,8130,8135,8140,8145,8150,8155,8160,8165,8170,8175,8180,8185,8190,8195,8200,8205,8210,8215,8220,8225,8230,8235,8240,8245,8250,8255,8260,8265,8270,8275,8280,8285,8290,8295,8300,8305,8310,8315,8320,8325,8330,8335,8340,8345,8350,8355,8360,8365,8370,8375,8380,8385,8390,8395,8400,8405,8410,8415,8420,8425,8430,8435,8440,8445,8450,8455,8460,8465,8470,8475,8480,8485,8490,8495,8500,8505,8510,8515,8520,8525,8530,8535,8540,8545,8550,8555,8560,8565,8570,8575,8580,8585,8590,8595,8600,8605,8610,8615,8620,8625,8630,8635,8640,8645,8650,8655,8660,8665,8670,8675,8680,8685,8690,8695,8700,8705,8710,8715,8720,8725,8730,8735,8740,8745,8750,8755,8760,8765,8770,8775,8780,8785,8790,8795,8800,8805,8810,8815,8820,8825,8830,8835,8840,8845,8850,8855,8860,8865,8870,8875,8880,8885,8890,8895,8900,8905,8910,8915,8920,8925,8930,8935,8940,8945,8950,8955,8960,8965,8970,8975,8980,8985,8990,8995,9000,9005,9010,9015,9020,9025,9030,9035,9040,9045,9050,9055,9060,9065,9070,9075,9080,9085,9090,9095,9100,9105,9110,9115,9120,9125,9130,9135,9140,9145,9150,9155,9160,9165,9170,9175,9180,9185,9190,9195,9200,9205,9210,9215,9220,9225,9230,9235,9240,9245,9250,9255,9260,9265,9270,9275,9280,9285,9290,9295,9300,9305,9310,9315,9320,9325,9330,9335,9340,9345,9350,9355,9360,9365,9370,9375,9380,9385,9390,9395,9400,9405,9410,9415,9420,9425,9430,9435,9440,9445,9450,9455,9460,9465,9470,9475,9480,9485,9490,9495,9500,9505,9510,9515,9520,9525,9530,9535,9540,9545,9550,9555,9560,9565,9570,9575,9580,9585,9590,9595,9600,9605,9610,9615,9620,9625,9630,9635,9640,9645,9650,9655,9660,9665,9670,9675,9680,9685,9690,9695,9700,9705,9710,9715,9720,9725,9730,9735,9740,9745,9750,9755,9760,9765,9770,9775,9780,9785,9790,9795,9800,9805,9810,9815,9820,9825,9830,9835,9840,9845,9850,9855,9860,9865,9870,9875,9880,9885,9890,9895,9900,9905,9910,9915,9920,9925,9930,9935,9940,9945,9950,9955,9960,9965,9970,9975,9980,9985,9990,9995,10000,10005,10010,10015,10020,10025,10030,10035,10040,10045,10050,10055,10060,10065,10070,10075,10080,10085,10090,10095,10100,10105,10110,10115,10120,10125,10130,10135,10140,10145,10150,10155,10160,10165,10170,10175,10180,10185,10190,10195,10200,10205,10210],
       "units": "angstrom"
    },
    "values": {
      "value": [0.197351,0.208693,0.134792,0.051948,0.046881,0.153202,0.250943,0.260994,0.193597,0.166289,0.226462,0.250047,0.210359,0.178284,0.274714,0.45933,0.426345,0.215718,0.059906,0.099699,0.249776,0.279574,0.299065,0.356097,0.235152,0.131234,0.290934,0.361982,0.254766,0.216342,0.291199,0.396875,0.371469,0.213243,0.068749,0.183126,0.57095,0.84686,0.904506,0.827332,0.776238,0.74591,0.644449,0.433032,0.182159,0.039528,0.032809,0.096477,0.088554,0.04035,0.090532,0.156229,0.19117,0.319817,0.468507,0.48428,0.364127,0.299928,0.527551,0.62519,0.478257,0.764852,1.10315,0.891817,0.838792,0.941316,0.504131,0.239903,0.688788,1.275308,1.401211,0.780715,0.248411,0.290204,0.336545,0.235849,0.13366,0.135027,0.180899,0.121631,0.157462,0.363895,0.443805,0.514252,0.864954,1.48733,1.909439,1.499662,0.960148,0.908315,1.054995,1.143283,1.025214,0.67544,0.251492,0.135059,0.265639,0.427898,0.746463,1.011426,0.768822,0.394385,0.297794,0.446907,0.619075,0.574447,0.296876,0.143228,0.589246,0.961277,0.675543,0.540374,0.733368,0.664862,0.398935,0.18031,0.112754,0.123067,0.134891,0.322716,0.528664,0.349276,0.099307,0.095592,0.244316,0.479885,0.724922,0.755901,0.661758,0.903669,1.239644,1.245299,1.220338,1.297897,1.300245,1.003768,0.555175,0.646716,0.964087,0.891304,0.767331,0.753016,0.705038,0.758061,0.889991,0.7185,0.590965,0.961176,1.179331,0.888321,0.578367,0.553472,0.793847,0.816506,0.656643,0.783985,0.761433,0.35559,0.166622,0.387507,0.876076,1.350111,1.414572,0.783639,0.229023,0.328282,0.722359,0.979581,0.817927,0.551404,0.441214,0.391584,0.333176,0.243368,0.132944,0.066462,0.129961,0.268172,0.412936,0.54483,0.532311,0.32415,0.293034,0.41592,0.317731,0.280211,0.477408,0.544978,0.404374,0.238814,0.389529,0.669037,0.504619,0.254801,0.335733,0.39501,0.299685,0.249604,0.288181,0.354383,0.32616,0.260954,0.277487,0.349983,0.427953,0.463612,0.412536,0.310495,0.304227,0.309048,0.200226,0.158091,0.314004,0.629868,0.733694,0.362064,0.115494,0.167938,0.189127,0.292117,0.515108,0.534598,0.343518,0.14937,0.173198,0.421919,0.618567,0.641984,0.512566,0.357729,0.256047,0.213079,0.209357,0.226522,0.265708,0.238744,0.0797,0.333273,0.948388,0.690375,0.07815,0.160997,0.302314,0.247603,0.342916,0.417856,0.293737,0.101426,0.108097,0.412302,0.452366,0.193039,0.151885,0.328127,0.515324,0.467923,0.229483,0.087366,0.056476,0.122085,0.363322,0.672824,0.82526,0.607504,0.223062,0.166632,0.270291,0.302006,0.322753,0.547118,0.988304,0.882098,0.277656,0.027723,0.15243,0.274353,-0.020694,0.273064,2.144099,3.627274,3.277366,1.676833,0.216184,-0.023516,0.076573,0.087615,0.305928,0.538183,0.568117,0.459649,0.310446,0.190919,0.005708,-0.087492,0.525164,1.227229,0.753484,0.35622,0.828256,0.854195,0.322456,-0.003197,0.688843,1.566677,0.870699,0.718,2.096717,2.147476,1.075343,0.590348,0.799549,1.094372,0.729247,0.449191,0.759484,0.966676,1.012524,1.070516,0.722199,0.432403,1.179225,1.364628,0.277291,-0.021211,0.375728,0.454246,0.719827,1.223409,1.096364,0.528751,0.183807,0.142502,0.196264,0.104356,0.424001,1.297105,1.396468,0.678994,0.341137,0.284057,0.228907,0.349705,0.663457,1.002363,1.019453,0.701489,0.447076,0.88709,1.754318,1.391855,0.698257,1.272395,2.08235,2.268746,1.776492,1.310846,1.330562,1.415241,1.449242,1.596216,1.398975,1.083755,2.092907,2.787874,1.224185,0.069911,0.197531,0.171082,0.406084,1.068864,0.895389,0.471112,1.398368,1.96029,1.108588,0.676164,0.873884,0.944779,0.880348,0.810349,0.750158,0.983346,1.591726,1.622845,1.250749,1.500875,1.414717,0.771937,1.291628,2.304228,2.280408,1.660659,0.891953,0.273082,1.226106,3.253972,2.493573,0.4155,0.246925,0.528364,0.471409,0.670349,0.842315,0.701396,0.491445,0.444128,0.686175,1.141611,1.550606,1.500305,1.230033,1.18496,1.25398,1.253679,1.099003,1.064196,1.314348,1.600561,1.719105,1.554944,0.998153,0.288414,0.162845,0.414372,0.5576,0.995785,1.54092,1.467698,1.238381,1.281054,0.851525,0.316354,0.949161,1.847984,1.973517,1.3647,0.711139,0.894237,1.407153,1.550447,1.153181,0.644333,0.533986,0.613929,0.718862,0.855218,1.002959,1.072122,0.903427,0.639165,0.505583,0.438049,0.3843,0.357181,0.361437,0.388957,0.413017,0.374123,0.297815,0.496307,0.862286,0.91585,0.717856,0.507515,0.484316,0.600154,0.636141,0.747984,0.978044,0.978631,0.793805,0.762529,0.783986,0.767851,0.88759,1.123386,1.280759,1.195918,0.908613,0.793241,0.944256,1.126271,1.023915,0.657985,0.588395,0.700262,0.650547,0.685702,0.84795,0.925986,1.034173,1.190194,1.092943,0.821532,0.659733,0.76091,0.931073,0.774384,0.546381,0.568911,0.854481,0.965693,0.562317,0.303803,0.365139,0.339617,0.295818,0.33935,0.360592,0.339083,0.306306,0.255287,0.207787,0.218492,0.230176,0.184825,0.21467,0.316834,0.346646,0.314301,0.27929,0.287587,0.338141,0.3922,0.385413,0.383277,0.533867,0.705241,0.737381,0.603248,0.462792,0.48596,0.569065,0.63755,0.688487,0.675011,0.625046,0.711003,0.915011,1.060018,1.140028,1.164387,1.088803,1.093186,1.31775,1.387928,1.237942,1.334774,1.484561,1.350337,1.390872,1.618083,1.42038,1.218225,1.576703,1.633668,1.240357,1.452603,1.784536,1.301431,0.837506,0.886361,0.787309,0.546375,0.471442,0.403514,0.280152,0.214253,0.281028,0.425993,0.494594,0.433374,0.295339,0.236279,0.242142,0.230471,0.240522,0.291934,0.334413,0.363333,0.386393,0.360047,0.335176,0.423208,0.50233,0.495024,0.52128,0.576026,0.596698,0.641516,0.764319,0.948465,1.097263,1.111359,1.014224,0.940789,1.109293,1.247187,1.037216,0.89902,1.080901,1.361213,1.364994,1.044279,1.457968,2.315991,2.172987,1.729151,1.67671,1.47685,1.498001,2.616587,3.285394,2.51015,1.577233,1.277306,1.756908,2.411512,2.705787,2.552645,2.501166,2.931416,2.74849,2.232845,2.960651,3.871907,3.491218,2.693065,2.378091,2.848431,3.38995,3.48006,3.44005,3.121377,2.631738,3.694447,5.631238,5.660312,4.231599,2.846224,2.726681,3.149622,2.146533,1.266263,1.652278,1.850825,1.741567,1.807824,1.566494,1.107306,1.125057,1.50973,1.830149,1.657193,1.267184,1.132613,1.078873,1.103613,1.370265,1.362563,0.931869,0.851103,0.950464,0.774322,0.807385,1.046943,0.9772,0.887606,1.024961,1.107603,1.027176,0.884979,0.96978,1.117606,1.029555,0.977267,1.029934,1.007225,1.048049,1.177934,1.088107,0.941738,1.098553,1.597654,2.053487,1.875535,1.336644,0.921957,0.910606,1.112356,1.066021,1.220955,1.836181,2.345167,2.418543,2.067729,1.746772,1.730776,1.995453,2.123815,1.844572,1.940271,2.361327,2.353964,2.912305,4.520604,4.502291,2.961607,2.777041,3.630446,4.241997,3.87006,3.065029,3.282438,4.004152,4.310081,4.583725,5.127553,5.848795,5.91797,4.944296,5.072438,6.572974,6.207905,5.245224,6.1777,6.702691,6.024951,5.580604,5.859823,6.253776,5.809054,6.00425,7.186481,6.753011,5.820826,6.431698,6.4352,5.614656,5.900663,6.167185,5.107251,3.045901,1.70653,2.469915,3.560299,3.711667,2.882231,2.041527,2.118418,2.561766,3.016334,3.643042,4.030171,3.597031,2.465023,1.228634,0.90765,1.07123,0.626083,1.112265,3.226625,3.654356,2.072582,1.480314,2.133503,2.779347,2.784754,2.316163,2.053901,2.493626,3.033535,2.481819,2.171572,2.891377,3.198254,3.151911,3.530427,4.213608,4.822589,4.947516,4.502628,3.827892,3.719983,4.199491,4.798983,5.195688,5.428266,5.588332,5.766582,6.017809,6.350178,6.768733,7.27638,7.836686,8.378692,8.83027,9.125842,9.261866,9.268998,9.178256,9.024042,8.860519,8.749001,8.750815,8.902021,9.129739,9.331732,9.405813,9.314894,9.215308,9.299153,9.758036,10.637291,11.632086,12.386277,12.545229,11.991211,11.099486,10.306828,10.045942,10.434896,11.058417,11.449571,11.146151,10.051852,8.6906,7.646401,7.497733,8.395835,9.767734,10.970298,11.364537,10.706405,9.468246,8.198058,7.44265,7.497082,8.094728,8.892962,9.549418,9.839211,9.839452,9.675116,9.471173,9.321009,9.209218,9.096992,8.945524,8.722694,8.427463,8.067819,7.651753,7.187383,6.683784,6.150464,5.596929,5.038625,4.564349,4.312376,4.421907,5.025009,6.04361,7.160201,8.044251,8.366881,7.999372,7.201748,6.278698,5.53491,5.199823,5.223627,5.491741,5.88959,6.316218,6.771369,7.299918,7.946953,8.751694,9.618419,10.316462,10.609289,10.261263,9.226413,7.881949,6.662337,6.002047,6.243265,7.189311,8.448451,9.628689,10.352372,10.505638,10.206137,9.57937,8.750853,7.849889,7.015525,6.38835,6.108952,6.294764,6.861674,7.621794,8.386379,8.968179,9.259718,9.271804,9.024817,8.539134,7.854259,7.105577,6.458449,6.078249,6.124661,6.565809,7.136776,7.558567,7.552284,6.971093,6.060561,5.138807,4.52395,4.448685,4.777396,5.275223,5.707305,5.874013,5.816186,5.675106,5.592392,5.694552,5.95209,6.24348,6.446005,6.44276,6.236081,5.940006,5.672883,5.552132,5.636145,5.889759,6.269514,6.731971,7.245972,7.814299,8.445544,9.148303,9.919458,10.687505,11.356188,11.829217,12.018205,11.952987,11.754416,11.545684,11.448647,11.500154,11.602326,11.645334,11.519352,11.223595,11.161949,11.832155,13.731954,17.269121,21.922678,26.623728,30.296293,31.878389,31.055149,28.619429,25.453718,22.440506,20.307024,19.058743,18.491592,18.401482,18.594687,19.032824,19.797075,20.971699,22.640554,24.711086,26.637178,27.800859,27.584135,25.479685,22.028053,18.347507,15.562345,14.792431,16.460304,19.537424,22.814184,25.080982,25.297684,23.782324,21.505621,19.442444,18.56439,19.329395,21.126501,23.211367,24.839661,25.328394,24.686659,23.360203,21.801613,20.463297,19.660889,19.332123,19.350035,19.587656,19.917274,20.195932,20.266394,19.970863,19.15155,17.715912,15.924296,14.155819,12.789683,12.201514,12.489862,13.283628,14.166219,14.721035,14.565814,13.78432,12.796188,12.028463,11.908191,12.755572,14.312893,16.127945,17.748371,18.722948,18.839027,18.416271,17.846371,17.521011,17.815554,18.729744,19.887718,20.897285,21.366255,20.950209,19.798059,18.349726,17.048906,16.339287,16.568188,17.56168,18.970415,20.444906,21.635742,22.293436,22.465374,22.25383,21.761091,21.089302,20.338242,19.605597,18.989014,18.609766,18.65436,19.32048,20.742018,22.497635,23.880127,24.195246,23.443575,22.589808,22.669641,24.307209,26.352085,27.175671,25.260906,21.14131,17.149994,15.679636,17.992542,22.228086,25.990873,27.107061,25.690107,23.202852,21.12068,20.326471,20.552368,21.398302,22.478926,23.536903,24.380817,24.82217,24.855497,24.785583,24.947275,25.589737,26.377367,26.730305,26.073874,24.297695,22.078421,20.168945,19.274073,19.713354,21.621181,25.125629,29.732296,33.737827,35.299976,32.817963,27.183937,20.760731,15.929055,14.248366,15.009191,17.11351,19.489212,21.540243,23.088362,23.969501,24.124674,23.98325,24.1164,25.084753,26.885504,28.680439,29.563761,28.791725,27.031179,25.675287,26.122677,29.072374,33.144619,36.575306,37.654819,36.278343,34.169636,33.151928,34.777824,38.431149,42.453499,45.180332,45.606438,44.685719,43.734272,44.037449,45.844334,48.143425,49.847027,49.972054,48.61507,46.509567,44.397285,42.909061,42.197639,42.286945,43.200111,44.83923,46.854492,48.864651,50.494503,51.507671,51.806641,51.299915,49.923023,47.890438,45.5812,43.376476,41.589378,40.191826,39.049072,38.026329,37.016922,36.078388,35.327682,34.881863,34.857967,35.364307,36.329876,37.51572,38.676388,39.566437,39.94043,39.637466,38.834877,37.794533,36.778305,36.048073,35.859833,36.240963,36.92186,37.613075,38.025169,37.868683,36.917809,35.417011,33.821537,32.587627,32.171524,33.028049,35.309402,38.49263,41.963432,45.10751,47.310543,47.988895,47.122322,45.185081,42.668198,40.062714,37.859665,36.477818,35.91394,36.012047,36.615952,37.569447,38.716408,39.940414,41.234791,42.611652,44.083126,45.66132,47.357491,49.13665,50.895248,52.524204,53.914417,54.956806,55.549408,55.708679,55.548325,55.184975,54.735249,54.315762,54.029385,53.848866,53.675163,53.408527,52.949188,52.197372,51.079998,49.706032,48.260506,46.928703,45.895908,45.347397,45.417721,46.005604,46.941299,48.055046,49.177094,50.137691,50.810951,51.246498,51.537811,51.7784,52.061741,52.481327,53.09687,53.851738,54.664272,55.452808,56.135693,56.63126,56.874016,56.863091,56.613796,56.141418,55.461266,54.588623,53.539856,52.33662,51.002235,49.560013,48.033272,46.445343,44.84396,43.419624,42.414459,42.070694,42.630527,44.336174,47.373116,51.389717,55.738182,59.767635,62.827209,64.266022,63.47715,60.661568,56.729332,52.614532,49.251289,47.573708,48.501759,52.20071,57.716843,64.005898,70.023613,74.725723,77.0681,76.421738,73.485161,69.221741,64.594818,60.567745,58.103889,58.024784,60.10392,63.645035,67.949646,72.319275,76.05545,78.469719,79.263199,78.64312,76.850517,74.126457,70.71196,66.848083,62.800972,58.929962,55.615997,53.240017,52.182961,52.825779,55.510654,59.999962,65.609711,71.644447,77.408691,82.207008,85.345421,86.452477,85.876099,84.0616,81.454269,78.499428,75.642342,73.294159,71.568474,70.425713,69.82505,69.725647,70.086662,70.867142,72.000229,73.361343,74.818039,76.237892,77.488503,78.437447,78.961975,79.070641,78.866676,78.455376,77.942024,77.431931,77.030388,76.817642,76.773682,76.853462,77.011909,77.203964,77.384567,77.516296,77.702187,78.16851,79.14576,80.864403],
      "range": 1
    }
  }
]
