[
  {
    "model":"Star, type WK4(iii)",
    "name":"Star, type WK4(iii)",
    "type":"WB_REF",
    "dataQualityMarker":3,
    "dataSource":"https://www.eso.org/sci/facilities/paranal/decommissioned/isaac/tools/lib.html",
    "manufacturer":"A. Pickles (A.J. Pickles, PASP 110,863, 1998)",
    "version":1,
    "wavelength":{
      "value":[
        1150.0,
        1155.0,
        1160.0,
        1165.0,
        1170.0,
        1175.0,
        1180.0,
        1185.0,
        1190.0,
        1195.0,
        1200.0,
        1205.0,
        1210.0,
        1215.0,
        1220.0,
        1225.0,
        1230.0,
        1235.0,
        1240.0,
        1245.0,
        1250.0,
        1255.0,
        1260.0,
        1265.0,
        1270.0,
        1275.0,
        1280.0,
        1285.0,
        1290.0,
        1295.0,
        1300.0,
        1305.0,
        1310.0,
        1315.0,
        1320.0,
        1325.0,
        1330.0,
        1335.0,
        1340.0,
        1345.0,
        1350.0,
        1355.0,
        1360.0,
        1365.0,
        1370.0,
        1375.0,
        1380.0,
        1385.0,
        1390.0,
        1395.0,
        1400.0,
        1405.0,
        1410.0,
        1415.0,
        1420.0,
        1425.0,
        1430.0,
        1435.0,
        1440.0,
        1445.0,
        1450.0,
        1455.0,
        1460.0,
        1465.0,
        1470.0,
        1475.0,
        1480.0,
        1485.0,
        1490.0,
        1495.0,
        1500.0,
        1505.0,
        1510.0,
        1515.0,
        1520.0,
        1525.0,
        1530.0,
        1535.0,
        1540.0,
        1545.0,
        1550.0,
        1555.0,
        1560.0,
        1565.0,
        1570.0,
        1575.0,
        1580.0,
        1585.0,
        1590.0,
        1595.0,
        1600.0,
        1605.0,
        1610.0,
        1615.0,
        1620.0,
        1625.0,
        1630.0,
        1635.0,
        1640.0,
        1645.0,
        1650.0,
        1655.0,
        1660.0,
        1665.0,
        1670.0,
        1675.0,
        1680.0,
        1685.0,
        1690.0,
        1695.0,
        1700.0,
        1705.0,
        1710.0,
        1715.0,
        1720.0,
        1725.0,
        1730.0,
        1735.0,
        1740.0,
        1745.0,
        1750.0,
        1755.0,
        1760.0,
        1765.0,
        1770.0,
        1775.0,
        1780.0,
        1785.0,
        1790.0,
        1795.0,
        1800.0,
        1805.0,
        1810.0,
        1815.0,
        1820.0,
        1825.0,
        1830.0,
        1835.0,
        1840.0,
        1845.0,
        1850.0,
        1855.0,
        1860.0,
        1865.0,
        1870.0,
        1875.0,
        1880.0,
        1885.0,
        1890.0,
        1895.0,
        1900.0,
        1905.0,
        1910.0,
        1915.0,
        1920.0,
        1925.0,
        1930.0,
        1935.0,
        1940.0,
        1945.0,
        1950.0,
        1955.0,
        1960.0,
        1965.0,
        1970.0,
        1975.0,
        1980.0,
        1985.0,
        1990.0,
        1995.0,
        2000.0,
        2005.0,
        2010.0,
        2015.0,
        2020.0,
        2025.0,
        2030.0,
        2035.0,
        2040.0,
        2045.0,
        2050.0,
        2055.0,
        2060.0,
        2065.0,
        2070.0,
        2075.0,
        2080.0,
        2085.0,
        2090.0,
        2095.0,
        2100.0,
        2105.0,
        2110.0,
        2115.0,
        2120.0,
        2125.0,
        2130.0,
        2135.0,
        2140.0,
        2145.0,
        2150.0,
        2155.0,
        2160.0,
        2165.0,
        2170.0,
        2175.0,
        2180.0,
        2185.0,
        2190.0,
        2195.0,
        2200.0,
        2205.0,
        2210.0,
        2215.0,
        2220.0,
        2225.0,
        2230.0,
        2235.0,
        2240.0,
        2245.0,
        2250.0,
        2255.0,
        2260.0,
        2265.0,
        2270.0,
        2275.0,
        2280.0,
        2285.0,
        2290.0,
        2295.0,
        2300.0,
        2305.0,
        2310.0,
        2315.0,
        2320.0,
        2325.0,
        2330.0,
        2335.0,
        2340.0,
        2345.0,
        2350.0,
        2355.0,
        2360.0,
        2365.0,
        2370.0,
        2375.0,
        2380.0,
        2385.0,
        2390.0,
        2395.0,
        2400.0,
        2405.0,
        2410.0,
        2415.0,
        2420.0,
        2425.0,
        2430.0,
        2435.0,
        2440.0,
        2445.0,
        2450.0,
        2455.0,
        2460.0,
        2465.0,
        2470.0,
        2475.0,
        2480.0,
        2485.0,
        2490.0,
        2495.0,
        2500.0,
        2505.0,
        2510.0,
        2515.0,
        2520.0,
        2525.0,
        2530.0,
        2535.0,
        2540.0,
        2545.0,
        2550.0,
        2555.0,
        2560.0,
        2565.0,
        2570.0,
        2575.0,
        2580.0,
        2585.0,
        2590.0,
        2595.0,
        2600.0,
        2605.0,
        2610.0,
        2615.0,
        2620.0,
        2625.0,
        2630.0,
        2635.0,
        2640.0,
        2645.0,
        2650.0,
        2655.0,
        2660.0,
        2665.0,
        2670.0,
        2675.0,
        2680.0,
        2685.0,
        2690.0,
        2695.0,
        2700.0,
        2705.0,
        2710.0,
        2715.0,
        2720.0,
        2725.0,
        2730.0,
        2735.0,
        2740.0,
        2745.0,
        2750.0,
        2755.0,
        2760.0,
        2765.0,
        2770.0,
        2775.0,
        2780.0,
        2785.0,
        2790.0,
        2795.0,
        2800.0,
        2805.0,
        2810.0,
        2815.0,
        2820.0,
        2825.0,
        2830.0,
        2835.0,
        2840.0,
        2845.0,
        2850.0,
        2855.0,
        2860.0,
        2865.0,
        2870.0,
        2875.0,
        2880.0,
        2885.0,
        2890.0,
        2895.0,
        2900.0,
        2905.0,
        2910.0,
        2915.0,
        2920.0,
        2925.0,
        2930.0,
        2935.0,
        2940.0,
        2945.0,
        2950.0,
        2955.0,
        2960.0,
        2965.0,
        2970.0,
        2975.0,
        2980.0,
        2985.0,
        2990.0,
        2995.0,
        3000.0,
        3005.0,
        3010.0,
        3015.0,
        3020.0,
        3025.0,
        3030.0,
        3035.0,
        3040.0,
        3045.0,
        3050.0,
        3055.0,
        3060.0,
        3065.0,
        3070.0,
        3075.0,
        3080.0,
        3085.0,
        3090.0,
        3095.0,
        3100.0,
        3105.0,
        3110.0,
        3115.0,
        3120.0,
        3125.0,
        3130.0,
        3135.0,
        3140.0,
        3145.0,
        3150.0,
        3155.0,
        3160.0,
        3165.0,
        3170.0,
        3175.0,
        3180.0,
        3185.0,
        3190.0,
        3195.0,
        3200.0,
        3205.0,
        3210.0,
        3215.0,
        3220.0,
        3225.0,
        3230.0,
        3235.0,
        3240.0,
        3245.0,
        3250.0,
        3255.0,
        3260.0,
        3265.0,
        3270.0,
        3275.0,
        3280.0,
        3285.0,
        3290.0,
        3295.0,
        3300.0,
        3305.0,
        3310.0,
        3315.0,
        3320.0,
        3325.0,
        3330.0,
        3335.0,
        3340.0,
        3345.0,
        3350.0,
        3355.0,
        3360.0,
        3365.0,
        3370.0,
        3375.0,
        3380.0,
        3385.0,
        3390.0,
        3395.0,
        3400.0,
        3405.0,
        3410.0,
        3415.0,
        3420.0,
        3425.0,
        3430.0,
        3435.0,
        3440.0,
        3445.0,
        3450.0,
        3455.0,
        3460.0,
        3465.0,
        3470.0,
        3475.0,
        3480.0,
        3485.0,
        3490.0,
        3495.0,
        3500.0,
        3505.0,
        3510.0,
        3515.0,
        3520.0,
        3525.0,
        3530.0,
        3535.0,
        3540.0,
        3545.0,
        3550.0,
        3555.0,
        3560.0,
        3565.0,
        3570.0,
        3575.0,
        3580.0,
        3585.0,
        3590.0,
        3595.0,
        3600.0,
        3605.0,
        3610.0,
        3615.0,
        3620.0,
        3625.0,
        3630.0,
        3635.0,
        3640.0,
        3645.0,
        3650.0,
        3655.0,
        3660.0,
        3665.0,
        3670.0,
        3675.0,
        3680.0,
        3685.0,
        3690.0,
        3695.0,
        3700.0,
        3705.0,
        3710.0,
        3715.0,
        3720.0,
        3725.0,
        3730.0,
        3735.0,
        3740.0,
        3745.0,
        3750.0,
        3755.0,
        3760.0,
        3765.0,
        3770.0,
        3775.0,
        3780.0,
        3785.0,
        3790.0,
        3795.0,
        3800.0,
        3805.0,
        3810.0,
        3815.0,
        3820.0,
        3825.0,
        3830.0,
        3835.0,
        3840.0,
        3845.0,
        3850.0,
        3855.0,
        3860.0,
        3865.0,
        3870.0,
        3875.0,
        3880.0,
        3885.0,
        3890.0,
        3895.0,
        3900.0,
        3905.0,
        3910.0,
        3915.0,
        3920.0,
        3925.0,
        3930.0,
        3935.0,
        3940.0,
        3945.0,
        3950.0,
        3955.0,
        3960.0,
        3965.0,
        3970.0,
        3975.0,
        3980.0,
        3985.0,
        3990.0,
        3995.0,
        4000.0,
        4005.0,
        4010.0,
        4015.0,
        4020.0,
        4025.0,
        4030.0,
        4035.0,
        4040.0,
        4045.0,
        4050.0,
        4055.0,
        4060.0,
        4065.0,
        4070.0,
        4075.0,
        4080.0,
        4085.0,
        4090.0,
        4095.0,
        4100.0,
        4105.0,
        4110.0,
        4115.0,
        4120.0,
        4125.0,
        4130.0,
        4135.0,
        4140.0,
        4145.0,
        4150.0,
        4155.0,
        4160.0,
        4165.0,
        4170.0,
        4175.0,
        4180.0,
        4185.0,
        4190.0,
        4195.0,
        4200.0,
        4205.0,
        4210.0,
        4215.0,
        4220.0,
        4225.0,
        4230.0,
        4235.0,
        4240.0,
        4245.0,
        4250.0,
        4255.0,
        4260.0,
        4265.0,
        4270.0,
        4275.0,
        4280.0,
        4285.0,
        4290.0,
        4295.0,
        4300.0,
        4305.0,
        4310.0,
        4315.0,
        4320.0,
        4325.0,
        4330.0,
        4335.0,
        4340.0,
        4345.0,
        4350.0,
        4355.0,
        4360.0,
        4365.0,
        4370.0,
        4375.0,
        4380.0,
        4385.0,
        4390.0,
        4395.0,
        4400.0,
        4405.0,
        4410.0,
        4415.0,
        4420.0,
        4425.0,
        4430.0,
        4435.0,
        4440.0,
        4445.0,
        4450.0,
        4455.0,
        4460.0,
        4465.0,
        4470.0,
        4475.0,
        4480.0,
        4485.0,
        4490.0,
        4495.0,
        4500.0,
        4505.0,
        4510.0,
        4515.0,
        4520.0,
        4525.0,
        4530.0,
        4535.0,
        4540.0,
        4545.0,
        4550.0,
        4555.0,
        4560.0,
        4565.0,
        4570.0,
        4575.0,
        4580.0,
        4585.0,
        4590.0,
        4595.0,
        4600.0,
        4605.0,
        4610.0,
        4615.0,
        4620.0,
        4625.0,
        4630.0,
        4635.0,
        4640.0,
        4645.0,
        4650.0,
        4655.0,
        4660.0,
        4665.0,
        4670.0,
        4675.0,
        4680.0,
        4685.0,
        4690.0,
        4695.0,
        4700.0,
        4705.0,
        4710.0,
        4715.0,
        4720.0,
        4725.0,
        4730.0,
        4735.0,
        4740.0,
        4745.0,
        4750.0,
        4755.0,
        4760.0,
        4765.0,
        4770.0,
        4775.0,
        4780.0,
        4785.0,
        4790.0,
        4795.0,
        4800.0,
        4805.0,
        4810.0,
        4815.0,
        4820.0,
        4825.0,
        4830.0,
        4835.0,
        4840.0,
        4845.0,
        4850.0,
        4855.0,
        4860.0,
        4865.0,
        4870.0,
        4875.0,
        4880.0,
        4885.0,
        4890.0,
        4895.0,
        4900.0,
        4905.0,
        4910.0,
        4915.0,
        4920.0,
        4925.0,
        4930.0,
        4935.0,
        4940.0,
        4945.0,
        4950.0,
        4955.0,
        4960.0,
        4965.0,
        4970.0,
        4975.0,
        4980.0,
        4985.0,
        4990.0,
        4995.0,
        5000.0,
        5005.0,
        5010.0,
        5015.0,
        5020.0,
        5025.0,
        5030.0,
        5035.0,
        5040.0,
        5045.0,
        5050.0,
        5055.0,
        5060.0,
        5065.0,
        5070.0,
        5075.0,
        5080.0,
        5085.0,
        5090.0,
        5095.0,
        5100.0,
        5105.0,
        5110.0,
        5115.0,
        5120.0,
        5125.0,
        5130.0,
        5135.0,
        5140.0,
        5145.0,
        5150.0,
        5155.0,
        5160.0,
        5165.0,
        5170.0,
        5175.0,
        5180.0,
        5185.0,
        5190.0,
        5195.0,
        5200.0,
        5205.0,
        5210.0,
        5215.0,
        5220.0,
        5225.0,
        5230.0,
        5235.0,
        5240.0,
        5245.0,
        5250.0,
        5255.0,
        5260.0,
        5265.0,
        5270.0,
        5275.0,
        5280.0,
        5285.0,
        5290.0,
        5295.0,
        5300.0,
        5305.0,
        5310.0,
        5315.0,
        5320.0,
        5325.0,
        5330.0,
        5335.0,
        5340.0,
        5345.0,
        5350.0,
        5355.0,
        5360.0,
        5365.0,
        5370.0,
        5375.0,
        5380.0,
        5385.0,
        5390.0,
        5395.0,
        5400.0,
        5405.0,
        5410.0,
        5415.0,
        5420.0,
        5425.0,
        5430.0,
        5435.0,
        5440.0,
        5445.0,
        5450.0,
        5455.0,
        5460.0,
        5465.0,
        5470.0,
        5475.0,
        5480.0,
        5485.0,
        5490.0,
        5495.0,
        5500.0,
        5505.0,
        5510.0,
        5515.0,
        5520.0,
        5525.0,
        5530.0,
        5535.0,
        5540.0,
        5545.0,
        5550.0,
        5555.0,
        5560.0,
        5565.0,
        5570.0,
        5575.0,
        5580.0,
        5585.0,
        5590.0,
        5595.0,
        5600.0,
        5605.0,
        5610.0,
        5615.0,
        5620.0,
        5625.0,
        5630.0,
        5635.0,
        5640.0,
        5645.0,
        5650.0,
        5655.0,
        5660.0,
        5665.0,
        5670.0,
        5675.0,
        5680.0,
        5685.0,
        5690.0,
        5695.0,
        5700.0,
        5705.0,
        5710.0,
        5715.0,
        5720.0,
        5725.0,
        5730.0,
        5735.0,
        5740.0,
        5745.0,
        5750.0,
        5755.0,
        5760.0,
        5765.0,
        5770.0,
        5775.0,
        5780.0,
        5785.0,
        5790.0,
        5795.0,
        5800.0,
        5805.0,
        5810.0,
        5815.0,
        5820.0,
        5825.0,
        5830.0,
        5835.0,
        5840.0,
        5845.0,
        5850.0,
        5855.0,
        5860.0,
        5865.0,
        5870.0,
        5875.0,
        5880.0,
        5885.0,
        5890.0,
        5895.0,
        5900.0,
        5905.0,
        5910.0,
        5915.0,
        5920.0,
        5925.0,
        5930.0,
        5935.0,
        5940.0,
        5945.0,
        5950.0,
        5955.0,
        5960.0,
        5965.0,
        5970.0,
        5975.0,
        5980.0,
        5985.0,
        5990.0,
        5995.0,
        6000.0,
        6005.0,
        6010.0,
        6015.0,
        6020.0,
        6025.0,
        6030.0,
        6035.0,
        6040.0,
        6045.0,
        6050.0,
        6055.0,
        6060.0,
        6065.0,
        6070.0,
        6075.0,
        6080.0,
        6085.0,
        6090.0,
        6095.0,
        6100.0,
        6105.0,
        6110.0,
        6115.0,
        6120.0,
        6125.0,
        6130.0,
        6135.0,
        6140.0,
        6145.0,
        6150.0,
        6155.0,
        6160.0,
        6165.0,
        6170.0,
        6175.0,
        6180.0,
        6185.0,
        6190.0,
        6195.0,
        6200.0,
        6205.0,
        6210.0,
        6215.0,
        6220.0,
        6225.0,
        6230.0,
        6235.0,
        6240.0,
        6245.0,
        6250.0,
        6255.0,
        6260.0,
        6265.0,
        6270.0,
        6275.0,
        6280.0,
        6285.0,
        6290.0,
        6295.0,
        6300.0,
        6305.0,
        6310.0,
        6315.0,
        6320.0,
        6325.0,
        6330.0,
        6335.0,
        6340.0,
        6345.0,
        6350.0,
        6355.0,
        6360.0,
        6365.0,
        6370.0,
        6375.0,
        6380.0,
        6385.0,
        6390.0,
        6395.0,
        6400.0,
        6405.0,
        6410.0,
        6415.0,
        6420.0,
        6425.0,
        6430.0,
        6435.0,
        6440.0,
        6445.0,
        6450.0,
        6455.0,
        6460.0,
        6465.0,
        6470.0,
        6475.0,
        6480.0,
        6485.0,
        6490.0,
        6495.0,
        6500.0,
        6505.0,
        6510.0,
        6515.0,
        6520.0,
        6525.0,
        6530.0,
        6535.0,
        6540.0,
        6545.0,
        6550.0,
        6555.0,
        6560.0,
        6565.0,
        6570.0,
        6575.0,
        6580.0,
        6585.0,
        6590.0,
        6595.0,
        6600.0,
        6605.0,
        6610.0,
        6615.0,
        6620.0,
        6625.0,
        6630.0,
        6635.0,
        6640.0,
        6645.0,
        6650.0,
        6655.0,
        6660.0,
        6665.0,
        6670.0,
        6675.0,
        6680.0,
        6685.0,
        6690.0,
        6695.0,
        6700.0,
        6705.0,
        6710.0,
        6715.0,
        6720.0,
        6725.0,
        6730.0,
        6735.0,
        6740.0,
        6745.0,
        6750.0,
        6755.0,
        6760.0,
        6765.0,
        6770.0,
        6775.0,
        6780.0,
        6785.0,
        6790.0,
        6795.0,
        6800.0,
        6805.0,
        6810.0,
        6815.0,
        6820.0,
        6825.0,
        6830.0,
        6835.0,
        6840.0,
        6845.0,
        6850.0,
        6855.0,
        6860.0,
        6865.0,
        6870.0,
        6875.0,
        6880.0,
        6885.0,
        6890.0,
        6895.0,
        6900.0,
        6905.0,
        6910.0,
        6915.0,
        6920.0,
        6925.0,
        6930.0,
        6935.0,
        6940.0,
        6945.0,
        6950.0,
        6955.0,
        6960.0,
        6965.0,
        6970.0,
        6975.0,
        6980.0,
        6985.0,
        6990.0,
        6995.0,
        7000.0,
        7005.0,
        7010.0,
        7015.0,
        7020.0,
        7025.0,
        7030.0,
        7035.0,
        7040.0,
        7045.0,
        7050.0,
        7055.0,
        7060.0,
        7065.0,
        7070.0,
        7075.0,
        7080.0,
        7085.0,
        7090.0,
        7095.0,
        7100.0,
        7105.0,
        7110.0,
        7115.0,
        7120.0,
        7125.0,
        7130.0,
        7135.0,
        7140.0,
        7145.0,
        7150.0,
        7155.0,
        7160.0,
        7165.0,
        7170.0,
        7175.0,
        7180.0,
        7185.0,
        7190.0,
        7195.0,
        7200.0,
        7205.0,
        7210.0,
        7215.0,
        7220.0,
        7225.0,
        7230.0,
        7235.0,
        7240.0,
        7245.0,
        7250.0,
        7255.0,
        7260.0,
        7265.0,
        7270.0,
        7275.0,
        7280.0,
        7285.0,
        7290.0,
        7295.0,
        7300.0,
        7305.0,
        7310.0,
        7315.0,
        7320.0,
        7325.0,
        7330.0,
        7335.0,
        7340.0,
        7345.0,
        7350.0,
        7355.0,
        7360.0,
        7365.0,
        7370.0,
        7375.0,
        7380.0,
        7385.0,
        7390.0,
        7395.0,
        7400.0,
        7405.0,
        7410.0,
        7415.0,
        7420.0,
        7425.0,
        7430.0,
        7435.0,
        7440.0,
        7445.0,
        7450.0,
        7455.0,
        7460.0,
        7465.0,
        7470.0,
        7475.0,
        7480.0,
        7485.0,
        7490.0,
        7495.0,
        7500.0,
        7505.0,
        7510.0,
        7515.0,
        7520.0,
        7525.0,
        7530.0,
        7535.0,
        7540.0,
        7545.0,
        7550.0,
        7555.0,
        7560.0,
        7565.0,
        7570.0,
        7575.0,
        7580.0,
        7585.0,
        7590.0,
        7595.0,
        7600.0,
        7605.0,
        7610.0,
        7615.0,
        7620.0,
        7625.0,
        7630.0,
        7635.0,
        7640.0,
        7645.0,
        7650.0,
        7655.0,
        7660.0,
        7665.0,
        7670.0,
        7675.0,
        7680.0,
        7685.0,
        7690.0,
        7695.0,
        7700.0,
        7705.0,
        7710.0,
        7715.0,
        7720.0,
        7725.0,
        7730.0,
        7735.0,
        7740.0,
        7745.0,
        7750.0,
        7755.0,
        7760.0,
        7765.0,
        7770.0,
        7775.0,
        7780.0,
        7785.0,
        7790.0,
        7795.0,
        7800.0,
        7805.0,
        7810.0,
        7815.0,
        7820.0,
        7825.0,
        7830.0,
        7835.0,
        7840.0,
        7845.0,
        7850.0,
        7855.0,
        7860.0,
        7865.0,
        7870.0,
        7875.0,
        7880.0,
        7885.0,
        7890.0,
        7895.0,
        7900.0,
        7905.0,
        7910.0,
        7915.0,
        7920.0,
        7925.0,
        7930.0,
        7935.0,
        7940.0,
        7945.0,
        7950.0,
        7955.0,
        7960.0,
        7965.0,
        7970.0,
        7975.0,
        7980.0,
        7985.0,
        7990.0,
        7995.0,
        8000.0,
        8005.0,
        8010.0,
        8015.0,
        8020.0,
        8025.0,
        8030.0,
        8035.0,
        8040.0,
        8045.0,
        8050.0,
        8055.0,
        8060.0,
        8065.0,
        8070.0,
        8075.0,
        8080.0,
        8085.0,
        8090.0,
        8095.0,
        8100.0,
        8105.0,
        8110.0,
        8115.0,
        8120.0,
        8125.0,
        8130.0,
        8135.0,
        8140.0,
        8145.0,
        8150.0,
        8155.0,
        8160.0,
        8165.0,
        8170.0,
        8175.0,
        8180.0,
        8185.0,
        8190.0,
        8195.0,
        8200.0,
        8205.0,
        8210.0,
        8215.0,
        8220.0,
        8225.0,
        8230.0,
        8235.0,
        8240.0,
        8245.0,
        8250.0,
        8255.0,
        8260.0,
        8265.0,
        8270.0,
        8275.0,
        8280.0,
        8285.0,
        8290.0,
        8295.0,
        8300.0,
        8305.0,
        8310.0,
        8315.0,
        8320.0,
        8325.0,
        8330.0,
        8335.0,
        8340.0,
        8345.0,
        8350.0,
        8355.0,
        8360.0,
        8365.0,
        8370.0,
        8375.0,
        8380.0,
        8385.0,
        8390.0,
        8395.0,
        8400.0,
        8405.0,
        8410.0,
        8415.0,
        8420.0,
        8425.0,
        8430.0,
        8435.0,
        8440.0,
        8445.0,
        8450.0,
        8455.0,
        8460.0,
        8465.0,
        8470.0,
        8475.0,
        8480.0,
        8485.0,
        8490.0,
        8495.0,
        8500.0,
        8505.0,
        8510.0,
        8515.0,
        8520.0,
        8525.0,
        8530.0,
        8535.0,
        8540.0,
        8545.0,
        8550.0,
        8555.0,
        8560.0,
        8565.0,
        8570.0,
        8575.0,
        8580.0,
        8585.0,
        8590.0,
        8595.0,
        8600.0,
        8605.0,
        8610.0,
        8615.0,
        8620.0,
        8625.0,
        8630.0,
        8635.0,
        8640.0,
        8645.0,
        8650.0,
        8655.0,
        8660.0,
        8665.0,
        8670.0,
        8675.0,
        8680.0,
        8685.0,
        8690.0,
        8695.0,
        8700.0,
        8705.0,
        8710.0,
        8715.0,
        8720.0,
        8725.0,
        8730.0,
        8735.0,
        8740.0,
        8745.0,
        8750.0,
        8755.0,
        8760.0,
        8765.0,
        8770.0,
        8775.0,
        8780.0,
        8785.0,
        8790.0,
        8795.0,
        8800.0,
        8805.0,
        8810.0,
        8815.0,
        8820.0,
        8825.0,
        8830.0,
        8835.0,
        8840.0,
        8845.0,
        8850.0,
        8855.0,
        8860.0,
        8865.0,
        8870.0,
        8875.0,
        8880.0,
        8885.0,
        8890.0,
        8895.0,
        8900.0,
        8905.0,
        8910.0,
        8915.0,
        8920.0,
        8925.0,
        8930.0,
        8935.0,
        8940.0,
        8945.0,
        8950.0,
        8955.0,
        8960.0,
        8965.0,
        8970.0,
        8975.0,
        8980.0,
        8985.0,
        8990.0,
        8995.0,
        9000.0,
        9005.0,
        9010.0,
        9015.0,
        9020.0,
        9025.0,
        9030.0,
        9035.0,
        9040.0,
        9045.0,
        9050.0,
        9055.0,
        9060.0,
        9065.0,
        9070.0,
        9075.0,
        9080.0,
        9085.0,
        9090.0,
        9095.0,
        9100.0,
        9105.0,
        9110.0,
        9115.0,
        9120.0,
        9125.0,
        9130.0,
        9135.0,
        9140.0,
        9145.0,
        9150.0,
        9155.0,
        9160.0,
        9165.0,
        9170.0,
        9175.0,
        9180.0,
        9185.0,
        9190.0,
        9195.0,
        9200.0,
        9205.0,
        9210.0,
        9215.0,
        9220.0,
        9225.0,
        9230.0,
        9235.0,
        9240.0,
        9245.0,
        9250.0,
        9255.0,
        9260.0,
        9265.0,
        9270.0,
        9275.0,
        9280.0,
        9285.0,
        9290.0,
        9295.0,
        9300.0,
        9305.0,
        9310.0,
        9315.0,
        9320.0,
        9325.0,
        9330.0,
        9335.0,
        9340.0,
        9345.0,
        9350.0,
        9355.0,
        9360.0,
        9365.0,
        9370.0,
        9375.0,
        9380.0,
        9385.0,
        9390.0,
        9395.0,
        9400.0,
        9405.0,
        9410.0,
        9415.0,
        9420.0,
        9425.0,
        9430.0,
        9435.0,
        9440.0,
        9445.0,
        9450.0,
        9455.0,
        9460.0,
        9465.0,
        9470.0,
        9475.0,
        9480.0,
        9485.0,
        9490.0,
        9495.0,
        9500.0,
        9505.0,
        9510.0,
        9515.0,
        9520.0,
        9525.0,
        9530.0,
        9535.0,
        9540.0,
        9545.0,
        9550.0,
        9555.0,
        9560.0,
        9565.0,
        9570.0,
        9575.0,
        9580.0,
        9585.0,
        9590.0,
        9595.0,
        9600.0,
        9605.0,
        9610.0,
        9615.0,
        9620.0,
        9625.0,
        9630.0,
        9635.0,
        9640.0,
        9645.0,
        9650.0,
        9655.0,
        9660.0,
        9665.0,
        9670.0,
        9675.0,
        9680.0,
        9685.0,
        9690.0,
        9695.0,
        9700.0,
        9705.0,
        9710.0,
        9715.0,
        9720.0,
        9725.0,
        9730.0,
        9735.0,
        9740.0,
        9745.0,
        9750.0,
        9755.0,
        9760.0,
        9765.0,
        9770.0,
        9775.0,
        9780.0,
        9785.0,
        9790.0,
        9795.0,
        9800.0,
        9805.0,
        9810.0,
        9815.0,
        9820.0,
        9825.0,
        9830.0,
        9835.0,
        9840.0,
        9845.0,
        9850.0,
        9855.0,
        9860.0,
        9865.0,
        9870.0,
        9875.0,
        9880.0,
        9885.0,
        9890.0,
        9895.0,
        9900.0,
        9905.0,
        9910.0,
        9915.0,
        9920.0,
        9925.0,
        9930.0,
        9935.0,
        9940.0,
        9945.0,
        9950.0,
        9955.0,
        9960.0,
        9965.0,
        9970.0,
        9975.0,
        9980.0,
        9985.0,
        9990.0,
        9995.0,
        10000.0,
        10005.0,
        10010.0,
        10015.0,
        10020.0,
        10025.0,
        10030.0,
        10035.0,
        10040.0,
        10045.0,
        10050.0,
        10055.0,
        10060.0,
        10065.0,
        10070.0,
        10075.0,
        10080.0,
        10085.0,
        10090.0,
        10095.0,
        10100.0,
        10105.0,
        10110.0,
        10115.0,
        10120.0,
        10125.0,
        10130.0,
        10135.0,
        10140.0,
        10145.0,
        10150.0,
        10155.0,
        10160.0,
        10165.0,
        10170.0,
        10175.0,
        10180.0,
        10185.0,
        10190.0,
        10195.0,
        10200.0,
        10205.0,
        10210.0,
        10215.0,
        10220.0,
        10225.0,
        10230.0,
        10235.0,
        10240.0,
        10245.0,
        10250.0,
        10255.0,
        10260.0,
        10265.0,
        10270.0,
        10275.0,
        10280.0,
        10285.0,
        10290.0,
        10295.0,
        10300.0,
        10305.0,
        10310.0,
        10315.0,
        10320.0,
        10325.0,
        10330.0,
        10335.0,
        10340.0,
        10345.0,
        10350.0,
        10355.0,
        10360.0,
        10365.0,
        10370.0,
        10375.0,
        10380.0,
        10385.0,
        10390.0,
        10395.0,
        10400.0,
        10405.0,
        10410.0,
        10415.0,
        10420.0,
        10425.0,
        10430.0,
        10435.0,
        10440.0,
        10445.0,
        10450.0,
        10455.0,
        10460.0,
        10465.0,
        10470.0,
        10475.0,
        10480.0,
        10485.0,
        10490.0,
        10495.0,
        10500.0
      ],
      "units":"angstrom"
    },
    "values":{
      "value":[
        0.0,
        0.0,
        0.0,
        0.0,
        0.0,
        0.0,
        0.0,
        0.0,
        0.0,
        0.0,
        0.0,
        0.0,
        0.0,
        0.0,
        0.0,
        0.0,
        0.0,
        0.0,
        0.0,
        0.0,
        0.0,
        0.0,
        0.0,
        0.0,
        0.0,
        0.0,
        0.0,
        0.0,
        0.0,
        0.0,
        0.0,
        0.0,
        0.0,
        0.0,
        0.0,
        0.0,
        0.0,
        0.0,
        0.0,
        0.0,
        0.0,
        0.0,
        0.0,
        0.0,
        0.0,
        0.0,
        0.0,
        0.0,
        0.0,
        0.0,
        0.0,
        0.0,
        0.0,
        0.0,
        0.0,
        0.0,
        0.0,
        0.0,
        0.0,
        0.0,
        0.0,
        0.0,
        0.0,
        0.0,
        0.0,
        0.0,
        0.0,
        0.0,
        0.0,
        0.0,
        0.0,
        0.0,
        0.0,
        0.0,
        0.0,
        0.0,
        0.0,
        0.0,
        0.0,
        0.0,
        0.0,
        0.0,
        0.0,
        0.0,
        0.0,
        0.0,
        0.0,
        0.0,
        0.0,
        0.0,
        0.0,
        0.0,
        0.0,
        0.0,
        0.0,
        0.0,
        0.0,
        0.0,
        0.0,
        0.0,
        0.0,
        0.0,
        0.0,
        0.0,
        0.0,
        0.0,
        0.0,
        0.0,
        0.0,
        0.0,
        0.0,
        0.0,
        0.0,
        0.0,
        0.0,
        0.0,
        0.0,
        0.0,
        0.0,
        0.0,
        0.0,
        0.0,
        0.0,
        0.0,
        0.0,
        0.0,
        0.0,
        0.0,
        0.0,
        0.0,
        0.0,
        0.0,
        0.0,
        0.0,
        0.0,
        0.0,
        0.0,
        0.0,
        0.0,
        0.0,
        0.0,
        0.0,
        0.0,
        0.0,
        0.0,
        0.0,
        0.0,
        0.0,
        0.0,
        0.0,
        0.0,
        0.0,
        0.0,
        0.0,
        0.0,
        0.0,
        0.0,
        0.0,
        0.0,
        0.0,
        0.0,
        0.0,
        0.0,
        0.0,
        0.0,
        0.0,
        0.0,
        0.0,
        0.0,
        0.0,
        0.0,
        0.0,
        0.0,
        0.0,
        0.0,
        0.0,
        0.0,
        0.0,
        0.0,
        0.0,
        0.0,
        0.0,
        0.0,
        0.0,
        0.0,
        0.0,
        0.0,
        0.0,
        0.0,
        0.0,
        0.0,
        0.0,
        0.0,
        0.0,
        0.0,
        0.0,
        0.0,
        0.0,
        0.0,
        0.0,
        0.0,
        0.0,
        0.0,
        0.0,
        0.0,
        0.0,
        0.0,
        0.0,
        0.0,
        0.0,
        0.0,
        0.0,
        0.0,
        0.0,
        0.0,
        0.0,
        0.0,
        0.0,
        0.0,
        0.0,
        0.0,
        0.0,
        0.0,
        0.0,
        0.0,
        0.0,
        0.0,
        0.0,
        0.0,
        0.0,
        0.0,
        0.0,
        0.0,
        0.0,
        0.0,
        0.0,
        0.0,
        0.0,
        0.0,
        0.0,
        0.0,
        0.0,
        0.0,
        0.0,
        0.0,
        0.0,
        0.0,
        0.0,
        0.0,
        0.0,
        0.0,
        0.0,
        0.0,
        0.0,
        0.0,
        0.0,
        0.0,
        0.0,
        0.0,
        0.0,
        0.0,
        0.0,
        0.0,
        0.0,
        0.0,
        0.0,
        0.0,
        0.0,
        0.0,
        0.0,
        0.0,
        0.0,
        1e-06,
        1e-06,
        2e-06,
        2e-06,
        2e-06,
        2e-06,
        2e-06,
        1e-06,
        0.0,
        0.0,
        0.0,
        0.0,
        0.0,
        0.0,
        0.0,
        0.0,
        0.0,
        0.0,
        0.0,
        5e-06,
        1.2e-05,
        1.8e-05,
        2.4e-05,
        2.8e-05,
        3e-05,
        2.9e-05,
        2.4e-05,
        1.5e-05,
        0.0,
        0.0,
        0.0,
        0.0,
        0.0,
        0.0,
        0.0,
        0.0,
        0.0,
        0.0,
        0.0,
        7.8e-05,
        0.00018,
        0.000307,
        0.000458,
        0.000637,
        0.000842,
        0.001075,
        0.001336,
        0.001627,
        0.001948,
        0.002298,
        0.002667,
        0.003043,
        0.003414,
        0.003768,
        0.004094,
        0.004379,
        0.004611,
        0.004779,
        0.00487,
        0.004878,
        0.004815,
        0.004699,
        0.004547,
        0.004379,
        0.004211,
        0.00406,
        0.003946,
        0.003885,
        0.003896,
        0.003991,
        0.004163,
        0.004399,
        0.004687,
        0.005015,
        0.00537,
        0.005741,
        0.006114,
        0.006477,
        0.006818,
        0.007127,
        0.007405,
        0.007653,
        0.007873,
        0.008069,
        0.008243,
        0.008397,
        0.008534,
        0.008656,
        0.008766,
        0.008866,
        0.008959,
        0.009046,
        0.009132,
        0.009217,
        0.009306,
        0.0094,
        0.009502,
        0.009615,
        0.00974,
        0.009882,
        0.010044,
        0.010231,
        0.010449,
        0.010702,
        0.010995,
        0.011332,
        0.011719,
        0.012161,
        0.012662,
        0.013225,
        0.013842,
        0.014503,
        0.015196,
        0.015913,
        0.016643,
        0.017374,
        0.018098,
        0.018804,
        0.019481,
        0.020121,
        0.020731,
        0.021315,
        0.021882,
        0.02244,
        0.022994,
        0.023552,
        0.024122,
        0.02471,
        0.025325,
        0.025968,
        0.026625,
        0.027279,
        0.063223,
        0.060137,
        0.057115,
        0.052587,
        0.048952,
        0.048538,
        0.068654,
        0.06813,
        0.064571,
        0.058556,
        0.052296,
        0.047957,
        0.045898,
        0.045861,
        0.046925,
        0.04826,
        0.050074,
        0.052689,
        0.055844,
        0.059094,
        0.061843,
        0.063682,
        0.065108,
        0.066937,
        0.070371,
        0.075537,
        0.077892,
        0.073881,
        0.068568,
        0.067375,
        0.06854,
        0.069171,
        0.069026,
        0.068732,
        0.069724,
        0.072866,
        0.075951,
        0.076181,
        0.071492,
        0.061937,
        0.055326,
        0.058173,
        0.064082,
        0.066185,
        0.068651,
        0.075852,
        0.081942,
        0.081094,
        0.077764,
        0.077649,
        0.081113,
        0.086094,
        0.086155,
        0.076915,
        0.066582,
        0.063931,
        0.067399,
        0.072754,
        0.075426,
        0.072769,
        0.070176,
        0.072644,
        0.075544,
        0.074208,
        0.073443,
        0.078325,
        0.085536,
        0.090227,
        0.089835,
        0.083931,
        0.078346,
        0.078848,
        0.084697,
        0.093131,
        0.099817,
        0.100891,
        0.09592,
        0.086164,
        0.0762,
        0.069659,
        0.063057,
        0.053497,
        0.04754,
        0.051656,
        0.062479,
        0.074465,
        0.083175,
        0.072918,
        0.074107,
        0.076963,
        0.081686,
        0.0875,
        0.092386,
        0.094569,
        0.095069,
        0.095946,
        0.099005,
        0.105273,
        0.112163,
        0.116274,
        0.116814,
        0.114098,
        0.110341,
        0.108068,
        0.107193,
        0.106655,
        0.106385,
        0.106034,
        0.103935,
        0.098995,
        0.092304,
        0.085229,
        0.079147,
        0.075138,
        0.073323,
        0.073843,
        0.075464,
        0.077179,
        0.081017,
        0.088474,
        0.098187,
        0.107638,
        0.111604,
        0.106582,
        0.097211,
        0.089284,
        0.085432,
        0.085917,
        0.085181,
        0.078255,
        0.06885,
        0.062036,
        0.05937,
        0.061255,
        0.065696,
        0.070157,
        0.073671,
        0.075471,
        0.075702,
        0.075284,
        0.074568,
        0.074484,
        0.078162,
        0.0872,
        0.097759,
        0.105931,
        0.112044,
        0.117297,
        0.120882,
        0.120335,
        0.111612,
        0.093396,
        0.0743,
        0.065139,
        0.071538,
        0.092875,
        0.115743,
        0.125521,
        0.118957,
        0.101776,
        0.092971,
        0.10853,
        0.140279,
        0.173378,
        0.200445,
        0.218361,
        0.229023,
        0.236839,
        0.245931,
        0.257104,
        0.263979,
        0.260908,
        0.251689,
        0.243555,
        0.242532,
        0.250643,
        0.260858,
        0.264804,
        0.260692,
        0.251879,
        0.247244,
        0.253916,
        0.268883,
        0.28467,
        0.29253,
        0.287713,
        0.277305,
        0.270676,
        0.270509,
        0.275035,
        0.279255,
        0.278543,
        0.27299,
        0.265629,
        0.259561,
        0.256937,
        0.259752,
        0.267561,
        0.274007,
        0.27437,
        0.27135,
        0.269094,
        0.270666,
        0.276413,
        0.280497,
        0.27899,
        0.278229,
        0.284655,
        0.294609,
        0.301948,
        0.305088,
        0.305626,
        0.310629,
        0.325543,
        0.341019,
        0.346753,
        0.347731,
        0.350529,
        0.352899,
        0.352201,
        0.349361,
        0.346074,
        0.345924,
        0.349279,
        0.34358,
        0.321012,
        0.300962,
        0.303999,
        0.327084,
        0.359903,
        0.392841,
        0.417769,
        0.433913,
        0.444061,
        0.449864,
        0.453732,
        0.461563,
        0.475584,
        0.489184,
        0.494712,
        0.485662,
        0.4619,
        0.440165,
        0.434888,
        0.44068,
        0.448232,
        0.454451,
        0.459778,
        0.468341,
        0.482306,
        0.494911,
        0.50002,
        0.50263,
        0.509084,
        0.517953,
        0.525088,
        0.526066,
        0.519936,
        0.517994,
        0.530851,
        0.553264,
        0.575362,
        0.589267,
        0.591747,
        0.592254,
        0.601541,
        0.620404,
        0.643163,
        0.655507,
        0.646626,
        0.625737,
        0.606798,
        0.595969,
        0.595126,
        0.602211,
        0.61366,
        0.626086,
        0.637724,
        0.649424,
        0.661122,
        0.66883,
        0.668883,
        0.663643,
        0.657751,
        0.654366,
        0.656236,
        0.666476,
        0.685459,
        0.707221,
        0.724872,
        0.734212,
        0.733611,
        0.723851,
        0.70798,
        0.695183,
        0.692572,
        0.697634,
        0.705226,
        0.709488,
        0.70749,
        0.703877,
        0.703771,
        0.707397,
        0.712329,
        0.715256,
        0.714118,
        0.7106,
        0.708391,
        0.71211,
        0.723508,
        0.735004,
        0.738988,
        0.737683,
        0.736305,
        0.73952,
        0.748786,
        0.75551,
        0.752039,
        0.745329,
        0.744635,
        0.750288,
        0.759472,
        0.767521,
        0.770653,
        0.772916,
        0.779143,
        0.786729,
        0.792149,
        0.796328,
        0.800152,
        0.801284,
        0.798535,
        0.795326,
        0.794317,
        0.793516,
        0.789175,
        0.778284,
        0.761019,
        0.741784,
        0.726829,
        0.724181,
        0.736717,
        0.754021,
        0.765963,
        0.776224,
        0.790286,
        0.80211,
        0.804117,
        0.795962,
        0.781101,
        0.769647,
        0.770436,
        0.780631,
        0.794005,
        0.806371,
        0.815249,
        0.819633,
        0.819951,
        0.820512,
        0.823117,
        0.820212,
        0.806702,
        0.791191,
        0.783193,
        0.782092,
        0.782362,
        0.776858,
        0.762608,
        0.747423,
        0.7409,
        0.746462,
        0.760787,
        0.771345,
        0.768864,
        0.759067,
        0.752643,
        0.757697,
        0.774562,
        0.789775,
        0.79022,
        0.775692,
        0.754371,
        0.740543,
        0.743134,
        0.754711,
        0.76359,
        0.763844,
        0.756113,
        0.748556,
        0.747741,
        0.749708,
        0.748146,
        0.744365,
        0.742076,
        0.739395,
        0.734211,
        0.731122,
        0.731904,
        0.725869,
        0.705459,
        0.680536,
        0.664679,
        0.66793,
        0.692869,
        0.723419,
        0.743383,
        0.752246,
        0.754901,
        0.758521,
        0.7677,
        0.778127,
        0.786016,
        0.796103,
        0.813258,
        0.832533,
        0.845108,
        0.844511,
        0.828358,
        0.804792,
        0.786589,
        0.78327,
        0.799509,
        0.833038,
        0.874796,
        0.90488,
        0.910831,
        0.908185,
        0.914458,
        0.925416,
        0.929973,
        0.92233,
        0.903243,
        0.885619,
        0.883183,
        0.896884,
        0.920145,
        0.943526,
        0.95896,
        0.961887,
        0.953895,
        0.945491,
        0.944305,
        0.948629,
        0.952449,
        0.946282,
        0.926641,
        0.90547,
        0.896164,
        0.904887,
        0.92961,
        0.95297,
        0.960045,
        0.954798,
        0.947539,
        0.948275,
        0.961111,
        0.975387,
        0.97994,
        0.979083,
        0.9802,
        0.978717,
        0.969814,
        0.961557,
        0.961705,
        0.968868,
        0.979754,
        0.98798,
        0.988587,
        0.986123,
        0.98533,
        0.986197,
        0.988529,
        0.990373,
        0.991036,
        0.995972,
        1.008153,
        1.021338,
        1.028659,
        1.027458,
        1.018785,
        1.010273,
        1.007785,
        1.006452,
        1.000519,
        0.990754,
        0.981627,
        0.984984,
        1.007324,
        1.030248,
        1.035985,
        1.032014,
        1.030254,
        1.032238,
        1.035692,
        1.038278,
        1.038212,
        1.034775,
        1.029279,
        1.025098,
        1.024696,
        1.029133,
        1.037546,
        1.045616,
        1.049768,
        1.048281,
        1.040858,
        1.03076,
        1.02203,
        1.019225,
        1.026185,
        1.043738,
        1.068373,
        1.085593,
        1.084005,
        1.072583,
        1.063868,
        1.060385,
        1.060673,
        1.061778,
        1.061192,
        1.059424,
        1.058286,
        1.059323,
        1.062781,
        1.067375,
        1.072312,
        1.078036,
        1.085382,
        1.094233,
        1.103041,
        1.109751,
        1.113309,
        1.114318,
        1.113527,
        1.110879,
        1.105924,
        1.099153,
        1.093213,
        1.090987,
        1.092296,
        1.092486,
        1.084471,
        1.064335,
        1.03618,
        1.011141,
        1.000339,
        1.007926,
        1.028402,
        1.049908,
        1.06352,
        1.068069,
        1.068515,
        1.070894,
        1.077123,
        1.084387,
        1.089122,
        1.090972,
        1.092413,
        1.096168,
        1.10247,
        1.108357,
        1.110786,
        1.109145,
        1.105374,
        1.102494,
        1.101837,
        1.102494,
        1.103052,
        1.103103,
        1.103861,
        1.107064,
        1.113326,
        1.121456,
        1.129504,
        1.135899,
        1.139866,
        1.141517,
        1.141176,
        1.139471,
        1.137695,
        1.137269,
        1.138876,
        1.141684,
        1.143576,
        1.142654,
        1.138876,
        1.134124,
        1.130543,
        1.128702,
        1.126867,
        1.122442,
        1.114488,
        1.104789,
        1.096417,
        1.091444,
        1.089471,
        1.088145,
        1.085802,
        1.082926,
        1.081382,
        1.082457,
        1.08538,
        1.087865,
        1.088188,
        1.08676,
        1.085374,
        1.085423,
        1.086478,
        1.086349,
        1.083304,
        1.07745,
        1.070404,
        1.064132,
        1.059038,
        1.054093,
        1.048555,
        1.042938,
        1.03907,
        1.038587,
        1.041337,
        1.045397,
        1.048619,
        1.050446,
        1.052141,
        1.055312,
        1.060468,
        1.066143,
        1.069915,
        1.070822,
        1.069922,
        1.069932,
        1.073553,
        1.080918,
        1.089722,
        1.096628,
        1.099411,
        1.098948,
        1.098397,
        1.101059,
        1.108029,
        1.117116,
        1.124706,
        1.128186,
        1.127625,
        1.125623,
        1.12494,
        1.126492,
        1.129056,
        1.130711,
        1.130446,
        1.129063,
        1.128343,
        1.129325,
        1.131757,
        1.134391,
        1.135958,
        1.13606,
        1.135034,
        1.13327,
        1.130808,
        1.127626,
        1.123909,
        1.120431,
        1.118319,
        1.118333,
        1.120332,
        1.123377,
        1.126344,
        1.128451,
        1.130174,
        1.13269,
        1.136654,
        1.141469,
        1.144983,
        1.144692,
        1.139515,
        1.131241,
        1.123247,
        1.118809,
        1.119526,
        1.124158,
        1.130453,
        1.136622,
        1.141896,
        1.146487,
        1.150714,
        1.154409,
        1.157085,
        1.158459,
        1.158432,
        1.157126,
        1.154899,
        1.152264,
        1.149927,
        1.14836,
        1.147444,
        1.146711,
        1.145598,
        1.144272,
        1.143761,
        1.144804,
        1.147315,
        1.150014,
        1.151059,
        1.149823,
        1.147317,
        1.145508,
        1.14585,
        1.148112,
        1.150592,
        1.15155,
        1.150643,
        1.148921,
        1.147833,
        1.147936,
        1.148458,
        1.148257,
        1.146871,
        1.145024,
        1.144059,
        1.144926,
        1.147542,
        1.15092,
        1.153989,
        1.155978,
        1.156849,
        1.157057,
        1.157199,
        1.158332,
        1.161226,
        1.16625,
        1.173173,
        1.18023,
        1.185534,
        1.187568,
        1.185577,
        1.180726,
        1.174587,
        1.168545,
        1.163581,
        1.159851,
        1.157068,
        1.154888,
        1.15322,
        1.152052,
        1.1518,
        1.15294,
        1.155313,
        1.157974,
        1.159497,
        1.158646,
        1.155088,
        1.149879,
        1.144433,
        1.139847,
        1.136671,
        1.134677,
        1.133523,
        1.132903,
        1.1324,
        1.131411,
        1.12942,
        1.126242,
        1.122174,
        1.118153,
        1.114881,
        1.11258,
        1.111181,
        1.110216,
        1.109489,
        1.109072,
        1.108971,
        1.109239,
        1.109829,
        1.110799,
        1.11234,
        1.114264,
        1.11613,
        1.117208,
        1.116814,
        1.114949,
        1.111976,
        1.108509,
        1.105083,
        1.10197,
        1.099253,
        1.096952,
        1.095073,
        1.093394,
        1.091642,
        1.089525,
        1.086924,
        1.084412,
        1.082776,
        1.082802,
        1.084957,
        1.088366,
        1.091814,
        1.094076,
        1.094084,
        1.09161,
        1.086595,
        1.078959,
        1.069065,
        1.058909,
        1.050899,
        1.047506,
        1.050359,
        1.057778,
        1.067231,
        1.076143,
        1.082384,
        1.085703,
        1.086388,
        1.084726,
        1.081129,
        1.076447,
        1.071637,
        1.06765,
        1.065233,
        1.064311,
        1.064594,
        1.065773,
        1.06751,
        1.069516,
        1.071525,
        1.073318,
        1.074759,
        1.075963,
        1.077105,
        1.078321,
        1.079683,
        1.081095,
        1.082408,
        1.083479,
        1.084205,
        1.084606,
        1.084765,
        1.084789,
        1.084781,
        1.084849,
        1.085127,
        1.085721,
        1.086727,
        1.088078,
        1.089645,
        1.091274,
        1.092844,
        1.094444,
        1.096206,
        1.098247,
        1.100629,
        1.103168,
        1.105606,
        1.107705,
        1.109297,
        1.110471,
        1.1114,
        1.11225,
        1.113115,
        1.113889,
        1.114365,
        1.114364,
        1.113837,
        1.11321,
        1.113049,
        1.113922,
        1.116274,
        1.119972,
        1.124747,
        1.130326,
        1.136317,
        1.141962,
        1.146394,
        1.148755,
        1.148735,
        1.148117,
        1.149205,
        1.15434,
        1.164572,
        1.175982,
        1.18339,
        1.181595,
        1.167501,
        1.146314,
        1.125291,
        1.111702,
        1.110568,
        1.117922,
        1.127551,
        1.133207,
        1.130358,
        1.121239,
        1.109787,
        1.099953,
        1.094624,
        1.09246,
        1.091059,
        1.088014,
        1.081815,
        1.074564,
        1.069256,
        1.068859,
        1.075315,
        1.086292,
        1.098399,
        1.108267,
        1.11337,
        1.114569,
        1.113551,
        1.112006,
        1.11131,
        1.111611,
        1.112761,
        1.114604,
        1.116923,
        1.11928,
        1.12118,
        1.12212,
        1.121801,
        1.120674,
        1.11937,
        1.118518,
        1.118572,
        1.119255,
        1.120086,
        1.120609,
        1.120468,
        1.119744,
        1.118622,
        1.117305,
        1.115979,
        1.114601,
        1.113122,
        1.111446,
        1.109469,
        1.107139,
        1.104393,
        1.101176,
        1.097481,
        1.093433,
        1.089204,
        1.08498,
        1.080903,
        1.076981,
        1.07316,
        1.069375,
        1.065588,
        1.061976,
        1.058811,
        1.056372,
        1.054875,
        1.054244,
        1.054304,
        1.054841,
        1.055681,
        1.05686,
        1.058436,
        1.060454,
        1.062895,
        1.065377,
        1.067417,
        1.068593,
        1.068614,
        1.067869,
        1.0669,
        1.055679,
        1.056052,
        1.057527,
        1.059548,
        1.06156,
        1.063133,
        1.064338,
        1.065373,
        1.066436,
        1.067616,
        1.068572,
        1.068854,
        1.068012,
        1.065655,
        1.061619,
        1.055802,
        1.048098,
        1.038797,
        1.029777,
        1.023306,
        1.021658,
        1.026266,
        1.035223,
        1.045784,
        1.055206,
        1.061168,
        1.06305,
        1.060657,
        1.053792,
        1.042697,
        1.029364,
        1.016221,
        1.005698,
        0.999736,
        0.998326,
        1.000974,
        1.007184,
        1.016219,
        1.026371,
        1.035693,
        1.042236,
        1.044597,
        1.043562,
        1.040461,
        1.036626,
        1.033406,
        1.032216,
        1.034491,
        1.041663,
        1.054295,
        1.069473,
        1.083414,
        1.092332,
        1.093495,
        1.08837,
        1.079477,
        1.069335,
        1.059967,
        1.051419,
        1.043242,
        1.034987,
        1.026393,
        1.017952,
        1.010346,
        1.004256,
        1.000139,
        0.99757,
        0.995896,
        0.994469,
        0.992864,
        0.991565,
        0.991281,
        0.99272,
        0.996323,
        1.001454,
        1.007209,
        1.012684,
        1.017153,
        1.020599,
        1.023185,
        1.025075,
        1.026417,
        1.0273,
        1.027801,
        1.027993,
        1.027993,
        1.028074,
        1.02855,
        1.029734,
        1.031756,
        1.034005,
        1.035688,
        1.036011,
        1.034413,
        1.031266,
        1.02718,
        1.022759,
        1.018481,
        1.014294,
        1.010017,
        1.005469,
        1.000441,
        0.994618,
        0.987657,
        0.979216,
        0.969259,
        0.958972,
        0.949847,
        0.943377,
        0.94081,
        0.942425,
        0.948258,
        0.958342,
        0.972274,
        0.987887,
        1.002575,
        1.013732,
        1.019622,
        1.021982,
        1.023418,
        1.026537,
        1.033054,
        1.041126,
        1.048023,
        1.05101,
        1.048088,
        1.04018,
        1.028943,
        1.016033,
        1.003049,
        0.991368,
        0.982307,
        0.977185,
        0.976911,
        0.980745,
        0.987539,
        0.996144,
        1.005526,
        1.015115,
        1.024454,
        1.033087,
        1.040572,
        1.04651,
        1.050514,
        1.052197,
        1.05143,
        1.0491,
        1.046349,
        1.044322,
        1.043898,
        1.044899,
        1.046883,
        1.049409,
        1.051944,
        1.053593,
        1.053368,
        1.050282,
        1.043792,
        1.035138,
        1.026005,
        1.018076,
        1.012735,
        1.010164,
        1.010241,
        1.012846,
        1.017694,
        1.023839,
        1.030168,
        1.03557,
        1.039202,
        1.041296,
        1.042354,
        1.042878,
        1.043262,
        1.043477,
        1.043387,
        1.042858,
        1.041878,
        1.040936,
        1.040641,
        1.041607,
        1.044138,
        1.047313,
        1.049904,
        1.050683,
        1.048803,
        1.044951,
        1.040192,
        1.035594,
        1.031979,
        1.029187,
        1.026814,
        1.024455,
        1.021632,
        1.017573,
        1.011433,
        1.002365,
        0.99022,
        0.977635,
        0.967943,
        0.964475,
        0.969694,
        0.982581,
        1.001246,
        1.023797,
        1.048209,
        1.071906,
        1.092179,
        1.106317,
        1.112124,
        1.109475,
        1.098759,
        1.080367,
        1.05533,
        1.027246,
        1.000357,
        0.978902,
        0.966064,
        0.96079,
        0.960971,
        0.964497,
        0.969287,
        0.973383,
        0.974855,
        0.971774,
        0.962844,
        0.949288,
        0.932963,
        0.915724,
        0.899261,
        0.884589,
        0.872558,
        0.864016,
        0.859656,
        0.859534,
        0.863551,
        0.871607,
        0.883295,
        0.896986,
        0.910747,
        0.922642,
        0.931199,
        0.936799,
        0.940281,
        0.942489,
        0.943958,
        0.944008,
        0.941652,
        0.935904,
        0.926834,
        0.918745,
        0.916996,
        0.926946,
        0.951647,
        0.984923,
        1.018291,
        1.043268,
        1.05314,
        1.04828,
        1.030832,
        1.002937,
        0.967523,
        0.930643,
        0.899137,
        0.87984,
        0.876741,
        0.882418,
        0.886599,
        0.879012,
        0.85293,
        0.815799,
        0.778606,
        0.752342,
        0.745637,
        0.757685,
        0.785318,
        0.825373,
        0.873649,
        0.921821,
        0.960528,
        0.98041,
        0.975222,
        0.951178,
        0.917602,
        0.883822,
        0.857536,
        0.839933,
        0.830572,
        0.829013,
        0.834374,
        0.843999,
        0.854793,
        0.863657,
        0.868428,
        0.870665,
        0.872861,
        0.87751,
        0.886137,
        0.896403,
        0.905,
        0.908624,
        0.905317,
        0.898528,
        0.893056,
        0.893701,
        0.903618,
        0.919389,
        0.93595,
        0.94824,
        0.952394,
        0.949344,
        0.94122,
        0.93015,
        0.918036,
        0.905858,
        0.89437,
        0.884323,
        0.87629,
        0.870123,
        0.865495,
        0.86208,
        0.859498,
        0.857166,
        0.854448,
        0.85071,
        0.845512,
        0.83919,
        0.83228,
        0.825313,
        0.819014,
        0.814867,
        0.81455,
        0.819739,
        0.831234,
        0.846346,
        0.861507,
        0.873151,
        0.878724,
        0.879716,
        0.878631,
        0.877969,
        0.879521,
        0.882228,
        0.884319,
        0.884024,
        0.880075,
        0.873216,
        0.864696,
        0.855762,
        0.84753,
        0.840577,
        0.83535,
        0.832293,
        0.831667,
        0.832987,
        0.835588,
        0.838799,
        0.84208,
        0.845398,
        0.848847,
        0.852521,
        0.856465,
        0.860521,
        0.864483,
        0.868144,
        0.871263,
        0.873466,
        0.874345,
        0.87349,
        0.870764,
        0.867103,
        0.863717,
        0.861814,
        0.862156,
        0.863729,
        0.865074,
        0.864732,
        0.861762,
        0.857298,
        0.852994,
        0.850501,
        0.850994,
        0.853739,
        0.857523,
        0.861132,
        0.863638,
        0.865243,
        0.866436,
        0.867703,
        0.869394,
        0.871308,
        0.87311,
        0.874461,
        0.875139,
        0.875385,
        0.875554,
        0.876,
        0.876995,
        0.878475,
        0.880291,
        0.882293,
        0.884279,
        0.885823,
        0.886444,
        0.885661,
        0.883193,
        0.879562,
        0.875485,
        0.871685,
        0.86877,
        0.866908,
        0.866156,
        0.866572,
        0.868104,
        0.870266,
        0.872462,
        0.874096,
        0.8747,
        0.874312,
        0.873095,
        0.871214,
        0.868868,
        0.866397,
        0.864179,
        0.862589,
        0.861834,
        0.861449,
        0.8608,
        0.859251,
        0.856421,
        0.852936,
        0.849676,
        0.847521,
        0.847114,
        0.84816,
        0.850129,
        0.852491,
        0.854729,
        0.856375,
        0.856975,
        0.856077,
        0.853481,
        0.850015,
        0.846762,
        0.844804,
        0.844897,
        0.84649,
        0.848704,
        0.85066,
        0.85167,
        0.851807,
        0.851333,
        0.850512,
        0.849619,
        0.848983,
        0.848943,
        0.84984,
        0.851819,
        0.854241,
        0.85627,
        0.85707,
        0.859556,
        0.858065,
        0.856115,
        0.853997,
        0.851994,
        0.850394,
        0.84948,
        0.849537,
        0.850695,
        0.85247,
        0.854226,
        0.855325,
        0.855317,
        0.854502,
        0.853368,
        0.852402,
        0.851986,
        0.852085,
        0.852561,
        0.853273,
        0.8541,
        0.854994,
        0.855928,
        0.856873,
        0.857772,
        0.85846,
        0.858742,
        0.858423,
        0.857407,
        0.855983,
        0.854536,
        0.853451,
        0.853005,
        0.853031,
        0.853255,
        0.8534,
        0.853247,
        0.852805,
        0.852137,
        0.851309
      ],
      "range":1
    }
  }
]
