[
  {
    "model":"Star, type M2(v)",
    "name":"Star, type M2(v)",
    "type":"WB_REF",
    "dataQualityMarker":3,
    "dataSource":"https://www.eso.org/sci/facilities/paranal/decommissioned/isaac/tools/lib.html",
    "manufacturer":"A. Pickles (A.J. Pickles, PASP 110,863, 1998)",
    "version":1,
    "wavelength":{
      "value":[
        1150.0,
        1155.0,
        1160.0,
        1165.0,
        1170.0,
        1175.0,
        1180.0,
        1185.0,
        1190.0,
        1195.0,
        1200.0,
        1205.0,
        1210.0,
        1215.0,
        1220.0,
        1225.0,
        1230.0,
        1235.0,
        1240.0,
        1245.0,
        1250.0,
        1255.0,
        1260.0,
        1265.0,
        1270.0,
        1275.0,
        1280.0,
        1285.0,
        1290.0,
        1295.0,
        1300.0,
        1305.0,
        1310.0,
        1315.0,
        1320.0,
        1325.0,
        1330.0,
        1335.0,
        1340.0,
        1345.0,
        1350.0,
        1355.0,
        1360.0,
        1365.0,
        1370.0,
        1375.0,
        1380.0,
        1385.0,
        1390.0,
        1395.0,
        1400.0,
        1405.0,
        1410.0,
        1415.0,
        1420.0,
        1425.0,
        1430.0,
        1435.0,
        1440.0,
        1445.0,
        1450.0,
        1455.0,
        1460.0,
        1465.0,
        1470.0,
        1475.0,
        1480.0,
        1485.0,
        1490.0,
        1495.0,
        1500.0,
        1505.0,
        1510.0,
        1515.0,
        1520.0,
        1525.0,
        1530.0,
        1535.0,
        1540.0,
        1545.0,
        1550.0,
        1555.0,
        1560.0,
        1565.0,
        1570.0,
        1575.0,
        1580.0,
        1585.0,
        1590.0,
        1595.0,
        1600.0,
        1605.0,
        1610.0,
        1615.0,
        1620.0,
        1625.0,
        1630.0,
        1635.0,
        1640.0,
        1645.0,
        1650.0,
        1655.0,
        1660.0,
        1665.0,
        1670.0,
        1675.0,
        1680.0,
        1685.0,
        1690.0,
        1695.0,
        1700.0,
        1705.0,
        1710.0,
        1715.0,
        1720.0,
        1725.0,
        1730.0,
        1735.0,
        1740.0,
        1745.0,
        1750.0,
        1755.0,
        1760.0,
        1765.0,
        1770.0,
        1775.0,
        1780.0,
        1785.0,
        1790.0,
        1795.0,
        1800.0,
        1805.0,
        1810.0,
        1815.0,
        1820.0,
        1825.0,
        1830.0,
        1835.0,
        1840.0,
        1845.0,
        1850.0,
        1855.0,
        1860.0,
        1865.0,
        1870.0,
        1875.0,
        1880.0,
        1885.0,
        1890.0,
        1895.0,
        1900.0,
        1905.0,
        1910.0,
        1915.0,
        1920.0,
        1925.0,
        1930.0,
        1935.0,
        1940.0,
        1945.0,
        1950.0,
        1955.0,
        1960.0,
        1965.0,
        1970.0,
        1975.0,
        1980.0,
        1985.0,
        1990.0,
        1995.0,
        2000.0,
        2005.0,
        2010.0,
        2015.0,
        2020.0,
        2025.0,
        2030.0,
        2035.0,
        2040.0,
        2045.0,
        2050.0,
        2055.0,
        2060.0,
        2065.0,
        2070.0,
        2075.0,
        2080.0,
        2085.0,
        2090.0,
        2095.0,
        2100.0,
        2105.0,
        2110.0,
        2115.0,
        2120.0,
        2125.0,
        2130.0,
        2135.0,
        2140.0,
        2145.0,
        2150.0,
        2155.0,
        2160.0,
        2165.0,
        2170.0,
        2175.0,
        2180.0,
        2185.0,
        2190.0,
        2195.0,
        2200.0,
        2205.0,
        2210.0,
        2215.0,
        2220.0,
        2225.0,
        2230.0,
        2235.0,
        2240.0,
        2245.0,
        2250.0,
        2255.0,
        2260.0,
        2265.0,
        2270.0,
        2275.0,
        2280.0,
        2285.0,
        2290.0,
        2295.0,
        2300.0,
        2305.0,
        2310.0,
        2315.0,
        2320.0,
        2325.0,
        2330.0,
        2335.0,
        2340.0,
        2345.0,
        2350.0,
        2355.0,
        2360.0,
        2365.0,
        2370.0,
        2375.0,
        2380.0,
        2385.0,
        2390.0,
        2395.0,
        2400.0,
        2405.0,
        2410.0,
        2415.0,
        2420.0,
        2425.0,
        2430.0,
        2435.0,
        2440.0,
        2445.0,
        2450.0,
        2455.0,
        2460.0,
        2465.0,
        2470.0,
        2475.0,
        2480.0,
        2485.0,
        2490.0,
        2495.0,
        2500.0,
        2505.0,
        2510.0,
        2515.0,
        2520.0,
        2525.0,
        2530.0,
        2535.0,
        2540.0,
        2545.0,
        2550.0,
        2555.0,
        2560.0,
        2565.0,
        2570.0,
        2575.0,
        2580.0,
        2585.0,
        2590.0,
        2595.0,
        2600.0,
        2605.0,
        2610.0,
        2615.0,
        2620.0,
        2625.0,
        2630.0,
        2635.0,
        2640.0,
        2645.0,
        2650.0,
        2655.0,
        2660.0,
        2665.0,
        2670.0,
        2675.0,
        2680.0,
        2685.0,
        2690.0,
        2695.0,
        2700.0,
        2705.0,
        2710.0,
        2715.0,
        2720.0,
        2725.0,
        2730.0,
        2735.0,
        2740.0,
        2745.0,
        2750.0,
        2755.0,
        2760.0,
        2765.0,
        2770.0,
        2775.0,
        2780.0,
        2785.0,
        2790.0,
        2795.0,
        2800.0,
        2805.0,
        2810.0,
        2815.0,
        2820.0,
        2825.0,
        2830.0,
        2835.0,
        2840.0,
        2845.0,
        2850.0,
        2855.0,
        2860.0,
        2865.0,
        2870.0,
        2875.0,
        2880.0,
        2885.0,
        2890.0,
        2895.0,
        2900.0,
        2905.0,
        2910.0,
        2915.0,
        2920.0,
        2925.0,
        2930.0,
        2935.0,
        2940.0,
        2945.0,
        2950.0,
        2955.0,
        2960.0,
        2965.0,
        2970.0,
        2975.0,
        2980.0,
        2985.0,
        2990.0,
        2995.0,
        3000.0,
        3005.0,
        3010.0,
        3015.0,
        3020.0,
        3025.0,
        3030.0,
        3035.0,
        3040.0,
        3045.0,
        3050.0,
        3055.0,
        3060.0,
        3065.0,
        3070.0,
        3075.0,
        3080.0,
        3085.0,
        3090.0,
        3095.0,
        3100.0,
        3105.0,
        3110.0,
        3115.0,
        3120.0,
        3125.0,
        3130.0,
        3135.0,
        3140.0,
        3145.0,
        3150.0,
        3155.0,
        3160.0,
        3165.0,
        3170.0,
        3175.0,
        3180.0,
        3185.0,
        3190.0,
        3195.0,
        3200.0,
        3205.0,
        3210.0,
        3215.0,
        3220.0,
        3225.0,
        3230.0,
        3235.0,
        3240.0,
        3245.0,
        3250.0,
        3255.0,
        3260.0,
        3265.0,
        3270.0,
        3275.0,
        3280.0,
        3285.0,
        3290.0,
        3295.0,
        3300.0,
        3305.0,
        3310.0,
        3315.0,
        3320.0,
        3325.0,
        3330.0,
        3335.0,
        3340.0,
        3345.0,
        3350.0,
        3355.0,
        3360.0,
        3365.0,
        3370.0,
        3375.0,
        3380.0,
        3385.0,
        3390.0,
        3395.0,
        3400.0,
        3405.0,
        3410.0,
        3415.0,
        3420.0,
        3425.0,
        3430.0,
        3435.0,
        3440.0,
        3445.0,
        3450.0,
        3455.0,
        3460.0,
        3465.0,
        3470.0,
        3475.0,
        3480.0,
        3485.0,
        3490.0,
        3495.0,
        3500.0,
        3505.0,
        3510.0,
        3515.0,
        3520.0,
        3525.0,
        3530.0,
        3535.0,
        3540.0,
        3545.0,
        3550.0,
        3555.0,
        3560.0,
        3565.0,
        3570.0,
        3575.0,
        3580.0,
        3585.0,
        3590.0,
        3595.0,
        3600.0,
        3605.0,
        3610.0,
        3615.0,
        3620.0,
        3625.0,
        3630.0,
        3635.0,
        3640.0,
        3645.0,
        3650.0,
        3655.0,
        3660.0,
        3665.0,
        3670.0,
        3675.0,
        3680.0,
        3685.0,
        3690.0,
        3695.0,
        3700.0,
        3705.0,
        3710.0,
        3715.0,
        3720.0,
        3725.0,
        3730.0,
        3735.0,
        3740.0,
        3745.0,
        3750.0,
        3755.0,
        3760.0,
        3765.0,
        3770.0,
        3775.0,
        3780.0,
        3785.0,
        3790.0,
        3795.0,
        3800.0,
        3805.0,
        3810.0,
        3815.0,
        3820.0,
        3825.0,
        3830.0,
        3835.0,
        3840.0,
        3845.0,
        3850.0,
        3855.0,
        3860.0,
        3865.0,
        3870.0,
        3875.0,
        3880.0,
        3885.0,
        3890.0,
        3895.0,
        3900.0,
        3905.0,
        3910.0,
        3915.0,
        3920.0,
        3925.0,
        3930.0,
        3935.0,
        3940.0,
        3945.0,
        3950.0,
        3955.0,
        3960.0,
        3965.0,
        3970.0,
        3975.0,
        3980.0,
        3985.0,
        3990.0,
        3995.0,
        4000.0,
        4005.0,
        4010.0,
        4015.0,
        4020.0,
        4025.0,
        4030.0,
        4035.0,
        4040.0,
        4045.0,
        4050.0,
        4055.0,
        4060.0,
        4065.0,
        4070.0,
        4075.0,
        4080.0,
        4085.0,
        4090.0,
        4095.0,
        4100.0,
        4105.0,
        4110.0,
        4115.0,
        4120.0,
        4125.0,
        4130.0,
        4135.0,
        4140.0,
        4145.0,
        4150.0,
        4155.0,
        4160.0,
        4165.0,
        4170.0,
        4175.0,
        4180.0,
        4185.0,
        4190.0,
        4195.0,
        4200.0,
        4205.0,
        4210.0,
        4215.0,
        4220.0,
        4225.0,
        4230.0,
        4235.0,
        4240.0,
        4245.0,
        4250.0,
        4255.0,
        4260.0,
        4265.0,
        4270.0,
        4275.0,
        4280.0,
        4285.0,
        4290.0,
        4295.0,
        4300.0,
        4305.0,
        4310.0,
        4315.0,
        4320.0,
        4325.0,
        4330.0,
        4335.0,
        4340.0,
        4345.0,
        4350.0,
        4355.0,
        4360.0,
        4365.0,
        4370.0,
        4375.0,
        4380.0,
        4385.0,
        4390.0,
        4395.0,
        4400.0,
        4405.0,
        4410.0,
        4415.0,
        4420.0,
        4425.0,
        4430.0,
        4435.0,
        4440.0,
        4445.0,
        4450.0,
        4455.0,
        4460.0,
        4465.0,
        4470.0,
        4475.0,
        4480.0,
        4485.0,
        4490.0,
        4495.0,
        4500.0,
        4505.0,
        4510.0,
        4515.0,
        4520.0,
        4525.0,
        4530.0,
        4535.0,
        4540.0,
        4545.0,
        4550.0,
        4555.0,
        4560.0,
        4565.0,
        4570.0,
        4575.0,
        4580.0,
        4585.0,
        4590.0,
        4595.0,
        4600.0,
        4605.0,
        4610.0,
        4615.0,
        4620.0,
        4625.0,
        4630.0,
        4635.0,
        4640.0,
        4645.0,
        4650.0,
        4655.0,
        4660.0,
        4665.0,
        4670.0,
        4675.0,
        4680.0,
        4685.0,
        4690.0,
        4695.0,
        4700.0,
        4705.0,
        4710.0,
        4715.0,
        4720.0,
        4725.0,
        4730.0,
        4735.0,
        4740.0,
        4745.0,
        4750.0,
        4755.0,
        4760.0,
        4765.0,
        4770.0,
        4775.0,
        4780.0,
        4785.0,
        4790.0,
        4795.0,
        4800.0,
        4805.0,
        4810.0,
        4815.0,
        4820.0,
        4825.0,
        4830.0,
        4835.0,
        4840.0,
        4845.0,
        4850.0,
        4855.0,
        4860.0,
        4865.0,
        4870.0,
        4875.0,
        4880.0,
        4885.0,
        4890.0,
        4895.0,
        4900.0,
        4905.0,
        4910.0,
        4915.0,
        4920.0,
        4925.0,
        4930.0,
        4935.0,
        4940.0,
        4945.0,
        4950.0,
        4955.0,
        4960.0,
        4965.0,
        4970.0,
        4975.0,
        4980.0,
        4985.0,
        4990.0,
        4995.0,
        5000.0,
        5005.0,
        5010.0,
        5015.0,
        5020.0,
        5025.0,
        5030.0,
        5035.0,
        5040.0,
        5045.0,
        5050.0,
        5055.0,
        5060.0,
        5065.0,
        5070.0,
        5075.0,
        5080.0,
        5085.0,
        5090.0,
        5095.0,
        5100.0,
        5105.0,
        5110.0,
        5115.0,
        5120.0,
        5125.0,
        5130.0,
        5135.0,
        5140.0,
        5145.0,
        5150.0,
        5155.0,
        5160.0,
        5165.0,
        5170.0,
        5175.0,
        5180.0,
        5185.0,
        5190.0,
        5195.0,
        5200.0,
        5205.0,
        5210.0,
        5215.0,
        5220.0,
        5225.0,
        5230.0,
        5235.0,
        5240.0,
        5245.0,
        5250.0,
        5255.0,
        5260.0,
        5265.0,
        5270.0,
        5275.0,
        5280.0,
        5285.0,
        5290.0,
        5295.0,
        5300.0,
        5305.0,
        5310.0,
        5315.0,
        5320.0,
        5325.0,
        5330.0,
        5335.0,
        5340.0,
        5345.0,
        5350.0,
        5355.0,
        5360.0,
        5365.0,
        5370.0,
        5375.0,
        5380.0,
        5385.0,
        5390.0,
        5395.0,
        5400.0,
        5405.0,
        5410.0,
        5415.0,
        5420.0,
        5425.0,
        5430.0,
        5435.0,
        5440.0,
        5445.0,
        5450.0,
        5455.0,
        5460.0,
        5465.0,
        5470.0,
        5475.0,
        5480.0,
        5485.0,
        5490.0,
        5495.0,
        5500.0,
        5505.0,
        5510.0,
        5515.0,
        5520.0,
        5525.0,
        5530.0,
        5535.0,
        5540.0,
        5545.0,
        5550.0,
        5555.0,
        5560.0,
        5565.0,
        5570.0,
        5575.0,
        5580.0,
        5585.0,
        5590.0,
        5595.0,
        5600.0,
        5605.0,
        5610.0,
        5615.0,
        5620.0,
        5625.0,
        5630.0,
        5635.0,
        5640.0,
        5645.0,
        5650.0,
        5655.0,
        5660.0,
        5665.0,
        5670.0,
        5675.0,
        5680.0,
        5685.0,
        5690.0,
        5695.0,
        5700.0,
        5705.0,
        5710.0,
        5715.0,
        5720.0,
        5725.0,
        5730.0,
        5735.0,
        5740.0,
        5745.0,
        5750.0,
        5755.0,
        5760.0,
        5765.0,
        5770.0,
        5775.0,
        5780.0,
        5785.0,
        5790.0,
        5795.0,
        5800.0,
        5805.0,
        5810.0,
        5815.0,
        5820.0,
        5825.0,
        5830.0,
        5835.0,
        5840.0,
        5845.0,
        5850.0,
        5855.0,
        5860.0,
        5865.0,
        5870.0,
        5875.0,
        5880.0,
        5885.0,
        5890.0,
        5895.0,
        5900.0,
        5905.0,
        5910.0,
        5915.0,
        5920.0,
        5925.0,
        5930.0,
        5935.0,
        5940.0,
        5945.0,
        5950.0,
        5955.0,
        5960.0,
        5965.0,
        5970.0,
        5975.0,
        5980.0,
        5985.0,
        5990.0,
        5995.0,
        6000.0,
        6005.0,
        6010.0,
        6015.0,
        6020.0,
        6025.0,
        6030.0,
        6035.0,
        6040.0,
        6045.0,
        6050.0,
        6055.0,
        6060.0,
        6065.0,
        6070.0,
        6075.0,
        6080.0,
        6085.0,
        6090.0,
        6095.0,
        6100.0,
        6105.0,
        6110.0,
        6115.0,
        6120.0,
        6125.0,
        6130.0,
        6135.0,
        6140.0,
        6145.0,
        6150.0,
        6155.0,
        6160.0,
        6165.0,
        6170.0,
        6175.0,
        6180.0,
        6185.0,
        6190.0,
        6195.0,
        6200.0,
        6205.0,
        6210.0,
        6215.0,
        6220.0,
        6225.0,
        6230.0,
        6235.0,
        6240.0,
        6245.0,
        6250.0,
        6255.0,
        6260.0,
        6265.0,
        6270.0,
        6275.0,
        6280.0,
        6285.0,
        6290.0,
        6295.0,
        6300.0,
        6305.0,
        6310.0,
        6315.0,
        6320.0,
        6325.0,
        6330.0,
        6335.0,
        6340.0,
        6345.0,
        6350.0,
        6355.0,
        6360.0,
        6365.0,
        6370.0,
        6375.0,
        6380.0,
        6385.0,
        6390.0,
        6395.0,
        6400.0,
        6405.0,
        6410.0,
        6415.0,
        6420.0,
        6425.0,
        6430.0,
        6435.0,
        6440.0,
        6445.0,
        6450.0,
        6455.0,
        6460.0,
        6465.0,
        6470.0,
        6475.0,
        6480.0,
        6485.0,
        6490.0,
        6495.0,
        6500.0,
        6505.0,
        6510.0,
        6515.0,
        6520.0,
        6525.0,
        6530.0,
        6535.0,
        6540.0,
        6545.0,
        6550.0,
        6555.0,
        6560.0,
        6565.0,
        6570.0,
        6575.0,
        6580.0,
        6585.0,
        6590.0,
        6595.0,
        6600.0,
        6605.0,
        6610.0,
        6615.0,
        6620.0,
        6625.0,
        6630.0,
        6635.0,
        6640.0,
        6645.0,
        6650.0,
        6655.0,
        6660.0,
        6665.0,
        6670.0,
        6675.0,
        6680.0,
        6685.0,
        6690.0,
        6695.0,
        6700.0,
        6705.0,
        6710.0,
        6715.0,
        6720.0,
        6725.0,
        6730.0,
        6735.0,
        6740.0,
        6745.0,
        6750.0,
        6755.0,
        6760.0,
        6765.0,
        6770.0,
        6775.0,
        6780.0,
        6785.0,
        6790.0,
        6795.0,
        6800.0,
        6805.0,
        6810.0,
        6815.0,
        6820.0,
        6825.0,
        6830.0,
        6835.0,
        6840.0,
        6845.0,
        6850.0,
        6855.0,
        6860.0,
        6865.0,
        6870.0,
        6875.0,
        6880.0,
        6885.0,
        6890.0,
        6895.0,
        6900.0,
        6905.0,
        6910.0,
        6915.0,
        6920.0,
        6925.0,
        6930.0,
        6935.0,
        6940.0,
        6945.0,
        6950.0,
        6955.0,
        6960.0,
        6965.0,
        6970.0,
        6975.0,
        6980.0,
        6985.0,
        6990.0,
        6995.0,
        7000.0,
        7005.0,
        7010.0,
        7015.0,
        7020.0,
        7025.0,
        7030.0,
        7035.0,
        7040.0,
        7045.0,
        7050.0,
        7055.0,
        7060.0,
        7065.0,
        7070.0,
        7075.0,
        7080.0,
        7085.0,
        7090.0,
        7095.0,
        7100.0,
        7105.0,
        7110.0,
        7115.0,
        7120.0,
        7125.0,
        7130.0,
        7135.0,
        7140.0,
        7145.0,
        7150.0,
        7155.0,
        7160.0,
        7165.0,
        7170.0,
        7175.0,
        7180.0,
        7185.0,
        7190.0,
        7195.0,
        7200.0,
        7205.0,
        7210.0,
        7215.0,
        7220.0,
        7225.0,
        7230.0,
        7235.0,
        7240.0,
        7245.0,
        7250.0,
        7255.0,
        7260.0,
        7265.0,
        7270.0,
        7275.0,
        7280.0,
        7285.0,
        7290.0,
        7295.0,
        7300.0,
        7305.0,
        7310.0,
        7315.0,
        7320.0,
        7325.0,
        7330.0,
        7335.0,
        7340.0,
        7345.0,
        7350.0,
        7355.0,
        7360.0,
        7365.0,
        7370.0,
        7375.0,
        7380.0,
        7385.0,
        7390.0,
        7395.0,
        7400.0,
        7405.0,
        7410.0,
        7415.0,
        7420.0,
        7425.0,
        7430.0,
        7435.0,
        7440.0,
        7445.0,
        7450.0,
        7455.0,
        7460.0,
        7465.0,
        7470.0,
        7475.0,
        7480.0,
        7485.0,
        7490.0,
        7495.0,
        7500.0,
        7505.0,
        7510.0,
        7515.0,
        7520.0,
        7525.0,
        7530.0,
        7535.0,
        7540.0,
        7545.0,
        7550.0,
        7555.0,
        7560.0,
        7565.0,
        7570.0,
        7575.0,
        7580.0,
        7585.0,
        7590.0,
        7595.0,
        7600.0,
        7605.0,
        7610.0,
        7615.0,
        7620.0,
        7625.0,
        7630.0,
        7635.0,
        7640.0,
        7645.0,
        7650.0,
        7655.0,
        7660.0,
        7665.0,
        7670.0,
        7675.0,
        7680.0,
        7685.0,
        7690.0,
        7695.0,
        7700.0,
        7705.0,
        7710.0,
        7715.0,
        7720.0,
        7725.0,
        7730.0,
        7735.0,
        7740.0,
        7745.0,
        7750.0,
        7755.0,
        7760.0,
        7765.0,
        7770.0,
        7775.0,
        7780.0,
        7785.0,
        7790.0,
        7795.0,
        7800.0,
        7805.0,
        7810.0,
        7815.0,
        7820.0,
        7825.0,
        7830.0,
        7835.0,
        7840.0,
        7845.0,
        7850.0,
        7855.0,
        7860.0,
        7865.0,
        7870.0,
        7875.0,
        7880.0,
        7885.0,
        7890.0,
        7895.0,
        7900.0,
        7905.0,
        7910.0,
        7915.0,
        7920.0,
        7925.0,
        7930.0,
        7935.0,
        7940.0,
        7945.0,
        7950.0,
        7955.0,
        7960.0,
        7965.0,
        7970.0,
        7975.0,
        7980.0,
        7985.0,
        7990.0,
        7995.0,
        8000.0,
        8005.0,
        8010.0,
        8015.0,
        8020.0,
        8025.0,
        8030.0,
        8035.0,
        8040.0,
        8045.0,
        8050.0,
        8055.0,
        8060.0,
        8065.0,
        8070.0,
        8075.0,
        8080.0,
        8085.0,
        8090.0,
        8095.0,
        8100.0,
        8105.0,
        8110.0,
        8115.0,
        8120.0,
        8125.0,
        8130.0,
        8135.0,
        8140.0,
        8145.0,
        8150.0,
        8155.0,
        8160.0,
        8165.0,
        8170.0,
        8175.0,
        8180.0,
        8185.0,
        8190.0,
        8195.0,
        8200.0,
        8205.0,
        8210.0,
        8215.0,
        8220.0,
        8225.0,
        8230.0,
        8235.0,
        8240.0,
        8245.0,
        8250.0,
        8255.0,
        8260.0,
        8265.0,
        8270.0,
        8275.0,
        8280.0,
        8285.0,
        8290.0,
        8295.0,
        8300.0,
        8305.0,
        8310.0,
        8315.0,
        8320.0,
        8325.0,
        8330.0,
        8335.0,
        8340.0,
        8345.0,
        8350.0,
        8355.0,
        8360.0,
        8365.0,
        8370.0,
        8375.0,
        8380.0,
        8385.0,
        8390.0,
        8395.0,
        8400.0,
        8405.0,
        8410.0,
        8415.0,
        8420.0,
        8425.0,
        8430.0,
        8435.0,
        8440.0,
        8445.0,
        8450.0,
        8455.0,
        8460.0,
        8465.0,
        8470.0,
        8475.0,
        8480.0,
        8485.0,
        8490.0,
        8495.0,
        8500.0,
        8505.0,
        8510.0,
        8515.0,
        8520.0,
        8525.0,
        8530.0,
        8535.0,
        8540.0,
        8545.0,
        8550.0,
        8555.0,
        8560.0,
        8565.0,
        8570.0,
        8575.0,
        8580.0,
        8585.0,
        8590.0,
        8595.0,
        8600.0,
        8605.0,
        8610.0,
        8615.0,
        8620.0,
        8625.0,
        8630.0,
        8635.0,
        8640.0,
        8645.0,
        8650.0,
        8655.0,
        8660.0,
        8665.0,
        8670.0,
        8675.0,
        8680.0,
        8685.0,
        8690.0,
        8695.0,
        8700.0,
        8705.0,
        8710.0,
        8715.0,
        8720.0,
        8725.0,
        8730.0,
        8735.0,
        8740.0,
        8745.0,
        8750.0,
        8755.0,
        8760.0,
        8765.0,
        8770.0,
        8775.0,
        8780.0,
        8785.0,
        8790.0,
        8795.0,
        8800.0,
        8805.0,
        8810.0,
        8815.0,
        8820.0,
        8825.0,
        8830.0,
        8835.0,
        8840.0,
        8845.0,
        8850.0,
        8855.0,
        8860.0,
        8865.0,
        8870.0,
        8875.0,
        8880.0,
        8885.0,
        8890.0,
        8895.0,
        8900.0,
        8905.0,
        8910.0,
        8915.0,
        8920.0,
        8925.0,
        8930.0,
        8935.0,
        8940.0,
        8945.0,
        8950.0,
        8955.0,
        8960.0,
        8965.0,
        8970.0,
        8975.0,
        8980.0,
        8985.0,
        8990.0,
        8995.0,
        9000.0,
        9005.0,
        9010.0,
        9015.0,
        9020.0,
        9025.0,
        9030.0,
        9035.0,
        9040.0,
        9045.0,
        9050.0,
        9055.0,
        9060.0,
        9065.0,
        9070.0,
        9075.0,
        9080.0,
        9085.0,
        9090.0,
        9095.0,
        9100.0,
        9105.0,
        9110.0,
        9115.0,
        9120.0,
        9125.0,
        9130.0,
        9135.0,
        9140.0,
        9145.0,
        9150.0,
        9155.0,
        9160.0,
        9165.0,
        9170.0,
        9175.0,
        9180.0,
        9185.0,
        9190.0,
        9195.0,
        9200.0,
        9205.0,
        9210.0,
        9215.0,
        9220.0,
        9225.0,
        9230.0,
        9235.0,
        9240.0,
        9245.0,
        9250.0,
        9255.0,
        9260.0,
        9265.0,
        9270.0,
        9275.0,
        9280.0,
        9285.0,
        9290.0,
        9295.0,
        9300.0,
        9305.0,
        9310.0,
        9315.0,
        9320.0,
        9325.0,
        9330.0,
        9335.0,
        9340.0,
        9345.0,
        9350.0,
        9355.0,
        9360.0,
        9365.0,
        9370.0,
        9375.0,
        9380.0,
        9385.0,
        9390.0,
        9395.0,
        9400.0,
        9405.0,
        9410.0,
        9415.0,
        9420.0,
        9425.0,
        9430.0,
        9435.0,
        9440.0,
        9445.0,
        9450.0,
        9455.0,
        9460.0,
        9465.0,
        9470.0,
        9475.0,
        9480.0,
        9485.0,
        9490.0,
        9495.0,
        9500.0,
        9505.0,
        9510.0,
        9515.0,
        9520.0,
        9525.0,
        9530.0,
        9535.0,
        9540.0,
        9545.0,
        9550.0,
        9555.0,
        9560.0,
        9565.0,
        9570.0,
        9575.0,
        9580.0,
        9585.0,
        9590.0,
        9595.0,
        9600.0,
        9605.0,
        9610.0,
        9615.0,
        9620.0,
        9625.0,
        9630.0,
        9635.0,
        9640.0,
        9645.0,
        9650.0,
        9655.0,
        9660.0,
        9665.0,
        9670.0,
        9675.0,
        9680.0,
        9685.0,
        9690.0,
        9695.0,
        9700.0,
        9705.0,
        9710.0,
        9715.0,
        9720.0,
        9725.0,
        9730.0,
        9735.0,
        9740.0,
        9745.0,
        9750.0,
        9755.0,
        9760.0,
        9765.0,
        9770.0,
        9775.0,
        9780.0,
        9785.0,
        9790.0,
        9795.0,
        9800.0,
        9805.0,
        9810.0,
        9815.0,
        9820.0,
        9825.0,
        9830.0,
        9835.0,
        9840.0,
        9845.0,
        9850.0,
        9855.0,
        9860.0,
        9865.0,
        9870.0,
        9875.0,
        9880.0,
        9885.0,
        9890.0,
        9895.0,
        9900.0,
        9905.0,
        9910.0,
        9915.0,
        9920.0,
        9925.0,
        9930.0,
        9935.0,
        9940.0,
        9945.0,
        9950.0,
        9955.0,
        9960.0,
        9965.0,
        9970.0,
        9975.0,
        9980.0,
        9985.0,
        9990.0,
        9995.0,
        10000.0,
        10005.0,
        10010.0,
        10015.0,
        10020.0,
        10025.0,
        10030.0,
        10035.0,
        10040.0,
        10045.0,
        10050.0,
        10055.0,
        10060.0,
        10065.0,
        10070.0,
        10075.0,
        10080.0,
        10085.0,
        10090.0,
        10095.0,
        10100.0,
        10105.0,
        10110.0,
        10115.0,
        10120.0,
        10125.0,
        10130.0,
        10135.0,
        10140.0,
        10145.0,
        10150.0,
        10155.0,
        10160.0,
        10165.0,
        10170.0,
        10175.0,
        10180.0,
        10185.0,
        10190.0,
        10195.0,
        10200.0,
        10205.0,
        10210.0,
        10215.0,
        10220.0,
        10225.0,
        10230.0,
        10235.0,
        10240.0,
        10245.0,
        10250.0,
        10255.0,
        10260.0,
        10265.0,
        10270.0,
        10275.0,
        10280.0,
        10285.0,
        10290.0,
        10295.0,
        10300.0,
        10305.0,
        10310.0,
        10315.0,
        10320.0,
        10325.0,
        10330.0,
        10335.0,
        10340.0,
        10345.0,
        10350.0,
        10355.0,
        10360.0,
        10365.0,
        10370.0,
        10375.0,
        10380.0,
        10385.0,
        10390.0,
        10395.0,
        10400.0,
        10405.0,
        10410.0,
        10415.0,
        10420.0,
        10425.0,
        10430.0,
        10435.0,
        10440.0,
        10445.0,
        10450.0,
        10455.0,
        10460.0,
        10465.0,
        10470.0,
        10475.0,
        10480.0,
        10485.0,
        10490.0,
        10495.0,
        10500.0
      ],
      "units":"angstrom"
    },
    "values":{
      "value":[
        0.0,
        0.0,
        0.0,
        0.0,
        0.0,
        0.0,
        0.0,
        0.0,
        0.0,
        0.0,
        0.0,
        0.0,
        0.0,
        0.0,
        0.0,
        0.0,
        0.0,
        0.0,
        0.0,
        0.0,
        0.0,
        0.0,
        0.0,
        0.0,
        0.0,
        0.0,
        0.0,
        0.0,
        0.0,
        0.0,
        0.0,
        0.0,
        0.0,
        0.0,
        0.0,
        0.0,
        0.0,
        0.0,
        0.0,
        0.0,
        0.0,
        0.0,
        0.0,
        0.0,
        0.0,
        0.0,
        0.0,
        0.0,
        0.0,
        0.0,
        0.0,
        0.0,
        0.0,
        0.0,
        0.0,
        0.0,
        0.0,
        0.0,
        0.0,
        0.0,
        0.0,
        0.0,
        0.0,
        0.0,
        0.0,
        0.0,
        0.0,
        0.0,
        0.0,
        0.0,
        0.0,
        0.0,
        0.0,
        0.0,
        0.0,
        0.0,
        0.0,
        0.0,
        0.0,
        0.0,
        0.0,
        0.0,
        0.0,
        0.0,
        0.0,
        0.0,
        0.0,
        0.0,
        0.0,
        0.0,
        0.0,
        0.0,
        0.0,
        0.0,
        0.0,
        0.0,
        0.0,
        0.0,
        0.0,
        0.0,
        0.0,
        0.0,
        0.0,
        0.0,
        0.0,
        0.0,
        0.0,
        0.0,
        0.0,
        0.0,
        0.0,
        0.0,
        0.0,
        0.0,
        0.0,
        0.0,
        0.0,
        0.0,
        0.0,
        0.0,
        0.0,
        0.0,
        0.0,
        0.0,
        0.0,
        0.0,
        0.0,
        0.0,
        0.0,
        0.0,
        0.0,
        0.0,
        0.0,
        0.0,
        0.0,
        0.0,
        0.0,
        0.0,
        0.0,
        0.0,
        0.0,
        0.0,
        0.0,
        0.0,
        0.0,
        0.0,
        0.0,
        0.0,
        0.0,
        0.0,
        0.0,
        0.0,
        0.0,
        0.0,
        0.0,
        0.0,
        0.0,
        0.0,
        0.0,
        0.0,
        0.0,
        0.0,
        0.0,
        0.0,
        0.0,
        0.0,
        0.0,
        0.0,
        0.0,
        0.0,
        0.0,
        0.0,
        0.0,
        0.0,
        0.0,
        0.0,
        0.0,
        0.0,
        0.0,
        0.0,
        0.0,
        0.0,
        0.0,
        0.0,
        0.0,
        0.0,
        0.0,
        0.0,
        0.0,
        0.0,
        0.0,
        0.0,
        0.0,
        0.0,
        0.0,
        0.0,
        0.0,
        0.0,
        0.0,
        0.0,
        0.0,
        0.0,
        0.0,
        0.0,
        0.0,
        0.0,
        0.0,
        0.0,
        0.0,
        0.0,
        0.0,
        0.0,
        0.0,
        0.0,
        0.0,
        0.0,
        0.0,
        0.0,
        0.0,
        0.0,
        0.0,
        0.0,
        0.0,
        0.0,
        0.0,
        0.0,
        0.0,
        0.0,
        0.0,
        0.0,
        0.0,
        0.0,
        0.0,
        0.0,
        0.0,
        0.0,
        0.0,
        0.0,
        0.0,
        0.0,
        0.0,
        0.0,
        0.0,
        0.0,
        0.0,
        0.0,
        0.0,
        0.0,
        0.0,
        0.0,
        0.0,
        0.0,
        0.0,
        0.0,
        0.0,
        0.0,
        0.0,
        0.0,
        0.0,
        0.0,
        0.0,
        0.0,
        0.0,
        0.0,
        0.0,
        0.0,
        0.0,
        0.0,
        0.0,
        0.0,
        0.0,
        0.0,
        0.0,
        0.0,
        0.0,
        0.0,
        0.0,
        0.0,
        0.0,
        0.0,
        0.0,
        0.0,
        0.0,
        0.0,
        0.0,
        0.0,
        0.0,
        0.0,
        0.0,
        0.0,
        0.0,
        0.0,
        0.0,
        0.0,
        0.0,
        0.0,
        0.0,
        0.0,
        0.0,
        0.0,
        0.0,
        0.0,
        0.0,
        0.0,
        0.0,
        0.0,
        0.0,
        0.0,
        0.0,
        0.0,
        0.0,
        0.0,
        0.0,
        0.0,
        0.0,
        0.0,
        0.0,
        0.0,
        0.0,
        0.0,
        0.0,
        1e-06,
        2e-06,
        4e-06,
        5e-06,
        6e-06,
        6e-06,
        6e-06,
        5e-06,
        3e-06,
        0.0,
        0.0,
        0.0,
        0.0,
        0.0,
        0.0,
        0.0,
        0.0,
        0.0,
        0.0,
        0.0,
        1.6e-05,
        3.4e-05,
        5.2e-05,
        6.8e-05,
        8.1e-05,
        8.6e-05,
        8.3e-05,
        6.9e-05,
        4.2e-05,
        0.0,
        0.0,
        0.0,
        0.0,
        0.0,
        0.0,
        0.0,
        0.0,
        0.0,
        0.0,
        0.0,
        0.000221,
        0.000501,
        0.000831,
        0.001203,
        0.00161,
        0.002044,
        0.002498,
        0.002963,
        0.003431,
        0.003896,
        0.00435,
        0.004792,
        0.005221,
        0.005636,
        0.006036,
        0.006421,
        0.00679,
        0.007142,
        0.007476,
        0.007792,
        0.008091,
        0.008382,
        0.008675,
        0.008981,
        0.009311,
        0.009675,
        0.010084,
        0.010549,
        0.01108,
        0.011688,
        0.012381,
        0.013155,
        0.014002,
        0.014917,
        0.015892,
        0.01692,
        0.017995,
        0.019109,
        0.020256,
        0.021429,
        0.022618,
        0.031747,
        0.030758,
        0.029943,
        0.029506,
        0.029708,
        0.03069,
        0.032034,
        0.033087,
        0.035391,
        0.031071,
        0.027624,
        0.028849,
        0.031121,
        0.030558,
        0.02968,
        0.031472,
        0.034364,
        0.036356,
        0.038273,
        0.041202,
        0.04444,
        0.047117,
        0.049478,
        0.051676,
        0.052367,
        0.050629,
        0.048707,
        0.049135,
        0.052422,
        0.057971,
        0.062785,
        0.064339,
        0.064412,
        0.065358,
        0.067537,
        0.070443,
        0.072086,
        0.07091,
        0.068562,
        0.066923,
        0.065601,
        0.064186,
        0.064471,
        0.068001,
        0.073116,
        0.077547,
        0.079775,
        0.079114,
        0.077441,
        0.077155,
        0.080172,
        0.086882,
        0.09205,
        0.090827,
        0.08554,
        0.07998,
        0.076638,
        0.076994,
        0.079815,
        0.083147,
        0.084884,
        0.083961,
        0.083618,
        0.086684,
        0.090025,
        0.090539,
        0.091222,
        0.095128,
        0.09946,
        0.100832,
        0.102665,
        0.096426,
        0.092472,
        0.090954,
        0.098857,
        0.114555,
        0.126857,
        0.130409,
        0.126531,
        0.118594,
        0.108976,
        0.096593,
        0.084783,
        0.077497,
        0.072547,
        0.074343,
        0.082546,
        0.091927,
        0.097306,
        0.09274,
        0.090323,
        0.099611,
        0.106673,
        0.112592,
        0.110428,
        0.106736,
        0.108837,
        0.10478,
        0.105446,
        0.118437,
        0.133217,
        0.139593,
        0.135828,
        0.128942,
        0.123305,
        0.122545,
        0.128849,
        0.138168,
        0.137367,
        0.123253,
        0.117324,
        0.114589,
        0.097885,
        0.091717,
        0.090801,
        0.08118,
        0.078518,
        0.079485,
        0.087151,
        0.105841,
        0.118395,
        0.128235,
        0.145459,
        0.160686,
        0.164191,
        0.156318,
        0.145802,
        0.141964,
        0.146582,
        0.15456,
        0.150493,
        0.131813,
        0.109638,
        0.097947,
        0.101421,
        0.110792,
        0.123596,
        0.141195,
        0.144253,
        0.127122,
        0.117043,
        0.132489,
        0.146645,
        0.143493,
        0.138366,
        0.136348,
        0.141226,
        0.146811,
        0.148122,
        0.157015,
        0.169558,
        0.17064,
        0.152844,
        0.12967,
        0.111063,
        0.106289,
        0.112477,
        0.12371,
        0.145594,
        0.146094,
        0.118031,
        0.106133,
        0.127632,
        0.168258,
        0.20202,
        0.220555,
        0.231403,
        0.237706,
        0.244748,
        0.25597,
        0.268254,
        0.277085,
        0.274464,
        0.263022,
        0.246235,
        0.248554,
        0.26686,
        0.268525,
        0.280122,
        0.292998,
        0.283211,
        0.268847,
        0.265207,
        0.268265,
        0.280267,
        0.29745,
        0.300123,
        0.283669,
        0.26995,
        0.26997,
        0.27152,
        0.275764,
        0.288079,
        0.296857,
        0.291168,
        0.285957,
        0.284417,
        0.285998,
        0.302619,
        0.319386,
        0.32727,
        0.321487,
        0.308423,
        0.306676,
        0.315766,
        0.31793,
        0.315319,
        0.308496,
        0.295287,
        0.290731,
        0.282389,
        0.24741,
        0.186262,
        0.129847,
        0.130138,
        0.181031,
        0.228148,
        0.247806,
        0.241222,
        0.234471,
        0.251436,
        0.269585,
        0.263178,
        0.256927,
        0.272394,
        0.274682,
        0.26555,
        0.268681,
        0.26944,
        0.274287,
        0.297232,
        0.323733,
        0.336901,
        0.345981,
        0.364235,
        0.375562,
        0.374262,
        0.376446,
        0.371142,
        0.362665,
        0.370497,
        0.384819,
        0.388543,
        0.377663,
        0.360096,
        0.359108,
        0.384996,
        0.407389,
        0.40558,
        0.39392,
        0.407941,
        0.433818,
        0.440766,
        0.429055,
        0.423646,
        0.433194,
        0.461881,
        0.487571,
        0.473228,
        0.435535,
        0.442337,
        0.490931,
        0.532109,
        0.551111,
        0.554877,
        0.560504,
        0.568429,
        0.573536,
        0.589304,
        0.604261,
        0.597074,
        0.589793,
        0.589554,
        0.571029,
        0.533253,
        0.525192,
        0.572298,
        0.599445,
        0.597469,
        0.619041,
        0.66571,
        0.700086,
        0.708396,
        0.696238,
        0.670079,
        0.653749,
        0.65793,
        0.670713,
        0.673927,
        0.683985,
        0.708979,
        0.727628,
        0.726141,
        0.703976,
        0.682446,
        0.671504,
        0.666397,
        0.66234,
        0.654373,
        0.669673,
        0.712515,
        0.701261,
        0.653416,
        0.650889,
        0.650338,
        0.649568,
        0.669101,
        0.684994,
        0.689976,
        0.686513,
        0.6849,
        0.681156,
        0.679845,
        0.679617,
        0.680033,
        0.679107,
        0.674083,
        0.684942,
        0.698318,
        0.683049,
        0.621443,
        0.546421,
        0.510776,
        0.497327,
        0.489329,
        0.509549,
        0.556811,
        0.604396,
        0.626998,
        0.616024,
        0.594557,
        0.595732,
        0.604947,
        0.604011,
        0.604625,
        0.618989,
        0.627923,
        0.62446,
        0.629296,
        0.633363,
        0.638439,
        0.6452,
        0.648933,
        0.652792,
        0.661883,
        0.66985,
        0.684952,
        0.70952,
        0.725829,
        0.747546,
        0.773705,
        0.763564,
        0.742158,
        0.765644,
        0.802349,
        0.797679,
        0.784615,
        0.812324,
        0.820624,
        0.722323,
        0.609545,
        0.590937,
        0.628121,
        0.656797,
        0.642776,
        0.628568,
        0.638387,
        0.637482,
        0.615005,
        0.58843,
        0.574046,
        0.574618,
        0.589044,
        0.606206,
        0.621527,
        0.619977,
        0.609825,
        0.627091,
        0.642786,
        0.640228,
        0.639635,
        0.628506,
        0.619176,
        0.625562,
        0.625115,
        0.624907,
        0.638376,
        0.643504,
        0.623035,
        0.601297,
        0.61695,
        0.647186,
        0.646177,
        0.618458,
        0.616576,
        0.651201,
        0.670651,
        0.654259,
        0.626977,
        0.639167,
        0.689851,
        0.651263,
        0.520678,
        0.452728,
        0.46135,
        0.514198,
        0.597594,
        0.65817,
        0.65508,
        0.58427,
        0.583272,
        0.715043,
        0.826116,
        0.845857,
        0.85941,
        0.894565,
        0.90092,
        0.872993,
        0.853772,
        0.868386,
        0.848759,
        0.773632,
        0.750219,
        0.825263,
        0.898601,
        0.931323,
        0.952083,
        0.934526,
        0.916439,
        0.947257,
        0.975621,
        0.983921,
        0.97041,
        0.920672,
        0.891019,
        0.919049,
        0.939581,
        0.942233,
        0.968995,
        1.012316,
        1.028697,
        1.008696,
        0.981903,
        1.004827,
        1.057456,
        1.081254,
        1.062688,
        1.02746,
        1.012503,
        0.998774,
        1.000261,
        1.050145,
        1.099695,
        1.094411,
        1.049905,
        1.039681,
        1.072757,
        1.040107,
        0.927433,
        0.856893,
        0.864069,
        0.903021,
        0.937501,
        0.945947,
        0.954704,
        0.980416,
        1.002466,
        0.993563,
        0.947569,
        0.918425,
        0.910822,
        0.917416,
        0.964492,
        1.003069,
        1.006762,
        1.006647,
        1.015103,
        1.026451,
        1.042968,
        1.055335,
        1.050124,
        1.030996,
        1.029478,
        1.049375,
        1.060265,
        1.030695,
        0.990567,
        0.95433,
        0.920183,
        0.934921,
        0.974706,
        0.978388,
        0.97014,
        0.975694,
        0.981529,
        0.992335,
        1.004276,
        1.018952,
        1.051237,
        1.075534,
        1.062771,
        1.037174,
        1.028656,
        1.043717,
        1.067379,
        1.075544,
        1.083615,
        1.101391,
        1.103627,
        1.108037,
        1.117866,
        1.129723,
        1.143817,
        1.145346,
        1.149007,
        1.169809,
        1.188271,
        1.210279,
        1.237052,
        1.24453,
        1.205994,
        1.158222,
        1.150973,
        1.162258,
        1.169611,
        1.179087,
        1.203768,
        1.242055,
        1.278167,
        1.270788,
        1.244362,
        1.186495,
        1.162311,
        1.1649,
        1.188424,
        1.197749,
        1.202766,
        1.197562,
        1.143444,
        1.086908,
        1.054824,
        1.042391,
        1.025344,
        0.997321,
        0.927822,
        0.78486,
        0.555455,
        0.483793,
        0.597082,
        0.807541,
        0.900244,
        0.948781,
        0.958936,
        0.964945,
        0.995223,
        1.021037,
        1.051943,
        1.069051,
        1.052698,
        1.027861,
        1.022197,
        1.041145,
        1.057075,
        1.063206,
        1.072332,
        1.096286,
        1.116053,
        1.150673,
        1.164028,
        1.124703,
        1.141072,
        1.159481,
        1.170434,
        1.194921,
        1.222088,
        1.230348,
        1.222945,
        1.2516,
        1.274568,
        1.267407,
        1.261339,
        1.256639,
        1.277207,
        1.29036,
        1.288104,
        1.275087,
        1.286834,
        1.307203,
        1.27503,
        1.232194,
        1.292524,
        1.306916,
        1.227781,
        1.181732,
        1.299791,
        1.324964,
        1.319512,
        1.351942,
        1.329033,
        1.25905,
        1.12943,
        1.009979,
        1.035096,
        1.082268,
        1.113906,
        1.088598,
        1.034611,
        1.020101,
        1.039394,
        1.057008,
        1.052386,
        0.9954,
        0.955674,
        0.932675,
        0.925819,
        0.947334,
        0.95846,
        0.966504,
        0.998269,
        1.013379,
        1.020815,
        1.053316,
        1.074693,
        1.077103,
        1.077083,
        1.116815,
        1.154935,
        1.168328,
        1.194228,
        1.226029,
        1.265458,
        1.292734,
        1.31205,
        1.329193,
        1.348001,
        1.363801,
        1.38016,
        1.400397,
        1.407379,
        1.390652,
        1.351502,
        1.340015,
        1.347343,
        1.34365,
        1.301504,
        1.279297,
        1.302648,
        1.354668,
        1.40425,
        1.443145,
        1.476218,
        1.480093,
        1.478828,
        1.488164,
        1.501099,
        1.493083,
        1.478207,
        1.522079,
        1.532137,
        1.550596,
        1.558779,
        1.543588,
        1.586828,
        1.605996,
        1.61966,
        1.597014,
        1.584858,
        1.539698,
        1.552001,
        1.628785,
        1.664488,
        1.677456,
        1.687735,
        1.710022,
        1.720486,
        1.727404,
        1.735775,
        1.710549,
        1.680166,
        1.657231,
        1.645518,
        1.623499,
        1.628733,
        1.622919,
        1.645858,
        1.661106,
        1.658942,
        1.6356,
        1.636699,
        1.634217,
        1.626945,
        1.621494,
        1.607138,
        1.580036,
        1.567867,
        1.567137,
        1.557499,
        1.550158,
        1.515693,
        1.472866,
        1.453485,
        1.454018,
        1.470634,
        1.456888,
        1.408587,
        1.36742,
        1.364799,
        1.363511,
        1.366528,
        1.377005,
        1.362732,
        1.311661,
        1.260321,
        1.259832,
        1.270175,
        1.284909,
        1.292281,
        1.280156,
        1.254631,
        1.253415,
        1.270385,
        1.27817,
        1.275938,
        1.278776,
        1.264665,
        1.223886,
        1.207221,
        1.206734,
        1.207659,
        1.220719,
        1.212644,
        1.211895,
        1.203685,
        1.21246,
        1.219992,
        1.225517,
        1.270536,
        1.274464,
        1.277375,
        1.279951,
        1.282874,
        1.286835,
        1.292557,
        1.30077,
        1.312205,
        1.327268,
        1.345061,
        1.364362,
        1.383947,
        1.402843,
        1.421074,
        1.438916,
        1.456643,
        1.474332,
        1.491275,
        1.506564,
        1.519294,
        1.528895,
        1.536135,
        1.54212,
        1.547953,
        1.554472,
        1.561449,
        1.548653,
        1.549625,
        1.564059,
        1.568438,
        1.569091,
        1.587682,
        1.599923,
        1.616112,
        1.641087,
        1.658241,
        1.670224,
        1.699294,
        1.730584,
        1.755019,
        1.791552,
        1.779746,
        1.668821,
        1.576681,
        1.561932,
        1.582847,
        1.598052,
        1.590631,
        1.554215,
        1.45513,
        1.420704,
        1.431492,
        1.452272,
        1.474771,
        1.486483,
        1.488932,
        1.417369,
        1.307964,
        1.304576,
        1.366217,
        1.386259,
        1.395616,
        1.451807,
        1.475996,
        1.476959,
        1.491319,
        1.493915,
        1.502061,
        1.514975,
        1.514264,
        1.53466,
        1.514129,
        1.497755,
        1.529063,
        1.576909,
        1.608042,
        1.626058,
        1.635683,
        1.633379,
        1.649808,
        1.656623,
        1.689407,
        1.70402,
        1.735031,
        1.745742,
        1.766535,
        1.772845,
        1.792742,
        1.823959,
        1.825568,
        1.838596,
        1.868544,
        1.866404,
        1.880657,
        1.897822,
        1.904933,
        1.893771,
        1.891327,
        1.922001,
        1.941792,
        1.882197,
        1.893458,
        1.882961,
        1.875513,
        1.903893,
        1.939332,
        1.961724,
        1.969116,
        1.97391,
        1.971113,
        1.971972,
        1.968079,
        1.976288,
        1.995714,
        1.993381,
        1.996206,
        1.997771,
        2.011196,
        2.022332,
        2.025714,
        2.012797,
        2.012197,
        2.032187,
        2.029279,
        2.012484,
        2.03625,
        2.044499,
        2.05231,
        2.053827,
        2.044597,
        2.034915,
        2.05252,
        2.060862,
        2.049109,
        2.052539,
        2.061602,
        2.060766,
        2.057778,
        2.068551,
        2.085018,
        2.089926,
        2.0669,
        2.062076,
        2.057402,
        2.052913,
        2.061386,
        2.056734,
        2.052461,
        2.048638,
        2.045336,
        2.042627,
        2.040583,
        2.039232,
        2.038421,
        2.037958,
        2.037646,
        2.03729,
        2.036696,
        2.03567,
        2.034015,
        2.031538,
        2.028042,
        2.023407,
        2.017799,
        2.011459,
        2.004629,
        1.997547,
        1.990456,
        1.983595,
        1.977205,
        1.971526,
        1.966799,
        1.9632,
        1.960639,
        1.958963,
        1.95802,
        1.956419,
        1.955084,
        1.972463,
        1.974709,
        1.95316,
        1.915906,
        1.91661,
        1.933536,
        1.941274,
        1.954839,
        1.970705,
        1.97573,
        1.958144,
        1.955777,
        1.973435,
        1.978522,
        1.995394,
        2.009662,
        2.018487,
        2.013616,
        1.998542,
        1.980132,
        1.964844,
        1.980246,
        2.001828,
        2.013794,
        2.019123,
        2.02583,
        2.033206,
        2.038202,
        2.042449,
        2.054885,
        2.066827,
        2.069531,
        2.077058,
        2.079253,
        2.068819,
        2.055232,
        2.054029,
        2.06534,
        2.075633,
        2.083771,
        2.09855,
        2.086738,
        2.079941,
        2.082827,
        2.112106,
        2.108669,
        2.125847,
        2.139394,
        2.137016,
        2.127907,
        2.136431,
        2.137082,
        2.130843,
        2.120609,
        2.133862,
        2.146638,
        2.153378,
        2.157227,
        2.142714,
        2.145296,
        2.163124,
        2.168187,
        2.157317,
        2.157128,
        2.179503,
        2.185138,
        2.180956,
        2.173113,
        2.174953,
        2.182399,
        2.177425,
        2.170065,
        2.164639,
        2.146043,
        2.153984,
        2.167341,
        2.15326,
        2.158999,
        2.174206,
        2.16694,
        2.148948,
        2.144877,
        2.127955,
        2.109486,
        2.092942,
        2.074638,
        2.048558,
        2.068017,
        2.059467,
        2.012505,
        1.95051,
        1.982677,
        1.948261,
        1.969017,
        2.058518,
        2.089057,
        2.089548,
        2.082937,
        2.068414,
        2.055512,
        2.097657,
        2.135296,
        2.148953,
        2.171442,
        2.166062,
        2.161722,
        2.171284,
        2.141124,
        2.106606,
        2.092051,
        2.085796,
        2.08317,
        2.085154,
        2.101607,
        2.097201,
        2.097016,
        2.101893,
        2.100585,
        2.091427,
        2.07815,
        2.088412,
        2.092823,
        2.10114,
        2.104413,
        2.095731,
        2.100133,
        2.093317,
        2.113502,
        2.119682,
        2.103008,
        2.094691,
        2.098537,
        2.136415,
        2.137562,
        2.161284,
        2.143943,
        2.123095,
        2.129688,
        2.112281,
        2.077717,
        2.020156,
        2.027254,
        2.112108,
        2.114336,
        2.098478,
        2.102075,
        2.098632,
        2.068918,
        2.099164,
        2.124396,
        2.130655,
        2.114402,
        2.048788,
        1.96543,
        2.053456,
        2.097492,
        2.054851,
        2.054186,
        2.088386,
        2.088803,
        2.038832,
        1.870863,
        1.775244,
        1.976241,
        2.092925,
        2.123017,
        2.132639,
        2.135342,
        2.140543,
        2.141908,
        2.138637,
        2.148827,
        2.148607,
        2.14992,
        2.162965,
        2.163742,
        2.15412,
        2.156913,
        2.162258,
        2.16381,
        2.162456,
        2.167396,
        2.165527,
        2.157197,
        2.107441,
        1.964254,
        1.877831,
        2.050636,
        2.112374,
        2.111866,
        2.10208,
        2.037817,
        2.078882,
        2.13483,
        2.154291,
        2.149839,
        2.142382,
        2.143659,
        2.154861,
        2.156446,
        2.148944,
        2.142908,
        2.163855,
        2.166048,
        2.1595,
        2.150442,
        2.14613,
        2.135609,
        2.132912,
        2.146731,
        2.166725,
        2.168,
        2.156451,
        2.142953,
        2.065407,
        2.060883,
        2.146363,
        2.144974,
        2.098387,
        2.125431,
        2.158995,
        2.156968,
        2.156044,
        2.16262,
        2.165028,
        2.141615,
        2.116619,
        2.105317,
        2.100876,
        2.124369,
        2.136283,
        2.137966,
        2.135345,
        2.137286,
        2.160518,
        2.150503,
        2.147594,
        2.147225,
        2.120112,
        2.11318,
        2.110966,
        2.106215,
        2.094144,
        2.080587,
        2.078979,
        2.085975,
        2.071185,
        2.072608,
        2.075242,
        2.063967,
        2.059441,
        2.015686,
        2.05408,
        2.039654,
        2.048654,
        2.068784,
        2.074102,
        2.089839,
        2.108114,
        2.132295,
        2.181793,
        2.19586,
        2.194868,
        2.184519,
        2.161916,
        2.141829,
        2.113435,
        2.083379,
        2.08732,
        2.100263,
        2.096521,
        2.094822,
        2.133883,
        2.15156,
        2.154839,
        2.17027,
        2.17226,
        2.14089,
        2.151358,
        2.141039,
        2.116263,
        2.12276,
        2.142816,
        2.120525,
        2.095799,
        2.120358,
        2.148379,
        2.158766,
        2.151088,
        2.188431,
        2.207733,
        2.226984,
        2.245165,
        2.253239,
        2.24706,
        2.24162,
        2.23968,
        2.242551,
        2.246451,
        2.24604,
        2.234295,
        2.243026,
        2.236367,
        2.22978,
        2.222155,
        2.212026,
        2.19885,
        2.183566,
        2.167483,
        2.151911,
        2.137823,
        2.124844,
        2.112264,
        2.099374,
        2.086291,
        2.076455,
        2.074131,
        2.083587,
        2.106941,
        2.137716,
        2.167283,
        2.187017,
        2.190935,
        2.183637,
        2.172365,
        2.164333,
        2.165261,
        2.174894,
        2.191487,
        2.213293,
        2.237769,
        2.259181,
        2.271,
        2.266696,
        2.242374,
        2.204676,
        2.162877,
        2.126254,
        2.102301,
        2.091377,
        2.092059,
        2.102925,
        2.121887,
        2.144195,
        2.164439,
        2.177212,
        2.178701,
        2.171446,
        2.159578,
        2.147226,
        2.1377,
        2.131016,
        2.126369,
        2.122954,
        2.12027,
        2.119035,
        2.120269,
        2.124995,
        2.133612,
        2.144038,
        2.153567,
        2.159495,
        2.159973,
        2.156582,
        2.151768,
        2.147992,
        2.147002,
        2.147666,
        2.14813,
        2.146541,
        2.141781,
        2.135682,
        2.130807,
        2.129724,
        2.134004,
        2.141246,
        2.148055,
        2.151035,
        2.147975,
        2.141406,
        2.135038,
        2.132586,
        2.136753,
        2.146201,
        2.158587,
        2.171582,
        2.183023,
        2.19141,
        2.19541,
        2.193688,
        2.185591,
        2.173197,
        2.159264,
        2.146552,
        2.137237,
        2.131167,
        2.127608,
        2.125827,
        2.125217,
        2.125689,
        2.127279,
        2.130025,
        2.133893,
        2.138566,
        2.143646,
        2.148718,
        2.153405,
        2.157521,
        2.160925,
        2.163479,
        2.165254,
        2.167162,
        2.17033,
        2.175882,
        2.184361,
        2.193991,
        2.202411,
        2.207262,
        2.206897,
        2.202521,
        2.196052,
        2.189406,
        2.184011,
        2.179341,
        2.174439,
        2.168597,
        2.161263,
        2.152282,
        2.141596,
        2.129147,
        2.11506,
        2.100193,
        2.085588,
        2.072287,
        2.061291,
        2.053441,
        2.049534,
        2.050372,
        2.056183,
        2.064912,
        2.073936,
        2.080628,
        2.083099,
        2.08239,
        2.0803,
        2.078728,
        2.079116,
        2.080969,
        2.083308,
        2.085154,
        2.085882,
        2.086287,
        2.087515,
        2.090714,
        2.096478,
        2.103179,
        2.108633,
        2.110658,
        2.107902,
        2.102334,
        2.096759,
        2.093976,
        2.096021,
        2.101861,
        2.109697,
        2.117732,
        2.124458,
        2.129526,
        2.132874,
        2.13444,
        2.134269,
        2.132833,
        2.130713,
        2.128486,
        2.126564,
        2.124676,
        2.122381,
        2.119239,
        2.115072,
        2.110747,
        2.107392,
        2.106136,
        2.107634,
        2.11064,
        2.113438,
        2.114305,
        2.112033,
        2.107461,
        2.101939,
        2.096818,
        2.09318,
        2.091033,
        2.090117,
        2.09017,
        2.090954,
        2.092313,
        2.09411,
        2.096212,
        2.098333,
        2.099584,
        2.098926,
        2.09532,
        2.08825,
        2.079284,
        2.070513,
        2.064018,
        2.061289,
        2.061449,
        2.063028,
        2.06456,
        2.064823,
        2.063588,
        2.060874,
        2.056699,
        2.063532,
        2.060008,
        2.056565,
        2.053604,
        2.05144,
        2.050052,
        2.04933,
        2.049168,
        2.049457,
        2.050095,
        2.050975,
        2.051969,
        2.052936,
        2.053713,
        2.054129,
        2.05401,
        2.05332,
        2.05256,
        2.052362,
        2.053362,
        2.055936,
        2.059429,
        2.062931,
        2.065528,
        2.066587,
        2.066569,
        2.066214,
        2.06626,
        2.067204,
        2.06858,
        2.069682,
        2.069825,
        2.068521,
        2.066065,
        2.062948,
        2.059661,
        2.056669,
        2.054339,
        2.053014,
        2.053035
      ],
      "range":1
    }
  }
]
