[
  {
    "model":"Star, type M8(iii)",
    "name":"Star, type M8(iii)",
    "type":"WB_REF",
    "dataQualityMarker":3,
    "dataSource":"https://www.eso.org/sci/facilities/paranal/decommissioned/isaac/tools/lib.html",
    "manufacturer":"A. Pickles (A.J. Pickles, PASP 110,863, 1998)",
    "version":1,
    "wavelength":{
      "value":[
        1150.0,
        1155.0,
        1160.0,
        1165.0,
        1170.0,
        1175.0,
        1180.0,
        1185.0,
        1190.0,
        1195.0,
        1200.0,
        1205.0,
        1210.0,
        1215.0,
        1220.0,
        1225.0,
        1230.0,
        1235.0,
        1240.0,
        1245.0,
        1250.0,
        1255.0,
        1260.0,
        1265.0,
        1270.0,
        1275.0,
        1280.0,
        1285.0,
        1290.0,
        1295.0,
        1300.0,
        1305.0,
        1310.0,
        1315.0,
        1320.0,
        1325.0,
        1330.0,
        1335.0,
        1340.0,
        1345.0,
        1350.0,
        1355.0,
        1360.0,
        1365.0,
        1370.0,
        1375.0,
        1380.0,
        1385.0,
        1390.0,
        1395.0,
        1400.0,
        1405.0,
        1410.0,
        1415.0,
        1420.0,
        1425.0,
        1430.0,
        1435.0,
        1440.0,
        1445.0,
        1450.0,
        1455.0,
        1460.0,
        1465.0,
        1470.0,
        1475.0,
        1480.0,
        1485.0,
        1490.0,
        1495.0,
        1500.0,
        1505.0,
        1510.0,
        1515.0,
        1520.0,
        1525.0,
        1530.0,
        1535.0,
        1540.0,
        1545.0,
        1550.0,
        1555.0,
        1560.0,
        1565.0,
        1570.0,
        1575.0,
        1580.0,
        1585.0,
        1590.0,
        1595.0,
        1600.0,
        1605.0,
        1610.0,
        1615.0,
        1620.0,
        1625.0,
        1630.0,
        1635.0,
        1640.0,
        1645.0,
        1650.0,
        1655.0,
        1660.0,
        1665.0,
        1670.0,
        1675.0,
        1680.0,
        1685.0,
        1690.0,
        1695.0,
        1700.0,
        1705.0,
        1710.0,
        1715.0,
        1720.0,
        1725.0,
        1730.0,
        1735.0,
        1740.0,
        1745.0,
        1750.0,
        1755.0,
        1760.0,
        1765.0,
        1770.0,
        1775.0,
        1780.0,
        1785.0,
        1790.0,
        1795.0,
        1800.0,
        1805.0,
        1810.0,
        1815.0,
        1820.0,
        1825.0,
        1830.0,
        1835.0,
        1840.0,
        1845.0,
        1850.0,
        1855.0,
        1860.0,
        1865.0,
        1870.0,
        1875.0,
        1880.0,
        1885.0,
        1890.0,
        1895.0,
        1900.0,
        1905.0,
        1910.0,
        1915.0,
        1920.0,
        1925.0,
        1930.0,
        1935.0,
        1940.0,
        1945.0,
        1950.0,
        1955.0,
        1960.0,
        1965.0,
        1970.0,
        1975.0,
        1980.0,
        1985.0,
        1990.0,
        1995.0,
        2000.0,
        2005.0,
        2010.0,
        2015.0,
        2020.0,
        2025.0,
        2030.0,
        2035.0,
        2040.0,
        2045.0,
        2050.0,
        2055.0,
        2060.0,
        2065.0,
        2070.0,
        2075.0,
        2080.0,
        2085.0,
        2090.0,
        2095.0,
        2100.0,
        2105.0,
        2110.0,
        2115.0,
        2120.0,
        2125.0,
        2130.0,
        2135.0,
        2140.0,
        2145.0,
        2150.0,
        2155.0,
        2160.0,
        2165.0,
        2170.0,
        2175.0,
        2180.0,
        2185.0,
        2190.0,
        2195.0,
        2200.0,
        2205.0,
        2210.0,
        2215.0,
        2220.0,
        2225.0,
        2230.0,
        2235.0,
        2240.0,
        2245.0,
        2250.0,
        2255.0,
        2260.0,
        2265.0,
        2270.0,
        2275.0,
        2280.0,
        2285.0,
        2290.0,
        2295.0,
        2300.0,
        2305.0,
        2310.0,
        2315.0,
        2320.0,
        2325.0,
        2330.0,
        2335.0,
        2340.0,
        2345.0,
        2350.0,
        2355.0,
        2360.0,
        2365.0,
        2370.0,
        2375.0,
        2380.0,
        2385.0,
        2390.0,
        2395.0,
        2400.0,
        2405.0,
        2410.0,
        2415.0,
        2420.0,
        2425.0,
        2430.0,
        2435.0,
        2440.0,
        2445.0,
        2450.0,
        2455.0,
        2460.0,
        2465.0,
        2470.0,
        2475.0,
        2480.0,
        2485.0,
        2490.0,
        2495.0,
        2500.0,
        2505.0,
        2510.0,
        2515.0,
        2520.0,
        2525.0,
        2530.0,
        2535.0,
        2540.0,
        2545.0,
        2550.0,
        2555.0,
        2560.0,
        2565.0,
        2570.0,
        2575.0,
        2580.0,
        2585.0,
        2590.0,
        2595.0,
        2600.0,
        2605.0,
        2610.0,
        2615.0,
        2620.0,
        2625.0,
        2630.0,
        2635.0,
        2640.0,
        2645.0,
        2650.0,
        2655.0,
        2660.0,
        2665.0,
        2670.0,
        2675.0,
        2680.0,
        2685.0,
        2690.0,
        2695.0,
        2700.0,
        2705.0,
        2710.0,
        2715.0,
        2720.0,
        2725.0,
        2730.0,
        2735.0,
        2740.0,
        2745.0,
        2750.0,
        2755.0,
        2760.0,
        2765.0,
        2770.0,
        2775.0,
        2780.0,
        2785.0,
        2790.0,
        2795.0,
        2800.0,
        2805.0,
        2810.0,
        2815.0,
        2820.0,
        2825.0,
        2830.0,
        2835.0,
        2840.0,
        2845.0,
        2850.0,
        2855.0,
        2860.0,
        2865.0,
        2870.0,
        2875.0,
        2880.0,
        2885.0,
        2890.0,
        2895.0,
        2900.0,
        2905.0,
        2910.0,
        2915.0,
        2920.0,
        2925.0,
        2930.0,
        2935.0,
        2940.0,
        2945.0,
        2950.0,
        2955.0,
        2960.0,
        2965.0,
        2970.0,
        2975.0,
        2980.0,
        2985.0,
        2990.0,
        2995.0,
        3000.0,
        3005.0,
        3010.0,
        3015.0,
        3020.0,
        3025.0,
        3030.0,
        3035.0,
        3040.0,
        3045.0,
        3050.0,
        3055.0,
        3060.0,
        3065.0,
        3070.0,
        3075.0,
        3080.0,
        3085.0,
        3090.0,
        3095.0,
        3100.0,
        3105.0,
        3110.0,
        3115.0,
        3120.0,
        3125.0,
        3130.0,
        3135.0,
        3140.0,
        3145.0,
        3150.0,
        3155.0,
        3160.0,
        3165.0,
        3170.0,
        3175.0,
        3180.0,
        3185.0,
        3190.0,
        3195.0,
        3200.0,
        3205.0,
        3210.0,
        3215.0,
        3220.0,
        3225.0,
        3230.0,
        3235.0,
        3240.0,
        3245.0,
        3250.0,
        3255.0,
        3260.0,
        3265.0,
        3270.0,
        3275.0,
        3280.0,
        3285.0,
        3290.0,
        3295.0,
        3300.0,
        3305.0,
        3310.0,
        3315.0,
        3320.0,
        3325.0,
        3330.0,
        3335.0,
        3340.0,
        3345.0,
        3350.0,
        3355.0,
        3360.0,
        3365.0,
        3370.0,
        3375.0,
        3380.0,
        3385.0,
        3390.0,
        3395.0,
        3400.0,
        3405.0,
        3410.0,
        3415.0,
        3420.0,
        3425.0,
        3430.0,
        3435.0,
        3440.0,
        3445.0,
        3450.0,
        3455.0,
        3460.0,
        3465.0,
        3470.0,
        3475.0,
        3480.0,
        3485.0,
        3490.0,
        3495.0,
        3500.0,
        3505.0,
        3510.0,
        3515.0,
        3520.0,
        3525.0,
        3530.0,
        3535.0,
        3540.0,
        3545.0,
        3550.0,
        3555.0,
        3560.0,
        3565.0,
        3570.0,
        3575.0,
        3580.0,
        3585.0,
        3590.0,
        3595.0,
        3600.0,
        3605.0,
        3610.0,
        3615.0,
        3620.0,
        3625.0,
        3630.0,
        3635.0,
        3640.0,
        3645.0,
        3650.0,
        3655.0,
        3660.0,
        3665.0,
        3670.0,
        3675.0,
        3680.0,
        3685.0,
        3690.0,
        3695.0,
        3700.0,
        3705.0,
        3710.0,
        3715.0,
        3720.0,
        3725.0,
        3730.0,
        3735.0,
        3740.0,
        3745.0,
        3750.0,
        3755.0,
        3760.0,
        3765.0,
        3770.0,
        3775.0,
        3780.0,
        3785.0,
        3790.0,
        3795.0,
        3800.0,
        3805.0,
        3810.0,
        3815.0,
        3820.0,
        3825.0,
        3830.0,
        3835.0,
        3840.0,
        3845.0,
        3850.0,
        3855.0,
        3860.0,
        3865.0,
        3870.0,
        3875.0,
        3880.0,
        3885.0,
        3890.0,
        3895.0,
        3900.0,
        3905.0,
        3910.0,
        3915.0,
        3920.0,
        3925.0,
        3930.0,
        3935.0,
        3940.0,
        3945.0,
        3950.0,
        3955.0,
        3960.0,
        3965.0,
        3970.0,
        3975.0,
        3980.0,
        3985.0,
        3990.0,
        3995.0,
        4000.0,
        4005.0,
        4010.0,
        4015.0,
        4020.0,
        4025.0,
        4030.0,
        4035.0,
        4040.0,
        4045.0,
        4050.0,
        4055.0,
        4060.0,
        4065.0,
        4070.0,
        4075.0,
        4080.0,
        4085.0,
        4090.0,
        4095.0,
        4100.0,
        4105.0,
        4110.0,
        4115.0,
        4120.0,
        4125.0,
        4130.0,
        4135.0,
        4140.0,
        4145.0,
        4150.0,
        4155.0,
        4160.0,
        4165.0,
        4170.0,
        4175.0,
        4180.0,
        4185.0,
        4190.0,
        4195.0,
        4200.0,
        4205.0,
        4210.0,
        4215.0,
        4220.0,
        4225.0,
        4230.0,
        4235.0,
        4240.0,
        4245.0,
        4250.0,
        4255.0,
        4260.0,
        4265.0,
        4270.0,
        4275.0,
        4280.0,
        4285.0,
        4290.0,
        4295.0,
        4300.0,
        4305.0,
        4310.0,
        4315.0,
        4320.0,
        4325.0,
        4330.0,
        4335.0,
        4340.0,
        4345.0,
        4350.0,
        4355.0,
        4360.0,
        4365.0,
        4370.0,
        4375.0,
        4380.0,
        4385.0,
        4390.0,
        4395.0,
        4400.0,
        4405.0,
        4410.0,
        4415.0,
        4420.0,
        4425.0,
        4430.0,
        4435.0,
        4440.0,
        4445.0,
        4450.0,
        4455.0,
        4460.0,
        4465.0,
        4470.0,
        4475.0,
        4480.0,
        4485.0,
        4490.0,
        4495.0,
        4500.0,
        4505.0,
        4510.0,
        4515.0,
        4520.0,
        4525.0,
        4530.0,
        4535.0,
        4540.0,
        4545.0,
        4550.0,
        4555.0,
        4560.0,
        4565.0,
        4570.0,
        4575.0,
        4580.0,
        4585.0,
        4590.0,
        4595.0,
        4600.0,
        4605.0,
        4610.0,
        4615.0,
        4620.0,
        4625.0,
        4630.0,
        4635.0,
        4640.0,
        4645.0,
        4650.0,
        4655.0,
        4660.0,
        4665.0,
        4670.0,
        4675.0,
        4680.0,
        4685.0,
        4690.0,
        4695.0,
        4700.0,
        4705.0,
        4710.0,
        4715.0,
        4720.0,
        4725.0,
        4730.0,
        4735.0,
        4740.0,
        4745.0,
        4750.0,
        4755.0,
        4760.0,
        4765.0,
        4770.0,
        4775.0,
        4780.0,
        4785.0,
        4790.0,
        4795.0,
        4800.0,
        4805.0,
        4810.0,
        4815.0,
        4820.0,
        4825.0,
        4830.0,
        4835.0,
        4840.0,
        4845.0,
        4850.0,
        4855.0,
        4860.0,
        4865.0,
        4870.0,
        4875.0,
        4880.0,
        4885.0,
        4890.0,
        4895.0,
        4900.0,
        4905.0,
        4910.0,
        4915.0,
        4920.0,
        4925.0,
        4930.0,
        4935.0,
        4940.0,
        4945.0,
        4950.0,
        4955.0,
        4960.0,
        4965.0,
        4970.0,
        4975.0,
        4980.0,
        4985.0,
        4990.0,
        4995.0,
        5000.0,
        5005.0,
        5010.0,
        5015.0,
        5020.0,
        5025.0,
        5030.0,
        5035.0,
        5040.0,
        5045.0,
        5050.0,
        5055.0,
        5060.0,
        5065.0,
        5070.0,
        5075.0,
        5080.0,
        5085.0,
        5090.0,
        5095.0,
        5100.0,
        5105.0,
        5110.0,
        5115.0,
        5120.0,
        5125.0,
        5130.0,
        5135.0,
        5140.0,
        5145.0,
        5150.0,
        5155.0,
        5160.0,
        5165.0,
        5170.0,
        5175.0,
        5180.0,
        5185.0,
        5190.0,
        5195.0,
        5200.0,
        5205.0,
        5210.0,
        5215.0,
        5220.0,
        5225.0,
        5230.0,
        5235.0,
        5240.0,
        5245.0,
        5250.0,
        5255.0,
        5260.0,
        5265.0,
        5270.0,
        5275.0,
        5280.0,
        5285.0,
        5290.0,
        5295.0,
        5300.0,
        5305.0,
        5310.0,
        5315.0,
        5320.0,
        5325.0,
        5330.0,
        5335.0,
        5340.0,
        5345.0,
        5350.0,
        5355.0,
        5360.0,
        5365.0,
        5370.0,
        5375.0,
        5380.0,
        5385.0,
        5390.0,
        5395.0,
        5400.0,
        5405.0,
        5410.0,
        5415.0,
        5420.0,
        5425.0,
        5430.0,
        5435.0,
        5440.0,
        5445.0,
        5450.0,
        5455.0,
        5460.0,
        5465.0,
        5470.0,
        5475.0,
        5480.0,
        5485.0,
        5490.0,
        5495.0,
        5500.0,
        5505.0,
        5510.0,
        5515.0,
        5520.0,
        5525.0,
        5530.0,
        5535.0,
        5540.0,
        5545.0,
        5550.0,
        5555.0,
        5560.0,
        5565.0,
        5570.0,
        5575.0,
        5580.0,
        5585.0,
        5590.0,
        5595.0,
        5600.0,
        5605.0,
        5610.0,
        5615.0,
        5620.0,
        5625.0,
        5630.0,
        5635.0,
        5640.0,
        5645.0,
        5650.0,
        5655.0,
        5660.0,
        5665.0,
        5670.0,
        5675.0,
        5680.0,
        5685.0,
        5690.0,
        5695.0,
        5700.0,
        5705.0,
        5710.0,
        5715.0,
        5720.0,
        5725.0,
        5730.0,
        5735.0,
        5740.0,
        5745.0,
        5750.0,
        5755.0,
        5760.0,
        5765.0,
        5770.0,
        5775.0,
        5780.0,
        5785.0,
        5790.0,
        5795.0,
        5800.0,
        5805.0,
        5810.0,
        5815.0,
        5820.0,
        5825.0,
        5830.0,
        5835.0,
        5840.0,
        5845.0,
        5850.0,
        5855.0,
        5860.0,
        5865.0,
        5870.0,
        5875.0,
        5880.0,
        5885.0,
        5890.0,
        5895.0,
        5900.0,
        5905.0,
        5910.0,
        5915.0,
        5920.0,
        5925.0,
        5930.0,
        5935.0,
        5940.0,
        5945.0,
        5950.0,
        5955.0,
        5960.0,
        5965.0,
        5970.0,
        5975.0,
        5980.0,
        5985.0,
        5990.0,
        5995.0,
        6000.0,
        6005.0,
        6010.0,
        6015.0,
        6020.0,
        6025.0,
        6030.0,
        6035.0,
        6040.0,
        6045.0,
        6050.0,
        6055.0,
        6060.0,
        6065.0,
        6070.0,
        6075.0,
        6080.0,
        6085.0,
        6090.0,
        6095.0,
        6100.0,
        6105.0,
        6110.0,
        6115.0,
        6120.0,
        6125.0,
        6130.0,
        6135.0,
        6140.0,
        6145.0,
        6150.0,
        6155.0,
        6160.0,
        6165.0,
        6170.0,
        6175.0,
        6180.0,
        6185.0,
        6190.0,
        6195.0,
        6200.0,
        6205.0,
        6210.0,
        6215.0,
        6220.0,
        6225.0,
        6230.0,
        6235.0,
        6240.0,
        6245.0,
        6250.0,
        6255.0,
        6260.0,
        6265.0,
        6270.0,
        6275.0,
        6280.0,
        6285.0,
        6290.0,
        6295.0,
        6300.0,
        6305.0,
        6310.0,
        6315.0,
        6320.0,
        6325.0,
        6330.0,
        6335.0,
        6340.0,
        6345.0,
        6350.0,
        6355.0,
        6360.0,
        6365.0,
        6370.0,
        6375.0,
        6380.0,
        6385.0,
        6390.0,
        6395.0,
        6400.0,
        6405.0,
        6410.0,
        6415.0,
        6420.0,
        6425.0,
        6430.0,
        6435.0,
        6440.0,
        6445.0,
        6450.0,
        6455.0,
        6460.0,
        6465.0,
        6470.0,
        6475.0,
        6480.0,
        6485.0,
        6490.0,
        6495.0,
        6500.0,
        6505.0,
        6510.0,
        6515.0,
        6520.0,
        6525.0,
        6530.0,
        6535.0,
        6540.0,
        6545.0,
        6550.0,
        6555.0,
        6560.0,
        6565.0,
        6570.0,
        6575.0,
        6580.0,
        6585.0,
        6590.0,
        6595.0,
        6600.0,
        6605.0,
        6610.0,
        6615.0,
        6620.0,
        6625.0,
        6630.0,
        6635.0,
        6640.0,
        6645.0,
        6650.0,
        6655.0,
        6660.0,
        6665.0,
        6670.0,
        6675.0,
        6680.0,
        6685.0,
        6690.0,
        6695.0,
        6700.0,
        6705.0,
        6710.0,
        6715.0,
        6720.0,
        6725.0,
        6730.0,
        6735.0,
        6740.0,
        6745.0,
        6750.0,
        6755.0,
        6760.0,
        6765.0,
        6770.0,
        6775.0,
        6780.0,
        6785.0,
        6790.0,
        6795.0,
        6800.0,
        6805.0,
        6810.0,
        6815.0,
        6820.0,
        6825.0,
        6830.0,
        6835.0,
        6840.0,
        6845.0,
        6850.0,
        6855.0,
        6860.0,
        6865.0,
        6870.0,
        6875.0,
        6880.0,
        6885.0,
        6890.0,
        6895.0,
        6900.0,
        6905.0,
        6910.0,
        6915.0,
        6920.0,
        6925.0,
        6930.0,
        6935.0,
        6940.0,
        6945.0,
        6950.0,
        6955.0,
        6960.0,
        6965.0,
        6970.0,
        6975.0,
        6980.0,
        6985.0,
        6990.0,
        6995.0,
        7000.0,
        7005.0,
        7010.0,
        7015.0,
        7020.0,
        7025.0,
        7030.0,
        7035.0,
        7040.0,
        7045.0,
        7050.0,
        7055.0,
        7060.0,
        7065.0,
        7070.0,
        7075.0,
        7080.0,
        7085.0,
        7090.0,
        7095.0,
        7100.0,
        7105.0,
        7110.0,
        7115.0,
        7120.0,
        7125.0,
        7130.0,
        7135.0,
        7140.0,
        7145.0,
        7150.0,
        7155.0,
        7160.0,
        7165.0,
        7170.0,
        7175.0,
        7180.0,
        7185.0,
        7190.0,
        7195.0,
        7200.0,
        7205.0,
        7210.0,
        7215.0,
        7220.0,
        7225.0,
        7230.0,
        7235.0,
        7240.0,
        7245.0,
        7250.0,
        7255.0,
        7260.0,
        7265.0,
        7270.0,
        7275.0,
        7280.0,
        7285.0,
        7290.0,
        7295.0,
        7300.0,
        7305.0,
        7310.0,
        7315.0,
        7320.0,
        7325.0,
        7330.0,
        7335.0,
        7340.0,
        7345.0,
        7350.0,
        7355.0,
        7360.0,
        7365.0,
        7370.0,
        7375.0,
        7380.0,
        7385.0,
        7390.0,
        7395.0,
        7400.0,
        7405.0,
        7410.0,
        7415.0,
        7420.0,
        7425.0,
        7430.0,
        7435.0,
        7440.0,
        7445.0,
        7450.0,
        7455.0,
        7460.0,
        7465.0,
        7470.0,
        7475.0,
        7480.0,
        7485.0,
        7490.0,
        7495.0,
        7500.0,
        7505.0,
        7510.0,
        7515.0,
        7520.0,
        7525.0,
        7530.0,
        7535.0,
        7540.0,
        7545.0,
        7550.0,
        7555.0,
        7560.0,
        7565.0,
        7570.0,
        7575.0,
        7580.0,
        7585.0,
        7590.0,
        7595.0,
        7600.0,
        7605.0,
        7610.0,
        7615.0,
        7620.0,
        7625.0,
        7630.0,
        7635.0,
        7640.0,
        7645.0,
        7650.0,
        7655.0,
        7660.0,
        7665.0,
        7670.0,
        7675.0,
        7680.0,
        7685.0,
        7690.0,
        7695.0,
        7700.0,
        7705.0,
        7710.0,
        7715.0,
        7720.0,
        7725.0,
        7730.0,
        7735.0,
        7740.0,
        7745.0,
        7750.0,
        7755.0,
        7760.0,
        7765.0,
        7770.0,
        7775.0,
        7780.0,
        7785.0,
        7790.0,
        7795.0,
        7800.0,
        7805.0,
        7810.0,
        7815.0,
        7820.0,
        7825.0,
        7830.0,
        7835.0,
        7840.0,
        7845.0,
        7850.0,
        7855.0,
        7860.0,
        7865.0,
        7870.0,
        7875.0,
        7880.0,
        7885.0,
        7890.0,
        7895.0,
        7900.0,
        7905.0,
        7910.0,
        7915.0,
        7920.0,
        7925.0,
        7930.0,
        7935.0,
        7940.0,
        7945.0,
        7950.0,
        7955.0,
        7960.0,
        7965.0,
        7970.0,
        7975.0,
        7980.0,
        7985.0,
        7990.0,
        7995.0,
        8000.0,
        8005.0,
        8010.0,
        8015.0,
        8020.0,
        8025.0,
        8030.0,
        8035.0,
        8040.0,
        8045.0,
        8050.0,
        8055.0,
        8060.0,
        8065.0,
        8070.0,
        8075.0,
        8080.0,
        8085.0,
        8090.0,
        8095.0,
        8100.0,
        8105.0,
        8110.0,
        8115.0,
        8120.0,
        8125.0,
        8130.0,
        8135.0,
        8140.0,
        8145.0,
        8150.0,
        8155.0,
        8160.0,
        8165.0,
        8170.0,
        8175.0,
        8180.0,
        8185.0,
        8190.0,
        8195.0,
        8200.0,
        8205.0,
        8210.0,
        8215.0,
        8220.0,
        8225.0,
        8230.0,
        8235.0,
        8240.0,
        8245.0,
        8250.0,
        8255.0,
        8260.0,
        8265.0,
        8270.0,
        8275.0,
        8280.0,
        8285.0,
        8290.0,
        8295.0,
        8300.0,
        8305.0,
        8310.0,
        8315.0,
        8320.0,
        8325.0,
        8330.0,
        8335.0,
        8340.0,
        8345.0,
        8350.0,
        8355.0,
        8360.0,
        8365.0,
        8370.0,
        8375.0,
        8380.0,
        8385.0,
        8390.0,
        8395.0,
        8400.0,
        8405.0,
        8410.0,
        8415.0,
        8420.0,
        8425.0,
        8430.0,
        8435.0,
        8440.0,
        8445.0,
        8450.0,
        8455.0,
        8460.0,
        8465.0,
        8470.0,
        8475.0,
        8480.0,
        8485.0,
        8490.0,
        8495.0,
        8500.0,
        8505.0,
        8510.0,
        8515.0,
        8520.0,
        8525.0,
        8530.0,
        8535.0,
        8540.0,
        8545.0,
        8550.0,
        8555.0,
        8560.0,
        8565.0,
        8570.0,
        8575.0,
        8580.0,
        8585.0,
        8590.0,
        8595.0,
        8600.0,
        8605.0,
        8610.0,
        8615.0,
        8620.0,
        8625.0,
        8630.0,
        8635.0,
        8640.0,
        8645.0,
        8650.0,
        8655.0,
        8660.0,
        8665.0,
        8670.0,
        8675.0,
        8680.0,
        8685.0,
        8690.0,
        8695.0,
        8700.0,
        8705.0,
        8710.0,
        8715.0,
        8720.0,
        8725.0,
        8730.0,
        8735.0,
        8740.0,
        8745.0,
        8750.0,
        8755.0,
        8760.0,
        8765.0,
        8770.0,
        8775.0,
        8780.0,
        8785.0,
        8790.0,
        8795.0,
        8800.0,
        8805.0,
        8810.0,
        8815.0,
        8820.0,
        8825.0,
        8830.0,
        8835.0,
        8840.0,
        8845.0,
        8850.0,
        8855.0,
        8860.0,
        8865.0,
        8870.0,
        8875.0,
        8880.0,
        8885.0,
        8890.0,
        8895.0,
        8900.0,
        8905.0,
        8910.0,
        8915.0,
        8920.0,
        8925.0,
        8930.0,
        8935.0,
        8940.0,
        8945.0,
        8950.0,
        8955.0,
        8960.0,
        8965.0,
        8970.0,
        8975.0,
        8980.0,
        8985.0,
        8990.0,
        8995.0,
        9000.0,
        9005.0,
        9010.0,
        9015.0,
        9020.0,
        9025.0,
        9030.0,
        9035.0,
        9040.0,
        9045.0,
        9050.0,
        9055.0,
        9060.0,
        9065.0,
        9070.0,
        9075.0,
        9080.0,
        9085.0,
        9090.0,
        9095.0,
        9100.0,
        9105.0,
        9110.0,
        9115.0,
        9120.0,
        9125.0,
        9130.0,
        9135.0,
        9140.0,
        9145.0,
        9150.0,
        9155.0,
        9160.0,
        9165.0,
        9170.0,
        9175.0,
        9180.0,
        9185.0,
        9190.0,
        9195.0,
        9200.0,
        9205.0,
        9210.0,
        9215.0,
        9220.0,
        9225.0,
        9230.0,
        9235.0,
        9240.0,
        9245.0,
        9250.0,
        9255.0,
        9260.0,
        9265.0,
        9270.0,
        9275.0,
        9280.0,
        9285.0,
        9290.0,
        9295.0,
        9300.0,
        9305.0,
        9310.0,
        9315.0,
        9320.0,
        9325.0,
        9330.0,
        9335.0,
        9340.0,
        9345.0,
        9350.0,
        9355.0,
        9360.0,
        9365.0,
        9370.0,
        9375.0,
        9380.0,
        9385.0,
        9390.0,
        9395.0,
        9400.0,
        9405.0,
        9410.0,
        9415.0,
        9420.0,
        9425.0,
        9430.0,
        9435.0,
        9440.0,
        9445.0,
        9450.0,
        9455.0,
        9460.0,
        9465.0,
        9470.0,
        9475.0,
        9480.0,
        9485.0,
        9490.0,
        9495.0,
        9500.0,
        9505.0,
        9510.0,
        9515.0,
        9520.0,
        9525.0,
        9530.0,
        9535.0,
        9540.0,
        9545.0,
        9550.0,
        9555.0,
        9560.0,
        9565.0,
        9570.0,
        9575.0,
        9580.0,
        9585.0,
        9590.0,
        9595.0,
        9600.0,
        9605.0,
        9610.0,
        9615.0,
        9620.0,
        9625.0,
        9630.0,
        9635.0,
        9640.0,
        9645.0,
        9650.0,
        9655.0,
        9660.0,
        9665.0,
        9670.0,
        9675.0,
        9680.0,
        9685.0,
        9690.0,
        9695.0,
        9700.0,
        9705.0,
        9710.0,
        9715.0,
        9720.0,
        9725.0,
        9730.0,
        9735.0,
        9740.0,
        9745.0,
        9750.0,
        9755.0,
        9760.0,
        9765.0,
        9770.0,
        9775.0,
        9780.0,
        9785.0,
        9790.0,
        9795.0,
        9800.0,
        9805.0,
        9810.0,
        9815.0,
        9820.0,
        9825.0,
        9830.0,
        9835.0,
        9840.0,
        9845.0,
        9850.0,
        9855.0,
        9860.0,
        9865.0,
        9870.0,
        9875.0,
        9880.0,
        9885.0,
        9890.0,
        9895.0,
        9900.0,
        9905.0,
        9910.0,
        9915.0,
        9920.0,
        9925.0,
        9930.0,
        9935.0,
        9940.0,
        9945.0,
        9950.0,
        9955.0,
        9960.0,
        9965.0,
        9970.0,
        9975.0,
        9980.0,
        9985.0,
        9990.0,
        9995.0,
        10000.0,
        10005.0,
        10010.0,
        10015.0,
        10020.0,
        10025.0,
        10030.0,
        10035.0,
        10040.0,
        10045.0,
        10050.0,
        10055.0,
        10060.0,
        10065.0,
        10070.0,
        10075.0,
        10080.0,
        10085.0,
        10090.0,
        10095.0,
        10100.0,
        10105.0,
        10110.0,
        10115.0,
        10120.0,
        10125.0,
        10130.0,
        10135.0,
        10140.0,
        10145.0,
        10150.0,
        10155.0,
        10160.0,
        10165.0,
        10170.0,
        10175.0,
        10180.0,
        10185.0,
        10190.0,
        10195.0,
        10200.0,
        10205.0,
        10210.0,
        10215.0,
        10220.0,
        10225.0,
        10230.0,
        10235.0,
        10240.0,
        10245.0,
        10250.0,
        10255.0,
        10260.0,
        10265.0,
        10270.0,
        10275.0,
        10280.0,
        10285.0,
        10290.0,
        10295.0,
        10300.0,
        10305.0,
        10310.0,
        10315.0,
        10320.0,
        10325.0,
        10330.0,
        10335.0,
        10340.0,
        10345.0,
        10350.0,
        10355.0,
        10360.0,
        10365.0,
        10370.0,
        10375.0,
        10380.0,
        10385.0,
        10390.0,
        10395.0,
        10400.0,
        10405.0,
        10410.0,
        10415.0,
        10420.0,
        10425.0,
        10430.0,
        10435.0,
        10440.0,
        10445.0,
        10450.0,
        10455.0,
        10460.0,
        10465.0,
        10470.0,
        10475.0,
        10480.0,
        10485.0,
        10490.0,
        10495.0,
        10500.0
      ],
      "units":"angstrom"
    },
    "values":{
      "value":[
        0.0,
        0.0,
        0.0,
        0.0,
        0.0,
        0.0,
        0.0,
        0.0,
        0.0,
        0.0,
        0.0,
        0.0,
        0.0,
        0.0,
        0.0,
        0.0,
        0.0,
        0.0,
        0.0,
        0.0,
        0.0,
        0.0,
        0.0,
        0.0,
        0.0,
        0.0,
        0.0,
        0.0,
        0.0,
        0.0,
        0.0,
        0.0,
        0.0,
        0.0,
        0.0,
        0.0,
        0.0,
        0.0,
        0.0,
        0.0,
        0.0,
        0.0,
        0.0,
        0.0,
        0.0,
        0.0,
        0.0,
        0.0,
        0.0,
        0.0,
        0.0,
        0.0,
        0.0,
        0.0,
        0.0,
        0.0,
        0.0,
        0.0,
        0.0,
        0.0,
        0.0,
        0.0,
        0.0,
        0.0,
        0.0,
        0.0,
        0.0,
        0.0,
        0.0,
        0.0,
        0.0,
        0.0,
        0.0,
        0.0,
        0.0,
        0.0,
        0.0,
        0.0,
        0.0,
        0.0,
        0.0,
        0.0,
        0.0,
        0.0,
        0.0,
        0.0,
        0.0,
        0.0,
        0.0,
        0.0,
        0.0,
        0.0,
        0.0,
        0.0,
        0.0,
        0.0,
        0.0,
        0.0,
        0.0,
        0.0,
        0.0,
        0.0,
        0.0,
        0.0,
        0.0,
        0.0,
        0.0,
        0.0,
        0.0,
        0.0,
        0.0,
        0.0,
        0.0,
        0.0,
        0.0,
        0.0,
        0.0,
        0.0,
        0.0,
        0.0,
        0.0,
        0.0,
        0.0,
        0.0,
        0.0,
        0.0,
        0.0,
        0.0,
        0.0,
        0.0,
        0.0,
        0.0,
        0.0,
        0.0,
        0.0,
        0.0,
        0.0,
        0.0,
        0.0,
        0.0,
        0.0,
        0.0,
        0.0,
        0.0,
        0.0,
        0.0,
        0.0,
        0.0,
        0.0,
        0.0,
        0.0,
        0.0,
        0.0,
        0.0,
        0.0,
        0.0,
        0.0,
        0.0,
        0.0,
        0.0,
        0.0,
        0.0,
        0.0,
        0.0,
        0.0,
        0.0,
        0.0,
        0.0,
        0.0,
        0.0,
        0.0,
        0.0,
        0.0,
        0.0,
        0.0,
        0.0,
        0.0,
        0.0,
        0.0,
        0.0,
        0.0,
        0.0,
        0.0,
        0.0,
        0.0,
        1e-06,
        2e-06,
        2e-06,
        3e-06,
        4e-06,
        5e-06,
        5e-06,
        6e-06,
        6e-06,
        6e-06,
        6e-06,
        6e-06,
        6e-06,
        5e-06,
        4e-06,
        3e-06,
        1e-06,
        0.0,
        0.0,
        0.0,
        0.0,
        0.0,
        0.0,
        0.0,
        0.0,
        0.0,
        0.0,
        0.0,
        0.0,
        0.0,
        0.0,
        0.0,
        2e-06,
        9e-06,
        1.8e-05,
        2.8e-05,
        4e-05,
        5.3e-05,
        6.6e-05,
        7.9e-05,
        9.3e-05,
        0.000106,
        0.000119,
        0.000131,
        0.000141,
        0.00015,
        0.000157,
        0.000161,
        0.000163,
        0.000163,
        0.000159,
        0.000151,
        0.000139,
        0.000124,
        0.000104,
        7.9e-05,
        5e-05,
        2e-05,
        0.0,
        0.0,
        0.0,
        0.0,
        0.0,
        0.0,
        0.0,
        0.0,
        3.9e-05,
        0.000112,
        0.0002,
        0.00026,
        0.000246,
        0.000147,
        0.000164,
        0.000397,
        0.000338,
        9e-05,
        4.5e-05,
        6.8e-05,
        4.2e-05,
        1.9e-05,
        1.1e-05,
        4e-06,
        0.0,
        4e-06,
        1.7e-05,
        3.5e-05,
        4.8e-05,
        5e-05,
        3.5e-05,
        9e-06,
        1.2e-05,
        5.1e-05,
        6.9e-05,
        6e-06,
        0.0,
        0.000342,
        0.00089,
        0.001196,
        0.001222,
        0.001061,
        0.000913,
        0.001337,
        0.00246,
        0.002738,
        0.002138,
        0.002186,
        0.003039,
        0.004133,
        0.004459,
        0.004086,
        0.004089,
        0.005299,
        0.006858,
        0.006614,
        0.004316,
        0.002291,
        0.00517,
        0.008067,
        0.004808,
        0.002301,
        0.003685,
        0.005996,
        0.006817,
        0.00572,
        0.005037,
        0.005125,
        0.004813,
        0.003422,
        0.001372,
        0.000473,
        0.000945,
        0.001806,
        0.001637,
        0.000784,
        0.000989,
        0.001593,
        0.002021,
        0.001542,
        0.001982,
        0.001889,
        0.00219,
        0.00269,
        0.002135,
        0.001016,
        0.000206,
        0.000238,
        0.001007,
        0.001301,
        0.001332,
        0.001407,
        0.001108,
        0.000646,
        0.000438,
        0.000275,
        8.3e-05,
        6e-06,
        8e-06,
        4.9e-05,
        0.000173,
        0.000303,
        0.000361,
        0.000489,
        0.000829,
        0.001436,
        0.002127,
        0.00502,
        0.004146,
        0.004267,
        0.00921,
        0.010633,
        0.005367,
        0.004774,
        0.008108,
        0.009124,
        0.008234,
        0.008783,
        0.006107,
        0.005652,
        0.003317,
        0.003485,
        0.004197,
        0.002312,
        0.002341,
        0.004221,
        0.003244,
        0.001985,
        0.002802,
        0.003441,
        0.002509,
        0.000627,
        0.002838,
        0.007852,
        0.007493,
        0.004553,
        0.00326,
        0.00373,
        0.005591,
        0.00811,
        0.009751,
        0.011252,
        0.014922,
        0.018471,
        0.018475,
        0.013294,
        0.011912,
        0.024177,
        0.035331,
        0.040826,
        0.061551,
        0.078726,
        0.067062,
        0.054953,
        0.052582,
        0.047647,
        0.058254,
        0.079166,
        0.056773,
        0.044065,
        0.073154,
        0.11911,
        0.136483,
        0.103159,
        0.062973,
        0.052752,
        0.053333,
        0.084138,
        0.124034,
        0.128274,
        0.077706,
        0.043306,
        0.055292,
        0.095458,
        0.097377,
        0.096117,
        0.189404,
        0.241646,
        0.179214,
        0.156687,
        0.171822,
        0.160854,
        0.197747,
        0.266795,
        0.271991,
        0.262289,
        0.283467,
        0.280841,
        0.223403,
        0.138805,
        0.097111,
        0.132796,
        0.21847,
        0.256643,
        0.177763,
        0.115522,
        0.132746,
        0.184496,
        0.19266,
        0.124266,
        0.052051,
        0.053705,
        0.153955,
        0.239291,
        0.242852,
        0.186155,
        0.163578,
        0.211444,
        0.231451,
        0.200199,
        0.172254,
        0.251009,
        0.407081,
        0.388998,
        0.221198,
        0.087967,
        0.122787,
        0.255917,
        0.282148,
        0.29749,
        0.34699,
        0.245241,
        0.150876,
        0.274013,
        0.335023,
        0.254453,
        0.220368,
        0.272377,
        0.354961,
        0.344361,
        0.22596,
        0.106432,
        0.201939,
        0.524293,
        0.73553,
        0.772826,
        0.721712,
        0.687912,
        0.6684,
        0.593556,
        0.419112,
        0.203472,
        0.0732,
        0.064285,
        0.123875,
        0.112955,
        0.064074,
        0.116016,
        0.179565,
        0.202027,
        0.30774,
        0.432081,
        0.437763,
        0.338567,
        0.294863,
        0.487456,
        0.572865,
        0.463838,
        0.719379,
        0.997954,
        0.788191,
        0.732659,
        0.835936,
        0.474589,
        0.252597,
        0.630332,
        1.107272,
        1.204682,
        0.714912,
        0.297332,
        0.331861,
        0.367228,
        0.278478,
        0.179469,
        0.179085,
        0.226806,
        0.172242,
        0.196903,
        0.372794,
        0.434487,
        0.494484,
        0.813478,
        1.373603,
        1.737176,
        1.326926,
        0.822345,
        0.799016,
        0.942809,
        1.020367,
        0.918862,
        0.617782,
        0.262673,
        0.177986,
        0.296419,
        0.432681,
        0.731448,
        1.001921,
        0.798865,
        0.460726,
        0.359705,
        0.453135,
        0.584661,
        0.579128,
        0.346914,
        0.203122,
        0.635433,
        0.999667,
        0.732619,
        0.605131,
        0.787772,
        0.718719,
        0.453302,
        0.221295,
        0.131366,
        0.130216,
        0.149868,
        0.329917,
        0.521248,
        0.37033,
        0.145792,
        0.125341,
        0.242674,
        0.456738,
        0.702649,
        0.762349,
        0.698079,
        0.908084,
        1.190754,
        1.19475,
        1.203084,
        1.326681,
        1.38258,
        1.134469,
        0.700743,
        0.75446,
        1.065795,
        1.083632,
        0.99058,
        0.906175,
        0.794277,
        0.860037,
        1.066825,
        0.911032,
        0.751721,
        1.120073,
        1.381871,
        1.143927,
        0.797245,
        0.708658,
        0.959454,
        0.972819,
        0.778177,
        0.923961,
        0.908863,
        0.455919,
        0.236793,
        0.461464,
        0.953219,
        1.367501,
        1.363988,
        0.793315,
        0.320956,
        0.419084,
        0.767558,
        0.990069,
        0.843439,
        0.602561,
        0.495865,
        0.452939,
        0.398495,
        0.292933,
        0.172927,
        0.107034,
        0.155475,
        0.271829,
        0.402618,
        0.537495,
        0.542496,
        0.353755,
        0.326529,
        0.446714,
        0.358618,
        0.309755,
        0.470619,
        0.541512,
        0.44342,
        0.315396,
        0.450862,
        0.686878,
        0.531501,
        0.30325,
        0.372612,
        0.421393,
        0.33397,
        0.303237,
        0.343407,
        0.39096,
        0.375361,
        0.329672,
        0.329315,
        0.379056,
        0.451098,
        0.50322,
        0.457475,
        0.33637,
        0.322854,
        0.336193,
        0.240353,
        0.194336,
        0.331282,
        0.655492,
        0.779208,
        0.401994,
        0.139046,
        0.182991,
        0.207155,
        0.304055,
        0.504435,
        0.510674,
        0.332473,
        0.172293,
        0.206144,
        0.4366,
        0.638342,
        0.668737,
        0.510327,
        0.342707,
        0.260867,
        0.233774,
        0.229562,
        0.233865,
        0.269621,
        0.247884,
        0.089154,
        0.373276,
        1.043063,
        0.779264,
        0.124354,
        0.191089,
        0.328929,
        0.28882,
        0.428178,
        0.514297,
        0.346994,
        0.12182,
        0.133393,
        0.465386,
        0.501284,
        0.20667,
        0.152492,
        0.317819,
        0.478481,
        0.435557,
        0.234634,
        0.116371,
        0.091067,
        0.143294,
        0.339374,
        0.627848,
        0.82994,
        0.638768,
        0.238976,
        0.188757,
        0.298377,
        0.31487,
        0.327201,
        0.553071,
        0.994789,
        0.889592,
        0.300145,
        0.086864,
        0.209745,
        0.301945,
        0.082087,
        0.300878,
        1.731714,
        3.145232,
        3.302062,
        1.853483,
        0.230271,
        0.054441,
        0.128431,
        0.112579,
        0.263495,
        0.464422,
        0.533483,
        0.456752,
        0.312798,
        0.214757,
        0.046724,
        0.04593,
        0.570014,
        1.27311,
        0.756504,
        0.335191,
        0.828437,
        0.83908,
        0.2808,
        0.076801,
        0.808325,
        1.759613,
        0.910986,
        0.690469,
        2.227725,
        2.283047,
        1.082753,
        0.569875,
        0.910589,
        1.364654,
        0.956481,
        0.525235,
        0.763002,
        1.104704,
        1.28926,
        1.253541,
        0.809713,
        0.5199,
        1.259906,
        1.431344,
        0.34324,
        0.046772,
        0.370475,
        0.406701,
        0.684939,
        1.229722,
        1.058934,
        0.450352,
        0.185284,
        0.188044,
        0.210659,
        0.116918,
        0.43406,
        1.266684,
        1.340011,
        0.633445,
        0.323257,
        0.307759,
        0.302463,
        0.455083,
        0.759515,
        1.04773,
        1.029421,
        0.725725,
        0.510879,
        0.854939,
        1.529502,
        1.271213,
        0.797715,
        1.362067,
        2.156826,
        2.37979,
        1.803871,
        1.200457,
        1.15525,
        1.329774,
        1.492237,
        1.574446,
        1.320059,
        1.091349,
        2.11604,
        2.77641,
        1.255938,
        0.112778,
        0.207739,
        0.20013,
        0.407716,
        0.964356,
        0.791195,
        0.443977,
        1.345903,
        1.85397,
        1.007609,
        0.612258,
        0.834172,
        0.883462,
        0.799085,
        0.727759,
        0.627444,
        0.896143,
        1.679805,
        1.664117,
        1.141521,
        1.599925,
        1.652512,
        0.827637,
        1.265513,
        2.255127,
        2.087242,
        1.552419,
        1.071048,
        0.498039,
        1.174073,
        2.866505,
        2.262105,
        0.5505,
        0.428162,
        0.680154,
        0.639293,
        0.786256,
        0.904714,
        0.77698,
        0.607894,
        0.570161,
        0.749413,
        1.117426,
        1.46695,
        1.405317,
        1.153221,
        1.124195,
        1.193427,
        1.197194,
        1.078689,
        1.045831,
        1.232751,
        1.481424,
        1.59839,
        1.423804,
        0.961066,
        0.439547,
        0.327346,
        0.485861,
        0.578219,
        0.847372,
        1.195388,
        1.186583,
        1.075028,
        1.093803,
        0.792478,
        0.432249,
        0.853292,
        1.520875,
        1.725845,
        1.327986,
        0.81765,
        0.944085,
        1.336426,
        1.456387,
        1.168999,
        0.788788,
        0.695999,
        0.749474,
        0.831382,
        0.935397,
        1.020408,
        1.031504,
        0.917135,
        0.743259,
        0.620217,
        0.543814,
        0.503069,
        0.504388,
        0.521736,
        0.532405,
        0.538723,
        0.51133,
        0.465854,
        0.628588,
        0.914003,
        0.953275,
        0.806687,
        0.665742,
        0.661345,
        0.74385,
        0.754706,
        0.834611,
        1.022387,
        1.039308,
        0.915898,
        0.913305,
        0.946681,
        0.932967,
        1.004152,
        1.169429,
        1.281117,
        1.210106,
        1.00658,
        0.938484,
        1.045078,
        1.139393,
        1.057247,
        0.83856,
        0.81114,
        0.888735,
        0.857047,
        0.891246,
        1.014368,
        1.069901,
        1.141559,
        1.339497,
        1.166343,
        1.046966,
        0.857188,
        0.924156,
        1.087869,
        1.033911,
        0.806081,
        0.758809,
        0.927549,
        0.956408,
        0.669079,
        0.537774,
        0.511813,
        0.509251,
        0.566018,
        0.447919,
        0.487311,
        0.448579,
        0.489173,
        0.429776,
        0.335322,
        0.391959,
        0.399405,
        0.328343,
        0.375173,
        0.543477,
        0.573324,
        0.500722,
        0.514413,
        0.507239,
        0.537023,
        0.63881,
        0.608836,
        0.614341,
        0.72319,
        0.867045,
        0.926489,
        0.868082,
        0.771786,
        0.782075,
        0.847295,
        0.960534,
        0.996438,
        0.932326,
        0.932617,
        0.98594,
        1.090076,
        1.206834,
        1.246337,
        1.352758,
        1.30755,
        1.250831,
        1.453234,
        1.505485,
        1.350689,
        1.424133,
        1.540393,
        1.449492,
        1.513402,
        1.766038,
        1.5809,
        1.387968,
        1.720852,
        1.785297,
        1.505478,
        1.561259,
        1.833816,
        1.540461,
        1.202868,
        1.201734,
        1.034849,
        0.739995,
        0.616741,
        0.554462,
        0.486032,
        0.393845,
        0.423248,
        0.592801,
        0.720488,
        0.641006,
        0.523541,
        0.427766,
        0.479987,
        0.416669,
        0.459656,
        0.496447,
        0.543413,
        0.636081,
        0.68113,
        0.578726,
        0.593641,
        0.769049,
        0.817059,
        0.876672,
        0.841404,
        1.022735,
        0.957047,
        1.001871,
        1.094235,
        1.242646,
        1.342381,
        1.402002,
        1.379796,
        1.379826,
        1.43422,
        1.544532,
        1.437392,
        1.373425,
        1.440034,
        1.659035,
        1.601951,
        1.414537,
        1.716522,
        2.27005,
        2.205348,
        1.984885,
        1.97982,
        1.921367,
        1.901069,
        2.590369,
        2.987483,
        2.591513,
        2.015477,
        1.820042,
        2.12484,
        2.563759,
        2.803016,
        2.757992,
        2.699428,
        2.940052,
        2.897357,
        2.659714,
        3.123873,
        3.658019,
        3.342705,
        2.95143,
        2.784828,
        3.058842,
        3.364092,
        3.566364,
        3.614345,
        3.461346,
        3.15544,
        3.792494,
        4.936696,
        4.998815,
        4.270299,
        3.438159,
        3.303771,
        3.540481,
        2.801376,
        2.249205,
        2.399039,
        2.504639,
        2.38035,
        2.490087,
        2.385312,
        1.99313,
        1.952707,
        2.202501,
        2.487684,
        2.35522,
        2.088606,
        1.850716,
        1.885762,
        1.973133,
        2.017921,
        1.975724,
        1.603514,
        1.485433,
        1.460858,
        1.307254,
        1.356397,
        1.533413,
        1.526541,
        1.307517,
        1.373555,
        1.48708,
        1.392435,
        1.384707,
        1.449961,
        1.473911,
        1.341755,
        1.308963,
        1.427111,
        1.394026,
        1.47007,
        1.625953,
        1.573327,
        1.49707,
        1.620824,
        2.069738,
        2.364666,
        2.323986,
        2.032953,
        1.610696,
        1.514243,
        1.754866,
        1.751042,
        1.890373,
        2.366892,
        2.702702,
        2.775871,
        2.563913,
        2.442116,
        2.505622,
        2.715151,
        2.826152,
        2.695875,
        2.797057,
        3.099512,
        3.132727,
        3.461251,
        4.38379,
        4.419858,
        3.629858,
        3.598939,
        4.124098,
        4.483847,
        4.323265,
        3.946857,
        4.102893,
        4.532549,
        4.776728,
        5.061599,
        5.486145,
        5.875531,
        5.867602,
        5.395961,
        5.541375,
        6.395428,
        6.259309,
        5.828998,
        6.410191,
        6.658964,
        6.263315,
        6.010818,
        6.20106,
        6.481651,
        6.366384,
        6.427757,
        7.196064,
        7.147364,
        6.684849,
        6.849516,
        6.740481,
        6.231491,
        6.369635,
        6.411294,
        5.328547,
        3.424443,
        2.331941,
        2.831383,
        3.600456,
        3.77367,
        3.25625,
        2.536385,
        2.41771,
        2.704562,
        3.042632,
        3.511651,
        3.832338,
        3.582414,
        2.741036,
        1.711655,
        1.483722,
        1.63154,
        1.357953,
        1.756168,
        3.282633,
        3.59309,
        2.593551,
        2.275814,
        2.812098,
        3.323833,
        3.412799,
        3.172709,
        3.040885,
        3.329333,
        3.633861,
        3.332391,
        3.206476,
        3.851924,
        4.08183,
        4.059537,
        4.358921,
        4.841357,
        5.425647,
        5.60774,
        5.398369,
        5.13832,
        5.215854,
        5.568963,
        5.912867,
        6.204613,
        6.453995,
        6.622377,
        6.915766,
        7.224899,
        7.607227,
        8.009155,
        8.457661,
        8.975512,
        9.368346,
        9.708675,
        9.76423,
        9.884871,
        9.757929,
        9.414417,
        9.263987,
        9.189282,
        9.22564,
        9.378966,
        9.414726,
        9.668134,
        9.961279,
        10.065542,
        10.067854,
        9.960236,
        10.069199,
        10.235971,
        10.912416,
        11.367533,
        11.771008,
        11.986409,
        11.605809,
        10.96187,
        10.508291,
        10.487764,
        10.907984,
        11.41903,
        12.020727,
        12.063064,
        11.50942,
        10.964171,
        10.621284,
        10.743371,
        11.368986,
        12.343421,
        13.266139,
        13.58944,
        13.247456,
        12.528859,
        11.916162,
        11.519037,
        11.591659,
        12.117647,
        12.808834,
        13.376227,
        13.640174,
        13.721514,
        13.644564,
        13.447966,
        13.159315,
        12.784362,
        12.332249,
        11.842492,
        11.350723,
        10.884333,
        10.461266,
        10.058493,
        9.644376,
        9.206876,
        8.748604,
        8.285671,
        7.839754,
        7.468409,
        7.253216,
        7.27479,
        7.608676,
        8.198515,
        8.83984,
        9.32845,
        9.461968,
        9.170246,
        8.633906,
        8.048642,
        7.600896,
        7.428482,
        7.492688,
        7.715063,
        8.020947,
        8.344424,
        8.672609,
        9.064086,
        9.587691,
        10.161838,
        10.604198,
        10.817745,
        10.913815,
        10.749425,
        10.256928,
        9.668152,
        9.102279,
        8.77323,
        9.033866,
        9.695877,
        10.603557,
        11.431684,
        12.04126,
        12.430353,
        12.370547,
        11.961009,
        11.217395,
        10.441041,
        9.743363,
        9.343243,
        9.119554,
        9.038566,
        9.238791,
        9.729763,
        9.940352,
        9.970757,
        10.119286,
        10.293894,
        10.190924,
        9.994319,
        9.532132,
        8.901274,
        8.551641,
        8.326941,
        8.283789,
        8.531068,
        8.890487,
        9.296375,
        9.334502,
        8.999278,
        8.333672,
        8.032127,
        7.852943,
        7.908751,
        8.152431,
        8.669263,
        8.966285,
        8.789595,
        8.735895,
        8.663072,
        8.675509,
        8.881227,
        9.278659,
        9.689677,
        10.13705,
        10.425175,
        10.557699,
        10.548408,
        10.689995,
        10.939065,
        11.152763,
        11.647131,
        12.375919,
        13.034697,
        13.68025,
        14.342879,
        15.052137,
        15.940279,
        16.853634,
        17.672955,
        18.416803,
        19.204531,
        19.818871,
        20.300529,
        20.69767,
        21.272869,
        22.080431,
        22.878546,
        23.552731,
        24.397354,
        24.947981,
        25.367638,
        25.899178,
        26.939926,
        28.920647,
        32.21682,
        36.008419,
        39.342407,
        41.710262,
        42.741646,
        41.339344,
        37.038555,
        32.853611,
        29.521078,
        27.639929,
        26.63324,
        26.352596,
        26.56291,
        27.31465,
        27.813131,
        28.670441,
        29.521067,
        29.97361,
        31.353712,
        32.808575,
        33.223625,
        32.240768,
        30.464825,
        27.800863,
        24.877548,
        22.676115,
        21.916101,
        22.515951,
        24.641941,
        27.066124,
        28.838434,
        29.247511,
        28.418669,
        26.725756,
        25.132912,
        24.598125,
        24.996441,
        26.284082,
        27.825489,
        28.894846,
        29.364626,
        28.71768,
        27.853405,
        26.941284,
        25.721409,
        25.489126,
        25.457504,
        25.756807,
        26.05747,
        26.334938,
        26.123747,
        25.371447,
        24.620541,
        22.440521,
        20.134939,
        17.979195,
        15.891909,
        14.525827,
        13.945734,
        14.187502,
        14.878405,
        15.762768,
        16.528427,
        16.634689,
        16.297613,
        15.686894,
        15.082322,
        14.986534,
        15.434512,
        16.531137,
        17.749193,
        19.011738,
        19.789728,
        19.935242,
        19.59017,
        19.218502,
        19.015837,
        19.238018,
        19.786793,
        20.549265,
        21.276058,
        21.490492,
        21.540741,
        21.280107,
        20.806433,
        20.442486,
        20.269558,
        20.633984,
        21.480234,
        22.478886,
        23.408043,
        23.902187,
        24.199389,
        24.45686,
        24.186384,
        23.909767,
        23.627073,
        23.653212,
        23.408382,
        23.015629,
        22.513962,
        22.419312,
        23.086706,
        24.453983,
        26.30407,
        28.147343,
        29.020502,
        28.637831,
        28.111464,
        28.328646,
        29.910072,
        31.940292,
        33.257824,
        32.46571,
        30.189163,
        28.062559,
        27.389357,
        28.938467,
        31.430124,
        33.746552,
        35.133713,
        35.166573,
        34.516476,
        33.685741,
        33.332497,
        33.316246,
        33.982128,
        34.78022,
        36.100784,
        37.796444,
        38.709919,
        38.838459,
        39.195744,
        39.945919,
        41.173958,
        42.664093,
        43.342617,
        42.168377,
        37.726135,
        31.93004,
        28.45944,
        26.661566,
        27.579565,
        29.954636,
        33.502903,
        37.374077,
        40.483959,
        42.187622,
        40.941669,
        37.352509,
        33.461655,
        30.814884,
        30.169197,
        30.493183,
        30.856337,
        32.03352,
        33.237576,
        34.455597,
        35.655422,
        36.310089,
        36.730499,
        37.574181,
        38.914177,
        40.9333,
        42.226017,
        43.999729,
        44.055561,
        43.096008,
        42.822456,
        42.856487,
        44.423553,
        48.139954,
        50.993927,
        52.568192,
        52.342319,
        51.455223,
        51.414223,
        52.893692,
        55.65741,
        58.79715,
        60.635971,
        61.314541,
        61.188435,
        60.998718,
        61.556992,
        64.244141,
        66.857491,
        68.496262,
        68.621361,
        68.333977,
        66.64537,
        66.005264,
        64.828621,
        64.364403,
        65.043144,
        66.086433,
        67.434944,
        68.599098,
        70.428955,
        71.90274,
        72.743271,
        72.428482,
        72.927933,
        72.402451,
        70.91523,
        68.259254,
        65.433922,
        62.501259,
        58.417095,
        55.290859,
        52.862659,
        50.695274,
        49.025917,
        47.590763,
        47.10368,
        47.140743,
        47.116669,
        47.796768,
        48.507988,
        49.380951,
        49.960751,
        48.95092,
        47.204048,
        46.738789,
        45.60083,
        44.440495,
        43.073399,
        42.356831,
        42.769943,
        42.901676,
        42.022572,
        42.370617,
        42.799892,
        42.556644,
        41.774902,
        39.702087,
        39.642727,
        39.33469,
        39.55069,
        42.186287,
        44.047447,
        47.536449,
        50.448612,
        53.049397,
        54.773327,
        55.58733,
        54.177227,
        52.335766,
        50.083027,
        48.248764,
        46.918404,
        46.359344,
        44.974018,
        46.321823,
        46.166382,
        46.791069,
        49.903038,
        51.350594,
        51.973846,
        53.836765,
        55.87825,
        57.342949,
        58.555153,
        59.647011,
        62.234341,
        62.335342,
        62.937569,
        64.49688,
        66.641029,
        66.862801,
        66.092545,
        66.783409,
        68.430069,
        69.05529,
        68.843452,
        68.597481,
        68.687439,
        67.940483,
        66.918381,
        65.70826,
        64.08802,
        63.662857,
        61.651894,
        60.27951,
        59.361748,
        60.239864,
        62.606831,
        64.296486,
        66.069336,
        67.513878,
        68.304848,
        68.76281,
        68.817711,
        67.773682,
        67.082169,
        67.974846,
        68.159309,
        68.73642,
        70.221848,
        70.906075,
        72.338516,
        73.887146,
        75.08374,
        75.784767,
        75.329979,
        75.004723,
        75.230995,
        74.58432,
        74.201981,
        73.976341,
        72.328644,
        70.679329,
        68.176743,
        65.639114,
        64.211586,
        63.02634,
        61.177048,
        60.246914,
        60.537273,
        60.972286,
        62.405739,
        64.582924,
        67.653053,
        70.534004,
        73.739334,
        76.604378,
        78.317841,
        77.847366,
        76.480179,
        72.916405,
        69.27449,
        67.127708,
        66.008598,
        66.489754,
        69.031258,
        73.323807,
        77.852509,
        82.627167,
        86.410378,
        88.402565,
        88.38092,
        87.271317,
        85.752457,
        82.869217,
        80.34549,
        78.927254,
        78.803757,
        79.477936,
        81.944893,
        84.870377,
        88.176414,
        90.897736,
        92.525154,
        94.123322,
        94.624115,
        94.793884,
        93.355049,
        91.284195,
        89.357918,
        87.1633,
        85.6763,
        84.205765,
        82.968765,
        82.578445,
        82.749611,
        84.540886,
        86.83622,
        89.998772,
        93.873604,
        97.128937,
        100.316734,
        101.548531,
        100.972145,
        99.999916,
        98.880203,
        98.52359,
        97.066696,
        95.532921,
        94.532745,
        94.359802,
        94.417679,
        94.885857,
        96.639481,
        95.960403,
        97.276291,
        98.210938,
        98.720192,
        99.676094,
        101.293556,
        101.33902,
        101.380211,
        100.491188,
        100.939049,
        101.125557,
        100.153275,
        99.452293,
        99.280823,
        99.304993,
        99.57383,
        100.745888,
        100.694847,
        101.331436,
        100.603233,
        101.053734,
        101.488937,
        101.983543,
        102.66407,
        103.646965,
        105.00103,
        106.774574,
        108.818054,
        110.801048,
        112.452591,
        113.518768,
        113.765808,
        113.231285,
        112.138237,
        110.711082,
        109.174225,
        107.72699,
        106.37252,
        105.011559,
        103.543716,
        101.876312,
        100.017334,
        98.359688,
        97.423218,
        97.720093,
        99.731522,
        103.652367,
        108.643517,
        113.635147,
        117.593689,
        119.494949,
        118.795708,
        116.371086,
        113.317703,
        110.721565,
        109.666801,
        110.707329,
        113.153488,
        116.140068,
        118.80188,
        120.258911,
        120.067551,
        118.824051,
        117.25666,
        116.099335,
        116.105049,
        117.568695,
        113.584824,
        119.003937,
        123.62764,
        126.075165,
        125.673912,
        123.224998,
        119.713394,
        116.124062,
        113.440155,
        112.256363,
        112.300598,
        113.183533,
        114.515823,
        115.908478,
        117.070198,
        117.943588,
        118.505585
      ],
      "range":1
    }
  }
]
