[
  {
    "model":"Star, type O8(iii)",
    "name":"Star, type O8(iii)",
    "type":"WB_REF",
    "dataQualityMarker":3,
    "dataSource":"https://www.eso.org/sci/facilities/paranal/decommissioned/isaac/tools/lib.html",
    "manufacturer":"A. Pickles (A.J. Pickles, PASP 110,863, 1998)",
    "version":1,
    "wavelength":{
      "value":[
        1150.0,
        1155.0,
        1160.0,
        1165.0,
        1170.0,
        1175.0,
        1180.0,
        1185.0,
        1190.0,
        1195.0,
        1200.0,
        1205.0,
        1210.0,
        1215.0,
        1220.0,
        1225.0,
        1230.0,
        1235.0,
        1240.0,
        1245.0,
        1250.0,
        1255.0,
        1260.0,
        1265.0,
        1270.0,
        1275.0,
        1280.0,
        1285.0,
        1290.0,
        1295.0,
        1300.0,
        1305.0,
        1310.0,
        1315.0,
        1320.0,
        1325.0,
        1330.0,
        1335.0,
        1340.0,
        1345.0,
        1350.0,
        1355.0,
        1360.0,
        1365.0,
        1370.0,
        1375.0,
        1380.0,
        1385.0,
        1390.0,
        1395.0,
        1400.0,
        1405.0,
        1410.0,
        1415.0,
        1420.0,
        1425.0,
        1430.0,
        1435.0,
        1440.0,
        1445.0,
        1450.0,
        1455.0,
        1460.0,
        1465.0,
        1470.0,
        1475.0,
        1480.0,
        1485.0,
        1490.0,
        1495.0,
        1500.0,
        1505.0,
        1510.0,
        1515.0,
        1520.0,
        1525.0,
        1530.0,
        1535.0,
        1540.0,
        1545.0,
        1550.0,
        1555.0,
        1560.0,
        1565.0,
        1570.0,
        1575.0,
        1580.0,
        1585.0,
        1590.0,
        1595.0,
        1600.0,
        1605.0,
        1610.0,
        1615.0,
        1620.0,
        1625.0,
        1630.0,
        1635.0,
        1640.0,
        1645.0,
        1650.0,
        1655.0,
        1660.0,
        1665.0,
        1670.0,
        1675.0,
        1680.0,
        1685.0,
        1690.0,
        1695.0,
        1700.0,
        1705.0,
        1710.0,
        1715.0,
        1720.0,
        1725.0,
        1730.0,
        1735.0,
        1740.0,
        1745.0,
        1750.0,
        1755.0,
        1760.0,
        1765.0,
        1770.0,
        1775.0,
        1780.0,
        1785.0,
        1790.0,
        1795.0,
        1800.0,
        1805.0,
        1810.0,
        1815.0,
        1820.0,
        1825.0,
        1830.0,
        1835.0,
        1840.0,
        1845.0,
        1850.0,
        1855.0,
        1860.0,
        1865.0,
        1870.0,
        1875.0,
        1880.0,
        1885.0,
        1890.0,
        1895.0,
        1900.0,
        1905.0,
        1910.0,
        1915.0,
        1920.0,
        1925.0,
        1930.0,
        1935.0,
        1940.0,
        1945.0,
        1950.0,
        1955.0,
        1960.0,
        1965.0,
        1970.0,
        1975.0,
        1980.0,
        1985.0,
        1990.0,
        1995.0,
        2000.0,
        2005.0,
        2010.0,
        2015.0,
        2020.0,
        2025.0,
        2030.0,
        2035.0,
        2040.0,
        2045.0,
        2050.0,
        2055.0,
        2060.0,
        2065.0,
        2070.0,
        2075.0,
        2080.0,
        2085.0,
        2090.0,
        2095.0,
        2100.0,
        2105.0,
        2110.0,
        2115.0,
        2120.0,
        2125.0,
        2130.0,
        2135.0,
        2140.0,
        2145.0,
        2150.0,
        2155.0,
        2160.0,
        2165.0,
        2170.0,
        2175.0,
        2180.0,
        2185.0,
        2190.0,
        2195.0,
        2200.0,
        2205.0,
        2210.0,
        2215.0,
        2220.0,
        2225.0,
        2230.0,
        2235.0,
        2240.0,
        2245.0,
        2250.0,
        2255.0,
        2260.0,
        2265.0,
        2270.0,
        2275.0,
        2280.0,
        2285.0,
        2290.0,
        2295.0,
        2300.0,
        2305.0,
        2310.0,
        2315.0,
        2320.0,
        2325.0,
        2330.0,
        2335.0,
        2340.0,
        2345.0,
        2350.0,
        2355.0,
        2360.0,
        2365.0,
        2370.0,
        2375.0,
        2380.0,
        2385.0,
        2390.0,
        2395.0,
        2400.0,
        2405.0,
        2410.0,
        2415.0,
        2420.0,
        2425.0,
        2430.0,
        2435.0,
        2440.0,
        2445.0,
        2450.0,
        2455.0,
        2460.0,
        2465.0,
        2470.0,
        2475.0,
        2480.0,
        2485.0,
        2490.0,
        2495.0,
        2500.0,
        2505.0,
        2510.0,
        2515.0,
        2520.0,
        2525.0,
        2530.0,
        2535.0,
        2540.0,
        2545.0,
        2550.0,
        2555.0,
        2560.0,
        2565.0,
        2570.0,
        2575.0,
        2580.0,
        2585.0,
        2590.0,
        2595.0,
        2600.0,
        2605.0,
        2610.0,
        2615.0,
        2620.0,
        2625.0,
        2630.0,
        2635.0,
        2640.0,
        2645.0,
        2650.0,
        2655.0,
        2660.0,
        2665.0,
        2670.0,
        2675.0,
        2680.0,
        2685.0,
        2690.0,
        2695.0,
        2700.0,
        2705.0,
        2710.0,
        2715.0,
        2720.0,
        2725.0,
        2730.0,
        2735.0,
        2740.0,
        2745.0,
        2750.0,
        2755.0,
        2760.0,
        2765.0,
        2770.0,
        2775.0,
        2780.0,
        2785.0,
        2790.0,
        2795.0,
        2800.0,
        2805.0,
        2810.0,
        2815.0,
        2820.0,
        2825.0,
        2830.0,
        2835.0,
        2840.0,
        2845.0,
        2850.0,
        2855.0,
        2860.0,
        2865.0,
        2870.0,
        2875.0,
        2880.0,
        2885.0,
        2890.0,
        2895.0,
        2900.0,
        2905.0,
        2910.0,
        2915.0,
        2920.0,
        2925.0,
        2930.0,
        2935.0,
        2940.0,
        2945.0,
        2950.0,
        2955.0,
        2960.0,
        2965.0,
        2970.0,
        2975.0,
        2980.0,
        2985.0,
        2990.0,
        2995.0,
        3000.0,
        3005.0,
        3010.0,
        3015.0,
        3020.0,
        3025.0,
        3030.0,
        3035.0,
        3040.0,
        3045.0,
        3050.0,
        3055.0,
        3060.0,
        3065.0,
        3070.0,
        3075.0,
        3080.0,
        3085.0,
        3090.0,
        3095.0,
        3100.0,
        3105.0,
        3110.0,
        3115.0,
        3120.0,
        3125.0,
        3130.0,
        3135.0,
        3140.0,
        3145.0,
        3150.0,
        3155.0,
        3160.0,
        3165.0,
        3170.0,
        3175.0,
        3180.0,
        3185.0,
        3190.0,
        3195.0,
        3200.0,
        3205.0,
        3210.0,
        3215.0,
        3220.0,
        3225.0,
        3230.0,
        3235.0,
        3240.0,
        3245.0,
        3250.0,
        3255.0,
        3260.0,
        3265.0,
        3270.0,
        3275.0,
        3280.0,
        3285.0,
        3290.0,
        3295.0,
        3300.0,
        3305.0,
        3310.0,
        3315.0,
        3320.0,
        3325.0,
        3330.0,
        3335.0,
        3340.0,
        3345.0,
        3350.0,
        3355.0,
        3360.0,
        3365.0,
        3370.0,
        3375.0,
        3380.0,
        3385.0,
        3390.0,
        3395.0,
        3400.0,
        3405.0,
        3410.0,
        3415.0,
        3420.0,
        3425.0,
        3430.0,
        3435.0,
        3440.0,
        3445.0,
        3450.0,
        3455.0,
        3460.0,
        3465.0,
        3470.0,
        3475.0,
        3480.0,
        3485.0,
        3490.0,
        3495.0,
        3500.0,
        3505.0,
        3510.0,
        3515.0,
        3520.0,
        3525.0,
        3530.0,
        3535.0,
        3540.0,
        3545.0,
        3550.0,
        3555.0,
        3560.0,
        3565.0,
        3570.0,
        3575.0,
        3580.0,
        3585.0,
        3590.0,
        3595.0,
        3600.0,
        3605.0,
        3610.0,
        3615.0,
        3620.0,
        3625.0,
        3630.0,
        3635.0,
        3640.0,
        3645.0,
        3650.0,
        3655.0,
        3660.0,
        3665.0,
        3670.0,
        3675.0,
        3680.0,
        3685.0,
        3690.0,
        3695.0,
        3700.0,
        3705.0,
        3710.0,
        3715.0,
        3720.0,
        3725.0,
        3730.0,
        3735.0,
        3740.0,
        3745.0,
        3750.0,
        3755.0,
        3760.0,
        3765.0,
        3770.0,
        3775.0,
        3780.0,
        3785.0,
        3790.0,
        3795.0,
        3800.0,
        3805.0,
        3810.0,
        3815.0,
        3820.0,
        3825.0,
        3830.0,
        3835.0,
        3840.0,
        3845.0,
        3850.0,
        3855.0,
        3860.0,
        3865.0,
        3870.0,
        3875.0,
        3880.0,
        3885.0,
        3890.0,
        3895.0,
        3900.0,
        3905.0,
        3910.0,
        3915.0,
        3920.0,
        3925.0,
        3930.0,
        3935.0,
        3940.0,
        3945.0,
        3950.0,
        3955.0,
        3960.0,
        3965.0,
        3970.0,
        3975.0,
        3980.0,
        3985.0,
        3990.0,
        3995.0,
        4000.0,
        4005.0,
        4010.0,
        4015.0,
        4020.0,
        4025.0,
        4030.0,
        4035.0,
        4040.0,
        4045.0,
        4050.0,
        4055.0,
        4060.0,
        4065.0,
        4070.0,
        4075.0,
        4080.0,
        4085.0,
        4090.0,
        4095.0,
        4100.0,
        4105.0,
        4110.0,
        4115.0,
        4120.0,
        4125.0,
        4130.0,
        4135.0,
        4140.0,
        4145.0,
        4150.0,
        4155.0,
        4160.0,
        4165.0,
        4170.0,
        4175.0,
        4180.0,
        4185.0,
        4190.0,
        4195.0,
        4200.0,
        4205.0,
        4210.0,
        4215.0,
        4220.0,
        4225.0,
        4230.0,
        4235.0,
        4240.0,
        4245.0,
        4250.0,
        4255.0,
        4260.0,
        4265.0,
        4270.0,
        4275.0,
        4280.0,
        4285.0,
        4290.0,
        4295.0,
        4300.0,
        4305.0,
        4310.0,
        4315.0,
        4320.0,
        4325.0,
        4330.0,
        4335.0,
        4340.0,
        4345.0,
        4350.0,
        4355.0,
        4360.0,
        4365.0,
        4370.0,
        4375.0,
        4380.0,
        4385.0,
        4390.0,
        4395.0,
        4400.0,
        4405.0,
        4410.0,
        4415.0,
        4420.0,
        4425.0,
        4430.0,
        4435.0,
        4440.0,
        4445.0,
        4450.0,
        4455.0,
        4460.0,
        4465.0,
        4470.0,
        4475.0,
        4480.0,
        4485.0,
        4490.0,
        4495.0,
        4500.0,
        4505.0,
        4510.0,
        4515.0,
        4520.0,
        4525.0,
        4530.0,
        4535.0,
        4540.0,
        4545.0,
        4550.0,
        4555.0,
        4560.0,
        4565.0,
        4570.0,
        4575.0,
        4580.0,
        4585.0,
        4590.0,
        4595.0,
        4600.0,
        4605.0,
        4610.0,
        4615.0,
        4620.0,
        4625.0,
        4630.0,
        4635.0,
        4640.0,
        4645.0,
        4650.0,
        4655.0,
        4660.0,
        4665.0,
        4670.0,
        4675.0,
        4680.0,
        4685.0,
        4690.0,
        4695.0,
        4700.0,
        4705.0,
        4710.0,
        4715.0,
        4720.0,
        4725.0,
        4730.0,
        4735.0,
        4740.0,
        4745.0,
        4750.0,
        4755.0,
        4760.0,
        4765.0,
        4770.0,
        4775.0,
        4780.0,
        4785.0,
        4790.0,
        4795.0,
        4800.0,
        4805.0,
        4810.0,
        4815.0,
        4820.0,
        4825.0,
        4830.0,
        4835.0,
        4840.0,
        4845.0,
        4850.0,
        4855.0,
        4860.0,
        4865.0,
        4870.0,
        4875.0,
        4880.0,
        4885.0,
        4890.0,
        4895.0,
        4900.0,
        4905.0,
        4910.0,
        4915.0,
        4920.0,
        4925.0,
        4930.0,
        4935.0,
        4940.0,
        4945.0,
        4950.0,
        4955.0,
        4960.0,
        4965.0,
        4970.0,
        4975.0,
        4980.0,
        4985.0,
        4990.0,
        4995.0,
        5000.0,
        5005.0,
        5010.0,
        5015.0,
        5020.0,
        5025.0,
        5030.0,
        5035.0,
        5040.0,
        5045.0,
        5050.0,
        5055.0,
        5060.0,
        5065.0,
        5070.0,
        5075.0,
        5080.0,
        5085.0,
        5090.0,
        5095.0,
        5100.0,
        5105.0,
        5110.0,
        5115.0,
        5120.0,
        5125.0,
        5130.0,
        5135.0,
        5140.0,
        5145.0,
        5150.0,
        5155.0,
        5160.0,
        5165.0,
        5170.0,
        5175.0,
        5180.0,
        5185.0,
        5190.0,
        5195.0,
        5200.0,
        5205.0,
        5210.0,
        5215.0,
        5220.0,
        5225.0,
        5230.0,
        5235.0,
        5240.0,
        5245.0,
        5250.0,
        5255.0,
        5260.0,
        5265.0,
        5270.0,
        5275.0,
        5280.0,
        5285.0,
        5290.0,
        5295.0,
        5300.0,
        5305.0,
        5310.0,
        5315.0,
        5320.0,
        5325.0,
        5330.0,
        5335.0,
        5340.0,
        5345.0,
        5350.0,
        5355.0,
        5360.0,
        5365.0,
        5370.0,
        5375.0,
        5380.0,
        5385.0,
        5390.0,
        5395.0,
        5400.0,
        5405.0,
        5410.0,
        5415.0,
        5420.0,
        5425.0,
        5430.0,
        5435.0,
        5440.0,
        5445.0,
        5450.0,
        5455.0,
        5460.0,
        5465.0,
        5470.0,
        5475.0,
        5480.0,
        5485.0,
        5490.0,
        5495.0,
        5500.0,
        5505.0,
        5510.0,
        5515.0,
        5520.0,
        5525.0,
        5530.0,
        5535.0,
        5540.0,
        5545.0,
        5550.0,
        5555.0,
        5560.0,
        5565.0,
        5570.0,
        5575.0,
        5580.0,
        5585.0,
        5590.0,
        5595.0,
        5600.0,
        5605.0,
        5610.0,
        5615.0,
        5620.0,
        5625.0,
        5630.0,
        5635.0,
        5640.0,
        5645.0,
        5650.0,
        5655.0,
        5660.0,
        5665.0,
        5670.0,
        5675.0,
        5680.0,
        5685.0,
        5690.0,
        5695.0,
        5700.0,
        5705.0,
        5710.0,
        5715.0,
        5720.0,
        5725.0,
        5730.0,
        5735.0,
        5740.0,
        5745.0,
        5750.0,
        5755.0,
        5760.0,
        5765.0,
        5770.0,
        5775.0,
        5780.0,
        5785.0,
        5790.0,
        5795.0,
        5800.0,
        5805.0,
        5810.0,
        5815.0,
        5820.0,
        5825.0,
        5830.0,
        5835.0,
        5840.0,
        5845.0,
        5850.0,
        5855.0,
        5860.0,
        5865.0,
        5870.0,
        5875.0,
        5880.0,
        5885.0,
        5890.0,
        5895.0,
        5900.0,
        5905.0,
        5910.0,
        5915.0,
        5920.0,
        5925.0,
        5930.0,
        5935.0,
        5940.0,
        5945.0,
        5950.0,
        5955.0,
        5960.0,
        5965.0,
        5970.0,
        5975.0,
        5980.0,
        5985.0,
        5990.0,
        5995.0,
        6000.0,
        6005.0,
        6010.0,
        6015.0,
        6020.0,
        6025.0,
        6030.0,
        6035.0,
        6040.0,
        6045.0,
        6050.0,
        6055.0,
        6060.0,
        6065.0,
        6070.0,
        6075.0,
        6080.0,
        6085.0,
        6090.0,
        6095.0,
        6100.0,
        6105.0,
        6110.0,
        6115.0,
        6120.0,
        6125.0,
        6130.0,
        6135.0,
        6140.0,
        6145.0,
        6150.0,
        6155.0,
        6160.0,
        6165.0,
        6170.0,
        6175.0,
        6180.0,
        6185.0,
        6190.0,
        6195.0,
        6200.0,
        6205.0,
        6210.0,
        6215.0,
        6220.0,
        6225.0,
        6230.0,
        6235.0,
        6240.0,
        6245.0,
        6250.0,
        6255.0,
        6260.0,
        6265.0,
        6270.0,
        6275.0,
        6280.0,
        6285.0,
        6290.0,
        6295.0,
        6300.0,
        6305.0,
        6310.0,
        6315.0,
        6320.0,
        6325.0,
        6330.0,
        6335.0,
        6340.0,
        6345.0,
        6350.0,
        6355.0,
        6360.0,
        6365.0,
        6370.0,
        6375.0,
        6380.0,
        6385.0,
        6390.0,
        6395.0,
        6400.0,
        6405.0,
        6410.0,
        6415.0,
        6420.0,
        6425.0,
        6430.0,
        6435.0,
        6440.0,
        6445.0,
        6450.0,
        6455.0,
        6460.0,
        6465.0,
        6470.0,
        6475.0,
        6480.0,
        6485.0,
        6490.0,
        6495.0,
        6500.0,
        6505.0,
        6510.0,
        6515.0,
        6520.0,
        6525.0,
        6530.0,
        6535.0,
        6540.0,
        6545.0,
        6550.0,
        6555.0,
        6560.0,
        6565.0,
        6570.0,
        6575.0,
        6580.0,
        6585.0,
        6590.0,
        6595.0,
        6600.0,
        6605.0,
        6610.0,
        6615.0,
        6620.0,
        6625.0,
        6630.0,
        6635.0,
        6640.0,
        6645.0,
        6650.0,
        6655.0,
        6660.0,
        6665.0,
        6670.0,
        6675.0,
        6680.0,
        6685.0,
        6690.0,
        6695.0,
        6700.0,
        6705.0,
        6710.0,
        6715.0,
        6720.0,
        6725.0,
        6730.0,
        6735.0,
        6740.0,
        6745.0,
        6750.0,
        6755.0,
        6760.0,
        6765.0,
        6770.0,
        6775.0,
        6780.0,
        6785.0,
        6790.0,
        6795.0,
        6800.0,
        6805.0,
        6810.0,
        6815.0,
        6820.0,
        6825.0,
        6830.0,
        6835.0,
        6840.0,
        6845.0,
        6850.0,
        6855.0,
        6860.0,
        6865.0,
        6870.0,
        6875.0,
        6880.0,
        6885.0,
        6890.0,
        6895.0,
        6900.0,
        6905.0,
        6910.0,
        6915.0,
        6920.0,
        6925.0,
        6930.0,
        6935.0,
        6940.0,
        6945.0,
        6950.0,
        6955.0,
        6960.0,
        6965.0,
        6970.0,
        6975.0,
        6980.0,
        6985.0,
        6990.0,
        6995.0,
        7000.0,
        7005.0,
        7010.0,
        7015.0,
        7020.0,
        7025.0,
        7030.0,
        7035.0,
        7040.0,
        7045.0,
        7050.0,
        7055.0,
        7060.0,
        7065.0,
        7070.0,
        7075.0,
        7080.0,
        7085.0,
        7090.0,
        7095.0,
        7100.0,
        7105.0,
        7110.0,
        7115.0,
        7120.0,
        7125.0,
        7130.0,
        7135.0,
        7140.0,
        7145.0,
        7150.0,
        7155.0,
        7160.0,
        7165.0,
        7170.0,
        7175.0,
        7180.0,
        7185.0,
        7190.0,
        7195.0,
        7200.0,
        7205.0,
        7210.0,
        7215.0,
        7220.0,
        7225.0,
        7230.0,
        7235.0,
        7240.0,
        7245.0,
        7250.0,
        7255.0,
        7260.0,
        7265.0,
        7270.0,
        7275.0,
        7280.0,
        7285.0,
        7290.0,
        7295.0,
        7300.0,
        7305.0,
        7310.0,
        7315.0,
        7320.0,
        7325.0,
        7330.0,
        7335.0,
        7340.0,
        7345.0,
        7350.0,
        7355.0,
        7360.0,
        7365.0,
        7370.0,
        7375.0,
        7380.0,
        7385.0,
        7390.0,
        7395.0,
        7400.0,
        7405.0,
        7410.0,
        7415.0,
        7420.0,
        7425.0,
        7430.0,
        7435.0,
        7440.0,
        7445.0,
        7450.0,
        7455.0,
        7460.0,
        7465.0,
        7470.0,
        7475.0,
        7480.0,
        7485.0,
        7490.0,
        7495.0,
        7500.0,
        7505.0,
        7510.0,
        7515.0,
        7520.0,
        7525.0,
        7530.0,
        7535.0,
        7540.0,
        7545.0,
        7550.0,
        7555.0,
        7560.0,
        7565.0,
        7570.0,
        7575.0,
        7580.0,
        7585.0,
        7590.0,
        7595.0,
        7600.0,
        7605.0,
        7610.0,
        7615.0,
        7620.0,
        7625.0,
        7630.0,
        7635.0,
        7640.0,
        7645.0,
        7650.0,
        7655.0,
        7660.0,
        7665.0,
        7670.0,
        7675.0,
        7680.0,
        7685.0,
        7690.0,
        7695.0,
        7700.0,
        7705.0,
        7710.0,
        7715.0,
        7720.0,
        7725.0,
        7730.0,
        7735.0,
        7740.0,
        7745.0,
        7750.0,
        7755.0,
        7760.0,
        7765.0,
        7770.0,
        7775.0,
        7780.0,
        7785.0,
        7790.0,
        7795.0,
        7800.0,
        7805.0,
        7810.0,
        7815.0,
        7820.0,
        7825.0,
        7830.0,
        7835.0,
        7840.0,
        7845.0,
        7850.0,
        7855.0,
        7860.0,
        7865.0,
        7870.0,
        7875.0,
        7880.0,
        7885.0,
        7890.0,
        7895.0,
        7900.0,
        7905.0,
        7910.0,
        7915.0,
        7920.0,
        7925.0,
        7930.0,
        7935.0,
        7940.0,
        7945.0,
        7950.0,
        7955.0,
        7960.0,
        7965.0,
        7970.0,
        7975.0,
        7980.0,
        7985.0,
        7990.0,
        7995.0,
        8000.0,
        8005.0,
        8010.0,
        8015.0,
        8020.0,
        8025.0,
        8030.0,
        8035.0,
        8040.0,
        8045.0,
        8050.0,
        8055.0,
        8060.0,
        8065.0,
        8070.0,
        8075.0,
        8080.0,
        8085.0,
        8090.0,
        8095.0,
        8100.0,
        8105.0,
        8110.0,
        8115.0,
        8120.0,
        8125.0,
        8130.0,
        8135.0,
        8140.0,
        8145.0,
        8150.0,
        8155.0,
        8160.0,
        8165.0,
        8170.0,
        8175.0,
        8180.0,
        8185.0,
        8190.0,
        8195.0,
        8200.0,
        8205.0,
        8210.0,
        8215.0,
        8220.0,
        8225.0,
        8230.0,
        8235.0,
        8240.0,
        8245.0,
        8250.0,
        8255.0,
        8260.0,
        8265.0,
        8270.0,
        8275.0,
        8280.0,
        8285.0,
        8290.0,
        8295.0,
        8300.0,
        8305.0,
        8310.0,
        8315.0,
        8320.0,
        8325.0,
        8330.0,
        8335.0,
        8340.0,
        8345.0,
        8350.0,
        8355.0,
        8360.0,
        8365.0,
        8370.0,
        8375.0,
        8380.0,
        8385.0,
        8390.0,
        8395.0,
        8400.0,
        8405.0,
        8410.0,
        8415.0,
        8420.0,
        8425.0,
        8430.0,
        8435.0,
        8440.0,
        8445.0,
        8450.0,
        8455.0,
        8460.0,
        8465.0,
        8470.0,
        8475.0,
        8480.0,
        8485.0,
        8490.0,
        8495.0,
        8500.0,
        8505.0,
        8510.0,
        8515.0,
        8520.0,
        8525.0,
        8530.0,
        8535.0,
        8540.0,
        8545.0,
        8550.0,
        8555.0,
        8560.0,
        8565.0,
        8570.0,
        8575.0,
        8580.0,
        8585.0,
        8590.0,
        8595.0,
        8600.0,
        8605.0,
        8610.0,
        8615.0,
        8620.0,
        8625.0,
        8630.0,
        8635.0,
        8640.0,
        8645.0,
        8650.0,
        8655.0,
        8660.0,
        8665.0,
        8670.0,
        8675.0,
        8680.0,
        8685.0,
        8690.0,
        8695.0,
        8700.0,
        8705.0,
        8710.0,
        8715.0,
        8720.0,
        8725.0,
        8730.0,
        8735.0,
        8740.0,
        8745.0,
        8750.0,
        8755.0,
        8760.0,
        8765.0,
        8770.0,
        8775.0,
        8780.0,
        8785.0,
        8790.0,
        8795.0,
        8800.0,
        8805.0,
        8810.0,
        8815.0,
        8820.0,
        8825.0,
        8830.0,
        8835.0,
        8840.0,
        8845.0,
        8850.0,
        8855.0,
        8860.0,
        8865.0,
        8870.0,
        8875.0,
        8880.0,
        8885.0,
        8890.0,
        8895.0,
        8900.0,
        8905.0,
        8910.0,
        8915.0,
        8920.0,
        8925.0,
        8930.0,
        8935.0,
        8940.0,
        8945.0,
        8950.0,
        8955.0,
        8960.0,
        8965.0,
        8970.0,
        8975.0,
        8980.0,
        8985.0,
        8990.0,
        8995.0,
        9000.0,
        9005.0,
        9010.0,
        9015.0,
        9020.0,
        9025.0,
        9030.0,
        9035.0,
        9040.0,
        9045.0,
        9050.0,
        9055.0,
        9060.0,
        9065.0,
        9070.0,
        9075.0,
        9080.0,
        9085.0,
        9090.0,
        9095.0,
        9100.0,
        9105.0,
        9110.0,
        9115.0,
        9120.0,
        9125.0,
        9130.0,
        9135.0,
        9140.0,
        9145.0,
        9150.0,
        9155.0,
        9160.0,
        9165.0,
        9170.0,
        9175.0,
        9180.0,
        9185.0,
        9190.0,
        9195.0,
        9200.0,
        9205.0,
        9210.0,
        9215.0,
        9220.0,
        9225.0,
        9230.0,
        9235.0,
        9240.0,
        9245.0,
        9250.0,
        9255.0,
        9260.0,
        9265.0,
        9270.0,
        9275.0,
        9280.0,
        9285.0,
        9290.0,
        9295.0,
        9300.0,
        9305.0,
        9310.0,
        9315.0,
        9320.0,
        9325.0,
        9330.0,
        9335.0,
        9340.0,
        9345.0,
        9350.0,
        9355.0,
        9360.0,
        9365.0,
        9370.0,
        9375.0,
        9380.0,
        9385.0,
        9390.0,
        9395.0,
        9400.0,
        9405.0,
        9410.0,
        9415.0,
        9420.0,
        9425.0,
        9430.0,
        9435.0,
        9440.0,
        9445.0,
        9450.0,
        9455.0,
        9460.0,
        9465.0,
        9470.0,
        9475.0,
        9480.0,
        9485.0,
        9490.0,
        9495.0,
        9500.0,
        9505.0,
        9510.0,
        9515.0,
        9520.0,
        9525.0,
        9530.0,
        9535.0,
        9540.0,
        9545.0,
        9550.0,
        9555.0,
        9560.0,
        9565.0,
        9570.0,
        9575.0,
        9580.0,
        9585.0,
        9590.0,
        9595.0,
        9600.0,
        9605.0,
        9610.0,
        9615.0,
        9620.0,
        9625.0,
        9630.0,
        9635.0,
        9640.0,
        9645.0,
        9650.0,
        9655.0,
        9660.0,
        9665.0,
        9670.0,
        9675.0,
        9680.0,
        9685.0,
        9690.0,
        9695.0,
        9700.0,
        9705.0,
        9710.0,
        9715.0,
        9720.0,
        9725.0,
        9730.0,
        9735.0,
        9740.0,
        9745.0,
        9750.0,
        9755.0,
        9760.0,
        9765.0,
        9770.0,
        9775.0,
        9780.0,
        9785.0,
        9790.0,
        9795.0,
        9800.0,
        9805.0,
        9810.0,
        9815.0,
        9820.0,
        9825.0,
        9830.0,
        9835.0,
        9840.0,
        9845.0,
        9850.0,
        9855.0,
        9860.0,
        9865.0,
        9870.0,
        9875.0,
        9880.0,
        9885.0,
        9890.0,
        9895.0,
        9900.0,
        9905.0,
        9910.0,
        9915.0,
        9920.0,
        9925.0,
        9930.0,
        9935.0,
        9940.0,
        9945.0,
        9950.0,
        9955.0,
        9960.0,
        9965.0,
        9970.0,
        9975.0,
        9980.0,
        9985.0,
        9990.0,
        9995.0,
        10000.0,
        10005.0,
        10010.0,
        10015.0,
        10020.0,
        10025.0,
        10030.0,
        10035.0,
        10040.0,
        10045.0,
        10050.0,
        10055.0,
        10060.0,
        10065.0,
        10070.0,
        10075.0,
        10080.0,
        10085.0,
        10090.0,
        10095.0,
        10100.0,
        10105.0,
        10110.0,
        10115.0,
        10120.0,
        10125.0,
        10130.0,
        10135.0,
        10140.0,
        10145.0,
        10150.0,
        10155.0,
        10160.0,
        10165.0,
        10170.0,
        10175.0,
        10180.0,
        10185.0,
        10190.0,
        10195.0,
        10200.0,
        10205.0,
        10210.0,
        10215.0,
        10220.0,
        10225.0,
        10230.0,
        10235.0,
        10240.0,
        10245.0,
        10250.0,
        10255.0,
        10260.0,
        10265.0,
        10270.0,
        10275.0,
        10280.0,
        10285.0,
        10290.0,
        10295.0,
        10300.0,
        10305.0,
        10310.0,
        10315.0,
        10320.0,
        10325.0,
        10330.0,
        10335.0,
        10340.0,
        10345.0,
        10350.0,
        10355.0,
        10360.0,
        10365.0,
        10370.0,
        10375.0,
        10380.0,
        10385.0,
        10390.0,
        10395.0,
        10400.0,
        10405.0,
        10410.0,
        10415.0,
        10420.0,
        10425.0,
        10430.0,
        10435.0,
        10440.0,
        10445.0,
        10450.0,
        10455.0,
        10460.0,
        10465.0,
        10470.0,
        10475.0,
        10480.0,
        10485.0,
        10490.0,
        10495.0,
        10500.0
      ],
      "units":"angstrom"
    },
    "values":{
      "value":[
        42.407425,
        33.094707,
        28.105522,
        25.259573,
        23.153645,
        24.109468,
        24.31525,
        21.637413,
        15.523624,
        15.515518,
        14.822867,
        9.351143,
        3.558274,
        1.119698,
        3.599699,
        7.804561,
        7.713953,
        11.432046,
        27.092165,
        34.812096,
        28.976881,
        26.714216,
        27.774818,
        28.833733,
        30.116142,
        30.850407,
        30.438484,
        31.034836,
        31.457289,
        30.977301,
        29.491348,
        30.492313,
        32.370758,
        31.232496,
        29.531504,
        31.091269,
        31.309933,
        28.186846,
        26.719275,
        27.371384,
        28.054155,
        27.318346,
        26.515944,
        26.669899,
        26.033829,
        24.476685,
        21.890242,
        18.727989,
        19.659313,
        24.3125,
        29.305035,
        30.045202,
        26.677095,
        24.274874,
        24.378708,
        23.134026,
        23.735548,
        25.449806,
        24.470655,
        23.394642,
        22.774652,
        21.742226,
        21.503277,
        22.600733,
        23.983444,
        25.212008,
        26.115294,
        27.164072,
        28.0959,
        27.201332,
        24.50246,
        24.986588,
        26.657597,
        25.79269,
        24.660095,
        22.055025,
        19.058975,
        12.369664,
        7.832278,
        10.71628,
        21.291166,
        26.845823,
        22.731327,
        20.181852,
        20.239647,
        21.018057,
        20.371601,
        20.612638,
        20.629747,
        20.012148,
        18.424767,
        17.089897,
        16.416096,
        17.1071,
        17.167007,
        16.714413,
        16.258451,
        16.23147,
        16.311426,
        17.47019,
        18.16328,
        17.045876,
        16.717417,
        17.536158,
        17.893839,
        18.170853,
        19.636587,
        19.329304,
        18.207499,
        17.579361,
        17.296461,
        17.073406,
        16.228642,
        14.57641,
        14.694257,
        16.128902,
        17.354851,
        18.100166,
        17.262835,
        17.571491,
        17.757542,
        17.627384,
        18.55151,
        18.153305,
        17.65308,
        17.451771,
        17.611177,
        15.857885,
        11.025812,
        14.250124,
        16.412931,
        15.958702,
        15.565578,
        16.046961,
        16.934723,
        16.506197,
        16.148693,
        16.109179,
        15.945634,
        15.622842,
        15.041477,
        14.362033,
        14.39885,
        14.592279,
        14.083439,
        13.912041,
        14.302147,
        14.013246,
        13.895707,
        13.668299,
        13.240902,
        12.703928,
        12.442489,
        12.411217,
        11.87457,
        11.515812,
        11.953981,
        11.912534,
        11.673103,
        11.375293,
        11.494267,
        11.48178,
        10.681927,
        10.247885,
        10.701011,
        10.744381,
        10.093458,
        10.191929,
        9.344323,
        8.341738,
        9.144217,
        9.708358,
        9.695713,
        9.527818,
        8.556144,
        7.997608,
        8.014608,
        8.009953,
        7.640467,
        7.274504,
        6.317981,
        6.771051,
        6.659698,
        6.485349,
        6.37447,
        7.166002,
        6.782075,
        6.262462,
        5.954296,
        5.619604,
        6.125531,
        6.336325,
        5.997372,
        5.353892,
        5.200162,
        5.744336,
        5.709845,
        5.25242,
        4.79767,
        4.715477,
        4.370546,
        5.08949,
        4.736445,
        4.30562,
        4.169085,
        3.422689,
        3.43627,
        4.023036,
        4.458323,
        4.727329,
        4.794919,
        4.528313,
        4.066381,
        3.670109,
        3.90031,
        4.861063,
        4.326349,
        4.458086,
        4.09784,
        4.197453,
        5.582845,
        5.365613,
        4.626154,
        5.224051,
        5.072331,
        4.741222,
        4.778829,
        4.840281,
        5.110814,
        5.337291,
        5.399147,
        5.615145,
        6.008114,
        5.867641,
        5.904644,
        5.971664,
        6.838138,
        6.820606,
        6.796342,
        7.375274,
        7.462484,
        6.917085,
        6.625106,
        6.100817,
        6.894687,
        7.084087,
        7.410023,
        7.12703,
        6.139491,
        7.055869,
        7.765903,
        6.787018,
        6.248712,
        6.389081,
        6.740257,
        7.233955,
        7.419565,
        7.069197,
        7.098455,
        8.025084,
        7.706199,
        7.881846,
        8.873337,
        8.579753,
        8.37639,
        8.487758,
        8.291384,
        8.291246,
        7.262856,
        7.462488,
        8.557685,
        8.488048,
        7.919848,
        7.671072,
        7.561963,
        8.208413,
        8.272217,
        8.421222,
        8.493572,
        8.702281,
        8.818415,
        8.452409,
        8.449559,
        8.869862,
        8.773855,
        8.231565,
        7.014668,
        7.23888,
        7.941204,
        8.124684,
        7.978357,
        8.324503,
        9.035596,
        8.915917,
        8.785262,
        8.296761,
        8.578389,
        8.869298,
        8.237402,
        8.297419,
        8.485655,
        8.470433,
        7.857729,
        8.124451,
        8.089087,
        8.257996,
        8.195713,
        8.308826,
        8.356392,
        8.247478,
        8.187602,
        8.395635,
        8.335655,
        8.506427,
        8.435304,
        8.297269,
        8.18454,
        7.812904,
        7.688029,
        7.934096,
        8.003583,
        7.693751,
        7.680161,
        7.810261,
        7.617052,
        8.287591,
        8.367759,
        8.308491,
        8.467141,
        8.136704,
        7.775493,
        7.808554,
        7.756246,
        8.285589,
        8.891314,
        8.379792,
        7.550437,
        7.605997,
        8.330362,
        8.557723,
        8.545989,
        8.169869,
        8.248257,
        8.357473,
        8.299275,
        8.300476,
        8.449086,
        8.345662,
        8.629553,
        8.451286,
        8.074205,
        8.097342,
        8.428379,
        8.387275,
        7.97079,
        7.790362,
        7.900084,
        8.349111,
        8.156556,
        7.991913,
        8.017221,
        8.286983,
        8.403189,
        7.944617,
        7.859673,
        7.926118,
        8.053806,
        7.84818,
        7.794253,
        7.621831,
        7.651678,
        7.62146,
        7.57554,
        7.295222,
        7.586408,
        7.527031,
        7.139586,
        7.231963,
        7.55803,
        7.698891,
        7.827047,
        7.738121,
        7.361306,
        7.078155,
        7.202114,
        7.16022,
        7.466287,
        7.634934,
        7.855844,
        8.045078,
        7.807221,
        7.746077,
        7.326547,
        7.054332,
        6.77766,
        7.40625,
        7.976314,
        8.173423,
        8.173329,
        7.870514,
        7.834916,
        7.102836,
        6.711923,
        7.02916,
        8.173374,
        7.705692,
        7.086802,
        7.055284,
        7.023603,
        6.991781,
        6.959835,
        6.927795,
        6.895733,
        6.863729,
        6.831867,
        6.800225,
        6.768887,
        6.737935,
        6.707448,
        6.677509,
        6.6482,
        6.619551,
        6.591393,
        6.563506,
        6.535668,
        6.507659,
        6.479259,
        6.450248,
        6.420405,
        6.38951,
        6.357341,
        6.323767,
        6.289001,
        6.253345,
        6.217101,
        6.180569,
        6.144052,
        6.10785,
        6.072266,
        6.037601,
        6.004156,
        5.972142,
        5.941414,
        5.911732,
        5.882858,
        5.854556,
        5.826587,
        5.798715,
        5.770701,
        5.742308,
        5.713297,
        5.683497,
        5.652993,
        5.621934,
        5.590473,
        5.558759,
        5.526943,
        5.495174,
        5.463605,
        5.432384,
        5.401663,
        5.371558,
        5.342051,
        5.313087,
        5.284616,
        5.256586,
        5.228942,
        5.201634,
        5.174607,
        5.147811,
        5.121192,
        5.094706,
        4.989414,
        4.985306,
        4.952553,
        4.954184,
        4.892676,
        4.845538,
        4.814007,
        4.587391,
        4.764397,
        4.71718,
        4.712489,
        4.710567,
        4.498705,
        4.648416,
        4.576401,
        4.51788,
        4.542076,
        4.517005,
        4.496761,
        4.525572,
        4.532762,
        4.523765,
        4.495307,
        4.440233,
        4.4058,
        4.410686,
        4.477422,
        4.48555,
        4.462698,
        4.469739,
        4.451706,
        4.393899,
        4.357759,
        4.347364,
        4.342082,
        4.330791,
        4.264448,
        4.218603,
        4.161879,
        4.114015,
        4.118319,
        4.15487,
        4.15338,
        4.170592,
        4.188214,
        4.189288,
        4.306595,
        4.209097,
        4.026992,
        3.962586,
        3.989812,
        4.010306,
        3.909907,
        4.108999,
        4.335312,
        4.337678,
        4.071712,
        3.802136,
        3.978751,
        4.225565,
        4.214251,
        4.149306,
        4.08527,
        4.068363,
        3.919586,
        3.722685,
        3.938784,
        4.158281,
        4.187984,
        4.162157,
        4.109375,
        4.067517,
        4.077858,
        4.024016,
        3.882699,
        3.597227,
        3.511724,
        3.789827,
        3.926458,
        3.975184,
        3.949728,
        3.905879,
        3.852573,
        3.841339,
        3.773357,
        3.781025,
        3.873202,
        3.828063,
        3.792201,
        3.723078,
        3.54107,
        3.255591,
        3.105763,
        3.391574,
        3.546606,
        3.619766,
        3.628308,
        3.611261,
        3.580331,
        3.52662,
        3.522656,
        3.512,
        3.423447,
        3.304236,
        3.364967,
        3.435334,
        3.4437,
        3.435549,
        3.39677,
        3.386131,
        3.395542,
        3.323464,
        3.251117,
        3.259472,
        3.261627,
        3.192139,
        3.10598,
        2.922164,
        2.699117,
        2.82761,
        3.056653,
        3.105893,
        3.120809,
        3.148464,
        3.15654,
        3.139805,
        3.090679,
        3.072163,
        3.054594,
        3.042259,
        3.01564,
        3.006965,
        3.030215,
        3.006694,
        2.940435,
        2.906496,
        2.887858,
        2.813051,
        2.772576,
        2.800559,
        2.831593,
        2.828809,
        2.808895,
        2.78994,
        2.78972,
        2.783812,
        2.776886,
        2.7644,
        2.729134,
        2.687893,
        2.669616,
        2.650532,
        2.644094,
        2.643003,
        2.630312,
        2.623858,
        2.628168,
        2.669662,
        2.65712,
        2.647848,
        2.628818,
        2.598858,
        2.585913,
        2.566941,
        2.515566,
        2.345432,
        2.201079,
        2.32141,
        2.485625,
        2.561296,
        2.534755,
        2.513844,
        2.503875,
        2.494794,
        2.463,
        2.422601,
        2.412377,
        2.448491,
        2.449084,
        2.421753,
        2.384278,
        2.352483,
        2.322208,
        2.244542,
        2.212145,
        2.227051,
        2.285049,
        2.29181,
        2.298637,
        2.303937,
        2.286427,
        2.186984,
        2.097487,
        2.161899,
        2.22643,
        2.253192,
        2.251184,
        2.237247,
        2.227112,
        2.215672,
        2.20046,
        2.189641,
        2.188255,
        2.184676,
        2.15826,
        2.12858,
        2.067645,
        2.069376,
        2.098336,
        2.111652,
        2.111723,
        2.101775,
        2.102861,
        2.09061,
        2.087127,
        2.067857,
        2.045314,
        2.036406,
        2.009452,
        2.039368,
        2.031265,
        2.029106,
        2.030251,
        2.019481,
        2.009394,
        2.00669,
        1.983603,
        1.919982,
        1.882302,
        1.925515,
        1.953106,
        1.953605,
        1.942371,
        1.926558,
        1.902481,
        1.851681,
        1.861331,
        1.884487,
        1.869841,
        1.857101,
        1.829067,
        1.824006,
        1.831965,
        1.824048,
        1.819794,
        1.81421,
        1.809721,
        1.807919,
        1.794919,
        1.777269,
        1.754363,
        1.744872,
        1.743762,
        1.736354,
        1.695415,
        1.718435,
        1.718146,
        1.706355,
        1.68326,
        1.707292,
        1.707195,
        1.70787,
        1.696245,
        1.682852,
        1.680809,
        1.688756,
        1.683827,
        1.660887,
        1.616027,
        1.490948,
        1.356238,
        1.424238,
        1.545151,
        1.578952,
        1.580454,
        1.580222,
        1.582578,
        1.579663,
        1.57647,
        1.579623,
        1.592057,
        1.575336,
        1.531277,
        1.540217,
        1.574607,
        1.575042,
        1.56629,
        1.566997,
        1.56493,
        1.551194,
        1.53785,
        1.523201,
        1.518201,
        1.514381,
        1.504081,
        1.504743,
        1.504411,
        1.492887,
        1.472829,
        1.464388,
        1.447625,
        1.426016,
        1.439364,
        1.441981,
        1.440934,
        1.438883,
        1.427787,
        1.417882,
        1.415451,
        1.415927,
        1.409982,
        1.405858,
        1.400837,
        1.393039,
        1.383758,
        1.376965,
        1.379649,
        1.38127,
        1.372902,
        1.361395,
        1.355058,
        1.356481,
        1.356247,
        1.346229,
        1.338873,
        1.339241,
        1.336807,
        1.333591,
        1.329121,
        1.320772,
        1.308782,
        1.309414,
        1.306218,
        1.307614,
        1.304823,
        1.29974,
        1.296907,
        1.29385,
        1.286732,
        1.278744,
        1.270791,
        1.264469,
        1.258126,
        1.254299,
        1.253359,
        1.24946,
        1.237261,
        1.233095,
        1.225415,
        1.220672,
        1.216524,
        1.211298,
        1.205667,
        1.200365,
        1.193318,
        1.193941,
        1.190577,
        1.180991,
        1.175165,
        1.178442,
        1.1847,
        1.177475,
        1.165712,
        1.158595,
        1.154832,
        1.155111,
        1.14926,
        1.138519,
        1.135854,
        1.131326,
        1.126443,
        1.122658,
        1.120545,
        1.121123,
        1.11564,
        1.110663,
        1.110813,
        1.106103,
        1.097254,
        1.0772,
        1.04976,
        1.056684,
        1.084202,
        1.087761,
        1.088803,
        1.086978,
        1.079787,
        1.072835,
        1.067839,
        1.068168,
        1.067339,
        1.062818,
        1.063068,
        1.060378,
        1.050921,
        1.040113,
        1.040828,
        1.045653,
        1.041873,
        1.033264,
        1.02781,
        1.030755,
        1.022253,
        1.018086,
        1.016505,
        1.01455,
        1.012146,
        1.00945,
        1.006817,
        1.006289,
        1.004685,
        1.000684,
        0.99065,
        0.989376,
        0.988209,
        0.980862,
        0.965418,
        0.958666,
        0.969442,
        0.968958,
        0.963542,
        0.958079,
        0.95619,
        0.953693,
        0.949226,
        0.945907,
        0.944929,
        0.943787,
        0.940015,
        0.935019,
        0.92937,
        0.920804,
        0.910712,
        0.911659,
        0.912565,
        0.914409,
        0.91277,
        0.915435,
        0.904302,
        0.889619,
        0.891894,
        0.895658,
        0.888346,
        0.87954,
        0.877652,
        0.87513,
        0.868898,
        0.867199,
        0.86777,
        0.867169,
        0.865944,
        0.857633,
        0.849499,
        0.834978,
        0.813332,
        0.821682,
        0.829647,
        0.816737,
        0.807533,
        0.814803,
        0.816887,
        0.821173,
        0.82995,
        0.828165,
        0.827274,
        0.829501,
        0.825728,
        0.820778,
        0.820218,
        0.819424,
        0.818108,
        0.809967,
        0.777838,
        0.743201,
        0.770571,
        0.762355,
        0.711341,
        0.713916,
        0.757448,
        0.784392,
        0.78576,
        0.781123,
        0.776172,
        0.773332,
        0.776181,
        0.773256,
        0.762681,
        0.753713,
        0.750153,
        0.750087,
        0.750696,
        0.752553,
        0.748783,
        0.744445,
        0.740908,
        0.737592,
        0.736851,
        0.736292,
        0.732811,
        0.727561,
        0.725053,
        0.724484,
        0.721428,
        0.72695,
        0.719909,
        0.715512,
        0.705402,
        0.709402,
        0.708594,
        0.705244,
        0.704797,
        0.698744,
        0.696781,
        0.696369,
        0.69365,
        0.693172,
        0.691845,
        0.687695,
        0.68551,
        0.684932,
        0.683539,
        0.690204,
        0.678895,
        0.676189,
        0.673263,
        0.67053,
        0.669248,
        0.669082,
        0.668777,
        0.667629,
        0.664065,
        0.657914,
        0.650039,
        0.647534,
        0.651155,
        0.648719,
        0.646817,
        0.646212,
        0.643173,
        0.640349,
        0.641004,
        0.640402,
        0.63957,
        0.638652,
        0.634974,
        0.631273,
        0.632189,
        0.633628,
        0.634223,
        0.632916,
        0.629845,
        0.618278,
        0.613573,
        0.599996,
        0.57815,
        0.582139,
        0.600346,
        0.607724,
        0.607981,
        0.602872,
        0.598158,
        0.597668,
        0.598818,
        0.600736,
        0.600833,
        0.600237,
        0.597285,
        0.59518,
        0.593548,
        0.590622,
        0.588736,
        0.587092,
        0.584162,
        0.580838,
        0.579431,
        0.579664,
        0.580413,
        0.579637,
        0.572899,
        0.569246,
        0.568412,
        0.568842,
        0.568508,
        0.567213,
        0.567782,
        0.567374,
        0.564121,
        0.560484,
        0.558419,
        0.558512,
        0.558188,
        0.553225,
        0.551267,
        0.550265,
        0.548804,
        0.545748,
        0.544672,
        0.545705,
        0.547854,
        0.548668,
        0.549239,
        0.544591,
        0.54117,
        0.537228,
        0.534881,
        0.537392,
        0.537574,
        0.533731,
        0.525865,
        0.501563,
        0.462471,
        0.463864,
        0.505578,
        0.523878,
        0.527469,
        0.527442,
        0.525597,
        0.524684,
        0.525653,
        0.524245,
        0.518733,
        0.51656,
        0.518545,
        0.519442,
        0.515884,
        0.511999,
        0.508803,
        0.508153,
        0.506108,
        0.502868,
        0.50114,
        0.498581,
        0.490828,
        0.473147,
        0.467003,
        0.480812,
        0.489163,
        0.492254,
        0.488921,
        0.489271,
        0.488365,
        0.487138,
        0.487613,
        0.485974,
        0.48366,
        0.481575,
        0.478302,
        0.477723,
        0.47743,
        0.473634,
        0.471816,
        0.472361,
        0.47138,
        0.46826,
        0.467043,
        0.467558,
        0.466745,
        0.46553,
        0.465121,
        0.463335,
        0.461471,
        0.46054,
        0.458237,
        0.457231,
        0.456825,
        0.455742,
        0.451554,
        0.45041,
        0.449258,
        0.448085,
        0.44692,
        0.445765,
        0.444605,
        0.443413,
        0.442274,
        0.441125,
        0.440004,
        0.438878,
        0.437751,
        0.436633,
        0.43552,
        0.434429,
        0.433366,
        0.432335,
        0.431348,
        0.430309,
        0.42936,
        0.428364,
        0.427317,
        0.426267,
        0.425228,
        0.424203,
        0.423261,
        0.426941,
        0.424157,
        0.419816,
        0.415632,
        0.415781,
        0.41549,
        0.415934,
        0.414834,
        0.412935,
        0.411753,
        0.409765,
        0.409083,
        0.410001,
        0.409211,
        0.407314,
        0.405014,
        0.402838,
        0.391406,
        0.377899,
        0.390423,
        0.400009,
        0.399232,
        0.399299,
        0.399929,
        0.398271,
        0.396036,
        0.393918,
        0.394129,
        0.394714,
        0.393492,
        0.392222,
        0.390437,
        0.390091,
        0.388652,
        0.388377,
        0.387668,
        0.388079,
        0.384948,
        0.379559,
        0.373234,
        0.365642,
        0.362077,
        0.360272,
        0.362242,
        0.364839,
        0.363772,
        0.366246,
        0.372659,
        0.375175,
        0.374858,
        0.371047,
        0.366656,
        0.361567,
        0.360855,
        0.359961,
        0.358625,
        0.358067,
        0.358908,
        0.357525,
        0.356554,
        0.35004,
        0.349346,
        0.351482,
        0.349838,
        0.350797,
        0.35077,
        0.348173,
        0.348345,
        0.346536,
        0.347183,
        0.347446,
        0.34458,
        0.343737,
        0.344109,
        0.342013,
        0.340367,
        0.341179,
        0.33999,
        0.338009,
        0.337404,
        0.337216,
        0.335835,
        0.335372,
        0.335434,
        0.332722,
        0.331774,
        0.332759,
        0.331849,
        0.330776,
        0.329848,
        0.324437,
        0.323629,
        0.323598,
        0.32395,
        0.322568,
        0.322124,
        0.322251,
        0.321732,
        0.32056,
        0.317707,
        0.317736,
        0.317003,
        0.315756,
        0.314387,
        0.314361,
        0.313607,
        0.312552,
        0.312332,
        0.312011,
        0.310957,
        0.310386,
        0.309057,
        0.30695,
        0.305958,
        0.306758,
        0.305739,
        0.304802,
        0.303884,
        0.302969,
        0.302042,
        0.301121,
        0.300212,
        0.299288,
        0.298373,
        0.297453,
        0.296493,
        0.295537,
        0.29465,
        0.293771,
        0.292895,
        0.292023,
        0.291154,
        0.29029,
        0.289431,
        0.288576,
        0.287725,
        0.286879,
        0.286036,
        0.285195,
        0.284362,
        0.283538,
        0.282711,
        0.281903,
        0.281083,
        0.280267,
        0.279458,
        0.278657,
        0.277828,
        0.276994,
        0.276172,
        0.275318,
        0.274295,
        0.273695,
        0.272985,
        0.272027,
        0.272255,
        0.270999,
        0.27005,
        0.268713,
        0.268418,
        0.267987,
        0.26741,
        0.26835,
        0.267591,
        0.266642,
        0.265942,
        0.265468,
        0.264856,
        0.263759,
        0.263741,
        0.262725,
        0.261568,
        0.261317,
        0.260389,
        0.260298,
        0.260135,
        0.259923,
        0.258243,
        0.256888,
        0.256191,
        0.256591,
        0.254833,
        0.254666,
        0.253989,
        0.252629,
        0.251626,
        0.251668,
        0.25148,
        0.251624,
        0.250431,
        0.24929,
        0.247815,
        0.247819,
        0.247695,
        0.247404,
        0.246785,
        0.245871,
        0.244886,
        0.244443,
        0.243972,
        0.243793,
        0.242454,
        0.242172,
        0.242591,
        0.241895,
        0.239809,
        0.238718,
        0.237484,
        0.237954,
        0.238151,
        0.236461,
        0.236504,
        0.235294,
        0.234733,
        0.234429,
        0.234187,
        0.234655,
        0.234228,
        0.232615,
        0.232103,
        0.232056,
        0.231162,
        0.231074,
        0.231091,
        0.230137,
        0.229315,
        0.229248,
        0.228397,
        0.22788,
        0.227774,
        0.227122,
        0.225323,
        0.224323,
        0.223933,
        0.22313,
        0.222355,
        0.221177,
        0.21971,
        0.218061,
        0.219902,
        0.21933,
        0.218247,
        0.219247,
        0.219355,
        0.218129,
        0.219534,
        0.219847,
        0.219666,
        0.218383,
        0.216483,
        0.213315,
        0.208601,
        0.21101,
        0.211076,
        0.213689,
        0.214125,
        0.213221,
        0.211837,
        0.211993,
        0.212125,
        0.210432,
        0.209181,
        0.209552,
        0.208138,
        0.207845,
        0.20723,
        0.205691,
        0.204923,
        0.205877,
        0.205766,
        0.204724,
        0.204769,
        0.204249,
        0.204324,
        0.20297,
        0.201955,
        0.201327,
        0.200516,
        0.199771,
        0.200042,
        0.199678,
        0.198858,
        0.19971,
        0.199281,
        0.197246,
        0.195525,
        0.19546,
        0.195931,
        0.195977,
        0.195461,
        0.195902,
        0.19591,
        0.194162,
        0.192134,
        0.192876,
        0.193039,
        0.192682,
        0.192421,
        0.190901,
        0.190242,
        0.190412,
        0.190515,
        0.189939,
        0.189015,
        0.18723,
        0.184976,
        0.185348,
        0.186236,
        0.187427,
        0.187171,
        0.186572,
        0.185398,
        0.184197,
        0.182961,
        0.1815,
        0.181928,
        0.182481,
        0.183863,
        0.184673,
        0.18271,
        0.181843,
        0.180731,
        0.179803,
        0.177629,
        0.175074,
        0.175236,
        0.176629,
        0.178884,
        0.179779,
        0.179769,
        0.179001,
        0.180106,
        0.179311,
        0.176257,
        0.175644,
        0.175582,
        0.17327,
        0.170393,
        0.168352,
        0.169553,
        0.172489,
        0.174041,
        0.174646,
        0.174761,
        0.17409,
        0.175592,
        0.175699,
        0.174596,
        0.174555,
        0.175453,
        0.173477,
        0.171989,
        0.17006,
        0.167243,
        0.164007,
        0.160994,
        0.16323,
        0.16699,
        0.169818,
        0.169989,
        0.167931,
        0.168129,
        0.168004,
        0.168324,
        0.169151,
        0.168779,
        0.170259,
        0.168877,
        0.167477,
        0.168289,
        0.169747,
        0.167258,
        0.166562,
        0.164741,
        0.16251,
        0.1599,
        0.156996,
        0.152614,
        0.15265,
        0.156158,
        0.159427,
        0.162021,
        0.163276,
        0.163502,
        0.163108,
        0.163214,
        0.163311,
        0.16279,
        0.162216,
        0.163054,
        0.160535,
        0.169663,
        0.166161,
        0.16688,
        0.167919,
        0.168107,
        0.165881,
        0.165084,
        0.162805,
        0.162374,
        0.161991,
        0.160519,
        0.158857,
        0.153852,
        0.15419,
        0.153132,
        0.151078,
        0.150099,
        0.144721,
        0.145949,
        0.152094,
        0.154867,
        0.162799,
        0.162856,
        0.163248,
        0.16398,
        0.16222,
        0.158256,
        0.15689,
        0.155416,
        0.157159,
        0.155498,
        0.156419,
        0.154859,
        0.155983,
        0.15761,
        0.155955,
        0.156574,
        0.155211,
        0.152889,
        0.15575,
        0.150479,
        0.149861,
        0.152902,
        0.154114,
        0.152375,
        0.14808,
        0.153261,
        0.153135,
        0.152613,
        0.150181,
        0.146452,
        0.15243,
        0.153269,
        0.150634,
        0.152138,
        0.151201,
        0.151066,
        0.142887,
        0.142881,
        0.139054,
        0.135347,
        0.135647,
        0.138406,
        0.143599,
        0.146684,
        0.148777,
        0.152016,
        0.147684,
        0.152519,
        0.152724,
        0.14972,
        0.150363,
        0.150559,
        0.151414,
        0.14583,
        0.142975,
        0.141321,
        0.13538,
        0.132843,
        0.129557,
        0.131313,
        0.127449,
        0.123624,
        0.120604,
        0.127672,
        0.123506,
        0.127175,
        0.136664,
        0.130387,
        0.133534,
        0.132275,
        0.139715,
        0.148027,
        0.152921,
        0.15074,
        0.150597,
        0.145549,
        0.14415,
        0.141435,
        0.133316,
        0.129013,
        0.13486,
        0.124797,
        0.125015,
        0.138857,
        0.131906,
        0.124558,
        0.131722,
        0.131006,
        0.13345,
        0.13087,
        0.133348,
        0.140674,
        0.123944,
        0.127611,
        0.129058,
        0.14172,
        0.132505,
        0.12531,
        0.124912,
        0.124937,
        0.127459,
        0.122394,
        0.115632,
        0.118184,
        0.117221,
        0.124471,
        0.123257,
        0.12443,
        0.13212,
        0.134404,
        0.131448,
        0.124269,
        0.123794,
        0.13008,
        0.127488,
        0.126645,
        0.127717,
        0.124223,
        0.124727,
        0.126998,
        0.127527,
        0.124433,
        0.125255,
        0.129328,
        0.129722,
        0.118004,
        0.122341,
        0.123619,
        0.127063,
        0.123404,
        0.122656,
        0.127574,
        0.126045,
        0.120926,
        0.125014,
        0.124684,
        0.124655,
        0.124703,
        0.119824,
        0.118968,
        0.120051,
        0.118508,
        0.117908,
        0.117743,
        0.112322,
        0.11619,
        0.11936,
        0.118977,
        0.117086,
        0.115335,
        0.116575,
        0.120187,
        0.118689,
        0.118459,
        0.119678,
        0.117387,
        0.121094,
        0.11383,
        0.117422,
        0.116781,
        0.118512,
        0.117589,
        0.110065,
        0.114038,
        0.113183,
        0.125824,
        0.113245,
        0.110577,
        0.108313,
        0.123249,
        0.116161,
        0.115701,
        0.111534,
        0.115217,
        0.11296,
        0.108252,
        0.107446,
        0.110941,
        0.113089,
        0.108942,
        0.109266,
        0.102069,
        0.117043,
        0.112376,
        0.116347,
        0.093005,
        0.100454,
        0.110489,
        0.109211,
        0.11273,
        0.112499,
        0.115028,
        0.112503,
        0.107171,
        0.109815,
        0.11176,
        0.09922,
        0.104636,
        0.105739,
        0.103727,
        0.100483,
        0.109826,
        0.09657,
        0.101163,
        0.098702,
        0.099368,
        0.099603,
        0.100165,
        0.105414,
        0.102701,
        0.102111,
        0.102928,
        0.117448,
        0.100348,
        0.106894,
        0.107882,
        0.104163,
        0.109977,
        0.106674,
        0.096551,
        0.100787,
        0.103219,
        0.099678,
        0.095951,
        0.10094,
        0.102,
        0.103411,
        0.101632,
        0.102169,
        0.10209,
        0.102012,
        0.101939,
        0.101869,
        0.101801,
        0.10173,
        0.101656,
        0.101576,
        0.101491,
        0.101397,
        0.101294,
        0.101181,
        0.101055,
        0.100916,
        0.100762,
        0.100592,
        0.100407,
        0.100211,
        0.100005,
        0.099791,
        0.099572,
        0.099349,
        0.099126,
        0.098903,
        0.098684,
        0.098289,
        0.098103,
        0.097919,
        0.097736,
        0.097554,
        0.097371,
        0.097188,
        0.097004,
        0.096817,
        0.096629,
        0.096438,
        0.096245,
        0.096052,
        0.095859,
        0.095668,
        0.09548,
        0.095297,
        0.095119,
        0.094948,
        0.094785,
        0.09463,
        0.094483,
        0.094344,
        0.094209,
        0.09408,
        0.093954,
        0.093831,
        0.093708,
        0.093586,
        0.093462,
        0.093337,
        0.093209,
        0.093079,
        0.092948,
        0.092816,
        0.092682,
        0.092548,
        0.092413,
        0.092277,
        0.092142
      ],
      "range":1
    }
  }
]
