[
  {
    "model":"Star, type WG5(v)",
    "name":"Star, type WG5(v)",
    "type":"WB_REF",
    "dataQualityMarker":3,
    "dataSource":"https://www.eso.org/sci/facilities/paranal/decommissioned/isaac/tools/lib.html",
    "manufacturer":"A. Pickles (A.J. Pickles, PASP 110,863, 1998)",
    "version":1,
    "wavelength":{
      "value":[
        1150.0,
        1155.0,
        1160.0,
        1165.0,
        1170.0,
        1175.0,
        1180.0,
        1185.0,
        1190.0,
        1195.0,
        1200.0,
        1205.0,
        1210.0,
        1215.0,
        1220.0,
        1225.0,
        1230.0,
        1235.0,
        1240.0,
        1245.0,
        1250.0,
        1255.0,
        1260.0,
        1265.0,
        1270.0,
        1275.0,
        1280.0,
        1285.0,
        1290.0,
        1295.0,
        1300.0,
        1305.0,
        1310.0,
        1315.0,
        1320.0,
        1325.0,
        1330.0,
        1335.0,
        1340.0,
        1345.0,
        1350.0,
        1355.0,
        1360.0,
        1365.0,
        1370.0,
        1375.0,
        1380.0,
        1385.0,
        1390.0,
        1395.0,
        1400.0,
        1405.0,
        1410.0,
        1415.0,
        1420.0,
        1425.0,
        1430.0,
        1435.0,
        1440.0,
        1445.0,
        1450.0,
        1455.0,
        1460.0,
        1465.0,
        1470.0,
        1475.0,
        1480.0,
        1485.0,
        1490.0,
        1495.0,
        1500.0,
        1505.0,
        1510.0,
        1515.0,
        1520.0,
        1525.0,
        1530.0,
        1535.0,
        1540.0,
        1545.0,
        1550.0,
        1555.0,
        1560.0,
        1565.0,
        1570.0,
        1575.0,
        1580.0,
        1585.0,
        1590.0,
        1595.0,
        1600.0,
        1605.0,
        1610.0,
        1615.0,
        1620.0,
        1625.0,
        1630.0,
        1635.0,
        1640.0,
        1645.0,
        1650.0,
        1655.0,
        1660.0,
        1665.0,
        1670.0,
        1675.0,
        1680.0,
        1685.0,
        1690.0,
        1695.0,
        1700.0,
        1705.0,
        1710.0,
        1715.0,
        1720.0,
        1725.0,
        1730.0,
        1735.0,
        1740.0,
        1745.0,
        1750.0,
        1755.0,
        1760.0,
        1765.0,
        1770.0,
        1775.0,
        1780.0,
        1785.0,
        1790.0,
        1795.0,
        1800.0,
        1805.0,
        1810.0,
        1815.0,
        1820.0,
        1825.0,
        1830.0,
        1835.0,
        1840.0,
        1845.0,
        1850.0,
        1855.0,
        1860.0,
        1865.0,
        1870.0,
        1875.0,
        1880.0,
        1885.0,
        1890.0,
        1895.0,
        1900.0,
        1905.0,
        1910.0,
        1915.0,
        1920.0,
        1925.0,
        1930.0,
        1935.0,
        1940.0,
        1945.0,
        1950.0,
        1955.0,
        1960.0,
        1965.0,
        1970.0,
        1975.0,
        1980.0,
        1985.0,
        1990.0,
        1995.0,
        2000.0,
        2005.0,
        2010.0,
        2015.0,
        2020.0,
        2025.0,
        2030.0,
        2035.0,
        2040.0,
        2045.0,
        2050.0,
        2055.0,
        2060.0,
        2065.0,
        2070.0,
        2075.0,
        2080.0,
        2085.0,
        2090.0,
        2095.0,
        2100.0,
        2105.0,
        2110.0,
        2115.0,
        2120.0,
        2125.0,
        2130.0,
        2135.0,
        2140.0,
        2145.0,
        2150.0,
        2155.0,
        2160.0,
        2165.0,
        2170.0,
        2175.0,
        2180.0,
        2185.0,
        2190.0,
        2195.0,
        2200.0,
        2205.0,
        2210.0,
        2215.0,
        2220.0,
        2225.0,
        2230.0,
        2235.0,
        2240.0,
        2245.0,
        2250.0,
        2255.0,
        2260.0,
        2265.0,
        2270.0,
        2275.0,
        2280.0,
        2285.0,
        2290.0,
        2295.0,
        2300.0,
        2305.0,
        2310.0,
        2315.0,
        2320.0,
        2325.0,
        2330.0,
        2335.0,
        2340.0,
        2345.0,
        2350.0,
        2355.0,
        2360.0,
        2365.0,
        2370.0,
        2375.0,
        2380.0,
        2385.0,
        2390.0,
        2395.0,
        2400.0,
        2405.0,
        2410.0,
        2415.0,
        2420.0,
        2425.0,
        2430.0,
        2435.0,
        2440.0,
        2445.0,
        2450.0,
        2455.0,
        2460.0,
        2465.0,
        2470.0,
        2475.0,
        2480.0,
        2485.0,
        2490.0,
        2495.0,
        2500.0,
        2505.0,
        2510.0,
        2515.0,
        2520.0,
        2525.0,
        2530.0,
        2535.0,
        2540.0,
        2545.0,
        2550.0,
        2555.0,
        2560.0,
        2565.0,
        2570.0,
        2575.0,
        2580.0,
        2585.0,
        2590.0,
        2595.0,
        2600.0,
        2605.0,
        2610.0,
        2615.0,
        2620.0,
        2625.0,
        2630.0,
        2635.0,
        2640.0,
        2645.0,
        2650.0,
        2655.0,
        2660.0,
        2665.0,
        2670.0,
        2675.0,
        2680.0,
        2685.0,
        2690.0,
        2695.0,
        2700.0,
        2705.0,
        2710.0,
        2715.0,
        2720.0,
        2725.0,
        2730.0,
        2735.0,
        2740.0,
        2745.0,
        2750.0,
        2755.0,
        2760.0,
        2765.0,
        2770.0,
        2775.0,
        2780.0,
        2785.0,
        2790.0,
        2795.0,
        2800.0,
        2805.0,
        2810.0,
        2815.0,
        2820.0,
        2825.0,
        2830.0,
        2835.0,
        2840.0,
        2845.0,
        2850.0,
        2855.0,
        2860.0,
        2865.0,
        2870.0,
        2875.0,
        2880.0,
        2885.0,
        2890.0,
        2895.0,
        2900.0,
        2905.0,
        2910.0,
        2915.0,
        2920.0,
        2925.0,
        2930.0,
        2935.0,
        2940.0,
        2945.0,
        2950.0,
        2955.0,
        2960.0,
        2965.0,
        2970.0,
        2975.0,
        2980.0,
        2985.0,
        2990.0,
        2995.0,
        3000.0,
        3005.0,
        3010.0,
        3015.0,
        3020.0,
        3025.0,
        3030.0,
        3035.0,
        3040.0,
        3045.0,
        3050.0,
        3055.0,
        3060.0,
        3065.0,
        3070.0,
        3075.0,
        3080.0,
        3085.0,
        3090.0,
        3095.0,
        3100.0,
        3105.0,
        3110.0,
        3115.0,
        3120.0,
        3125.0,
        3130.0,
        3135.0,
        3140.0,
        3145.0,
        3150.0,
        3155.0,
        3160.0,
        3165.0,
        3170.0,
        3175.0,
        3180.0,
        3185.0,
        3190.0,
        3195.0,
        3200.0,
        3205.0,
        3210.0,
        3215.0,
        3220.0,
        3225.0,
        3230.0,
        3235.0,
        3240.0,
        3245.0,
        3250.0,
        3255.0,
        3260.0,
        3265.0,
        3270.0,
        3275.0,
        3280.0,
        3285.0,
        3290.0,
        3295.0,
        3300.0,
        3305.0,
        3310.0,
        3315.0,
        3320.0,
        3325.0,
        3330.0,
        3335.0,
        3340.0,
        3345.0,
        3350.0,
        3355.0,
        3360.0,
        3365.0,
        3370.0,
        3375.0,
        3380.0,
        3385.0,
        3390.0,
        3395.0,
        3400.0,
        3405.0,
        3410.0,
        3415.0,
        3420.0,
        3425.0,
        3430.0,
        3435.0,
        3440.0,
        3445.0,
        3450.0,
        3455.0,
        3460.0,
        3465.0,
        3470.0,
        3475.0,
        3480.0,
        3485.0,
        3490.0,
        3495.0,
        3500.0,
        3505.0,
        3510.0,
        3515.0,
        3520.0,
        3525.0,
        3530.0,
        3535.0,
        3540.0,
        3545.0,
        3550.0,
        3555.0,
        3560.0,
        3565.0,
        3570.0,
        3575.0,
        3580.0,
        3585.0,
        3590.0,
        3595.0,
        3600.0,
        3605.0,
        3610.0,
        3615.0,
        3620.0,
        3625.0,
        3630.0,
        3635.0,
        3640.0,
        3645.0,
        3650.0,
        3655.0,
        3660.0,
        3665.0,
        3670.0,
        3675.0,
        3680.0,
        3685.0,
        3690.0,
        3695.0,
        3700.0,
        3705.0,
        3710.0,
        3715.0,
        3720.0,
        3725.0,
        3730.0,
        3735.0,
        3740.0,
        3745.0,
        3750.0,
        3755.0,
        3760.0,
        3765.0,
        3770.0,
        3775.0,
        3780.0,
        3785.0,
        3790.0,
        3795.0,
        3800.0,
        3805.0,
        3810.0,
        3815.0,
        3820.0,
        3825.0,
        3830.0,
        3835.0,
        3840.0,
        3845.0,
        3850.0,
        3855.0,
        3860.0,
        3865.0,
        3870.0,
        3875.0,
        3880.0,
        3885.0,
        3890.0,
        3895.0,
        3900.0,
        3905.0,
        3910.0,
        3915.0,
        3920.0,
        3925.0,
        3930.0,
        3935.0,
        3940.0,
        3945.0,
        3950.0,
        3955.0,
        3960.0,
        3965.0,
        3970.0,
        3975.0,
        3980.0,
        3985.0,
        3990.0,
        3995.0,
        4000.0,
        4005.0,
        4010.0,
        4015.0,
        4020.0,
        4025.0,
        4030.0,
        4035.0,
        4040.0,
        4045.0,
        4050.0,
        4055.0,
        4060.0,
        4065.0,
        4070.0,
        4075.0,
        4080.0,
        4085.0,
        4090.0,
        4095.0,
        4100.0,
        4105.0,
        4110.0,
        4115.0,
        4120.0,
        4125.0,
        4130.0,
        4135.0,
        4140.0,
        4145.0,
        4150.0,
        4155.0,
        4160.0,
        4165.0,
        4170.0,
        4175.0,
        4180.0,
        4185.0,
        4190.0,
        4195.0,
        4200.0,
        4205.0,
        4210.0,
        4215.0,
        4220.0,
        4225.0,
        4230.0,
        4235.0,
        4240.0,
        4245.0,
        4250.0,
        4255.0,
        4260.0,
        4265.0,
        4270.0,
        4275.0,
        4280.0,
        4285.0,
        4290.0,
        4295.0,
        4300.0,
        4305.0,
        4310.0,
        4315.0,
        4320.0,
        4325.0,
        4330.0,
        4335.0,
        4340.0,
        4345.0,
        4350.0,
        4355.0,
        4360.0,
        4365.0,
        4370.0,
        4375.0,
        4380.0,
        4385.0,
        4390.0,
        4395.0,
        4400.0,
        4405.0,
        4410.0,
        4415.0,
        4420.0,
        4425.0,
        4430.0,
        4435.0,
        4440.0,
        4445.0,
        4450.0,
        4455.0,
        4460.0,
        4465.0,
        4470.0,
        4475.0,
        4480.0,
        4485.0,
        4490.0,
        4495.0,
        4500.0,
        4505.0,
        4510.0,
        4515.0,
        4520.0,
        4525.0,
        4530.0,
        4535.0,
        4540.0,
        4545.0,
        4550.0,
        4555.0,
        4560.0,
        4565.0,
        4570.0,
        4575.0,
        4580.0,
        4585.0,
        4590.0,
        4595.0,
        4600.0,
        4605.0,
        4610.0,
        4615.0,
        4620.0,
        4625.0,
        4630.0,
        4635.0,
        4640.0,
        4645.0,
        4650.0,
        4655.0,
        4660.0,
        4665.0,
        4670.0,
        4675.0,
        4680.0,
        4685.0,
        4690.0,
        4695.0,
        4700.0,
        4705.0,
        4710.0,
        4715.0,
        4720.0,
        4725.0,
        4730.0,
        4735.0,
        4740.0,
        4745.0,
        4750.0,
        4755.0,
        4760.0,
        4765.0,
        4770.0,
        4775.0,
        4780.0,
        4785.0,
        4790.0,
        4795.0,
        4800.0,
        4805.0,
        4810.0,
        4815.0,
        4820.0,
        4825.0,
        4830.0,
        4835.0,
        4840.0,
        4845.0,
        4850.0,
        4855.0,
        4860.0,
        4865.0,
        4870.0,
        4875.0,
        4880.0,
        4885.0,
        4890.0,
        4895.0,
        4900.0,
        4905.0,
        4910.0,
        4915.0,
        4920.0,
        4925.0,
        4930.0,
        4935.0,
        4940.0,
        4945.0,
        4950.0,
        4955.0,
        4960.0,
        4965.0,
        4970.0,
        4975.0,
        4980.0,
        4985.0,
        4990.0,
        4995.0,
        5000.0,
        5005.0,
        5010.0,
        5015.0,
        5020.0,
        5025.0,
        5030.0,
        5035.0,
        5040.0,
        5045.0,
        5050.0,
        5055.0,
        5060.0,
        5065.0,
        5070.0,
        5075.0,
        5080.0,
        5085.0,
        5090.0,
        5095.0,
        5100.0,
        5105.0,
        5110.0,
        5115.0,
        5120.0,
        5125.0,
        5130.0,
        5135.0,
        5140.0,
        5145.0,
        5150.0,
        5155.0,
        5160.0,
        5165.0,
        5170.0,
        5175.0,
        5180.0,
        5185.0,
        5190.0,
        5195.0,
        5200.0,
        5205.0,
        5210.0,
        5215.0,
        5220.0,
        5225.0,
        5230.0,
        5235.0,
        5240.0,
        5245.0,
        5250.0,
        5255.0,
        5260.0,
        5265.0,
        5270.0,
        5275.0,
        5280.0,
        5285.0,
        5290.0,
        5295.0,
        5300.0,
        5305.0,
        5310.0,
        5315.0,
        5320.0,
        5325.0,
        5330.0,
        5335.0,
        5340.0,
        5345.0,
        5350.0,
        5355.0,
        5360.0,
        5365.0,
        5370.0,
        5375.0,
        5380.0,
        5385.0,
        5390.0,
        5395.0,
        5400.0,
        5405.0,
        5410.0,
        5415.0,
        5420.0,
        5425.0,
        5430.0,
        5435.0,
        5440.0,
        5445.0,
        5450.0,
        5455.0,
        5460.0,
        5465.0,
        5470.0,
        5475.0,
        5480.0,
        5485.0,
        5490.0,
        5495.0,
        5500.0,
        5505.0,
        5510.0,
        5515.0,
        5520.0,
        5525.0,
        5530.0,
        5535.0,
        5540.0,
        5545.0,
        5550.0,
        5555.0,
        5560.0,
        5565.0,
        5570.0,
        5575.0,
        5580.0,
        5585.0,
        5590.0,
        5595.0,
        5600.0,
        5605.0,
        5610.0,
        5615.0,
        5620.0,
        5625.0,
        5630.0,
        5635.0,
        5640.0,
        5645.0,
        5650.0,
        5655.0,
        5660.0,
        5665.0,
        5670.0,
        5675.0,
        5680.0,
        5685.0,
        5690.0,
        5695.0,
        5700.0,
        5705.0,
        5710.0,
        5715.0,
        5720.0,
        5725.0,
        5730.0,
        5735.0,
        5740.0,
        5745.0,
        5750.0,
        5755.0,
        5760.0,
        5765.0,
        5770.0,
        5775.0,
        5780.0,
        5785.0,
        5790.0,
        5795.0,
        5800.0,
        5805.0,
        5810.0,
        5815.0,
        5820.0,
        5825.0,
        5830.0,
        5835.0,
        5840.0,
        5845.0,
        5850.0,
        5855.0,
        5860.0,
        5865.0,
        5870.0,
        5875.0,
        5880.0,
        5885.0,
        5890.0,
        5895.0,
        5900.0,
        5905.0,
        5910.0,
        5915.0,
        5920.0,
        5925.0,
        5930.0,
        5935.0,
        5940.0,
        5945.0,
        5950.0,
        5955.0,
        5960.0,
        5965.0,
        5970.0,
        5975.0,
        5980.0,
        5985.0,
        5990.0,
        5995.0,
        6000.0,
        6005.0,
        6010.0,
        6015.0,
        6020.0,
        6025.0,
        6030.0,
        6035.0,
        6040.0,
        6045.0,
        6050.0,
        6055.0,
        6060.0,
        6065.0,
        6070.0,
        6075.0,
        6080.0,
        6085.0,
        6090.0,
        6095.0,
        6100.0,
        6105.0,
        6110.0,
        6115.0,
        6120.0,
        6125.0,
        6130.0,
        6135.0,
        6140.0,
        6145.0,
        6150.0,
        6155.0,
        6160.0,
        6165.0,
        6170.0,
        6175.0,
        6180.0,
        6185.0,
        6190.0,
        6195.0,
        6200.0,
        6205.0,
        6210.0,
        6215.0,
        6220.0,
        6225.0,
        6230.0,
        6235.0,
        6240.0,
        6245.0,
        6250.0,
        6255.0,
        6260.0,
        6265.0,
        6270.0,
        6275.0,
        6280.0,
        6285.0,
        6290.0,
        6295.0,
        6300.0,
        6305.0,
        6310.0,
        6315.0,
        6320.0,
        6325.0,
        6330.0,
        6335.0,
        6340.0,
        6345.0,
        6350.0,
        6355.0,
        6360.0,
        6365.0,
        6370.0,
        6375.0,
        6380.0,
        6385.0,
        6390.0,
        6395.0,
        6400.0,
        6405.0,
        6410.0,
        6415.0,
        6420.0,
        6425.0,
        6430.0,
        6435.0,
        6440.0,
        6445.0,
        6450.0,
        6455.0,
        6460.0,
        6465.0,
        6470.0,
        6475.0,
        6480.0,
        6485.0,
        6490.0,
        6495.0,
        6500.0,
        6505.0,
        6510.0,
        6515.0,
        6520.0,
        6525.0,
        6530.0,
        6535.0,
        6540.0,
        6545.0,
        6550.0,
        6555.0,
        6560.0,
        6565.0,
        6570.0,
        6575.0,
        6580.0,
        6585.0,
        6590.0,
        6595.0,
        6600.0,
        6605.0,
        6610.0,
        6615.0,
        6620.0,
        6625.0,
        6630.0,
        6635.0,
        6640.0,
        6645.0,
        6650.0,
        6655.0,
        6660.0,
        6665.0,
        6670.0,
        6675.0,
        6680.0,
        6685.0,
        6690.0,
        6695.0,
        6700.0,
        6705.0,
        6710.0,
        6715.0,
        6720.0,
        6725.0,
        6730.0,
        6735.0,
        6740.0,
        6745.0,
        6750.0,
        6755.0,
        6760.0,
        6765.0,
        6770.0,
        6775.0,
        6780.0,
        6785.0,
        6790.0,
        6795.0,
        6800.0,
        6805.0,
        6810.0,
        6815.0,
        6820.0,
        6825.0,
        6830.0,
        6835.0,
        6840.0,
        6845.0,
        6850.0,
        6855.0,
        6860.0,
        6865.0,
        6870.0,
        6875.0,
        6880.0,
        6885.0,
        6890.0,
        6895.0,
        6900.0,
        6905.0,
        6910.0,
        6915.0,
        6920.0,
        6925.0,
        6930.0,
        6935.0,
        6940.0,
        6945.0,
        6950.0,
        6955.0,
        6960.0,
        6965.0,
        6970.0,
        6975.0,
        6980.0,
        6985.0,
        6990.0,
        6995.0,
        7000.0,
        7005.0,
        7010.0,
        7015.0,
        7020.0,
        7025.0,
        7030.0,
        7035.0,
        7040.0,
        7045.0,
        7050.0,
        7055.0,
        7060.0,
        7065.0,
        7070.0,
        7075.0,
        7080.0,
        7085.0,
        7090.0,
        7095.0,
        7100.0,
        7105.0,
        7110.0,
        7115.0,
        7120.0,
        7125.0,
        7130.0,
        7135.0,
        7140.0,
        7145.0,
        7150.0,
        7155.0,
        7160.0,
        7165.0,
        7170.0,
        7175.0,
        7180.0,
        7185.0,
        7190.0,
        7195.0,
        7200.0,
        7205.0,
        7210.0,
        7215.0,
        7220.0,
        7225.0,
        7230.0,
        7235.0,
        7240.0,
        7245.0,
        7250.0,
        7255.0,
        7260.0,
        7265.0,
        7270.0,
        7275.0,
        7280.0,
        7285.0,
        7290.0,
        7295.0,
        7300.0,
        7305.0,
        7310.0,
        7315.0,
        7320.0,
        7325.0,
        7330.0,
        7335.0,
        7340.0,
        7345.0,
        7350.0,
        7355.0,
        7360.0,
        7365.0,
        7370.0,
        7375.0,
        7380.0,
        7385.0,
        7390.0,
        7395.0,
        7400.0,
        7405.0,
        7410.0,
        7415.0,
        7420.0,
        7425.0,
        7430.0,
        7435.0,
        7440.0,
        7445.0,
        7450.0,
        7455.0,
        7460.0,
        7465.0,
        7470.0,
        7475.0,
        7480.0,
        7485.0,
        7490.0,
        7495.0,
        7500.0,
        7505.0,
        7510.0,
        7515.0,
        7520.0,
        7525.0,
        7530.0,
        7535.0,
        7540.0,
        7545.0,
        7550.0,
        7555.0,
        7560.0,
        7565.0,
        7570.0,
        7575.0,
        7580.0,
        7585.0,
        7590.0,
        7595.0,
        7600.0,
        7605.0,
        7610.0,
        7615.0,
        7620.0,
        7625.0,
        7630.0,
        7635.0,
        7640.0,
        7645.0,
        7650.0,
        7655.0,
        7660.0,
        7665.0,
        7670.0,
        7675.0,
        7680.0,
        7685.0,
        7690.0,
        7695.0,
        7700.0,
        7705.0,
        7710.0,
        7715.0,
        7720.0,
        7725.0,
        7730.0,
        7735.0,
        7740.0,
        7745.0,
        7750.0,
        7755.0,
        7760.0,
        7765.0,
        7770.0,
        7775.0,
        7780.0,
        7785.0,
        7790.0,
        7795.0,
        7800.0,
        7805.0,
        7810.0,
        7815.0,
        7820.0,
        7825.0,
        7830.0,
        7835.0,
        7840.0,
        7845.0,
        7850.0,
        7855.0,
        7860.0,
        7865.0,
        7870.0,
        7875.0,
        7880.0,
        7885.0,
        7890.0,
        7895.0,
        7900.0,
        7905.0,
        7910.0,
        7915.0,
        7920.0,
        7925.0,
        7930.0,
        7935.0,
        7940.0,
        7945.0,
        7950.0,
        7955.0,
        7960.0,
        7965.0,
        7970.0,
        7975.0,
        7980.0,
        7985.0,
        7990.0,
        7995.0,
        8000.0,
        8005.0,
        8010.0,
        8015.0,
        8020.0,
        8025.0,
        8030.0,
        8035.0,
        8040.0,
        8045.0,
        8050.0,
        8055.0,
        8060.0,
        8065.0,
        8070.0,
        8075.0,
        8080.0,
        8085.0,
        8090.0,
        8095.0,
        8100.0,
        8105.0,
        8110.0,
        8115.0,
        8120.0,
        8125.0,
        8130.0,
        8135.0,
        8140.0,
        8145.0,
        8150.0,
        8155.0,
        8160.0,
        8165.0,
        8170.0,
        8175.0,
        8180.0,
        8185.0,
        8190.0,
        8195.0,
        8200.0,
        8205.0,
        8210.0,
        8215.0,
        8220.0,
        8225.0,
        8230.0,
        8235.0,
        8240.0,
        8245.0,
        8250.0,
        8255.0,
        8260.0,
        8265.0,
        8270.0,
        8275.0,
        8280.0,
        8285.0,
        8290.0,
        8295.0,
        8300.0,
        8305.0,
        8310.0,
        8315.0,
        8320.0,
        8325.0,
        8330.0,
        8335.0,
        8340.0,
        8345.0,
        8350.0,
        8355.0,
        8360.0,
        8365.0,
        8370.0,
        8375.0,
        8380.0,
        8385.0,
        8390.0,
        8395.0,
        8400.0,
        8405.0,
        8410.0,
        8415.0,
        8420.0,
        8425.0,
        8430.0,
        8435.0,
        8440.0,
        8445.0,
        8450.0,
        8455.0,
        8460.0,
        8465.0,
        8470.0,
        8475.0,
        8480.0,
        8485.0,
        8490.0,
        8495.0,
        8500.0,
        8505.0,
        8510.0,
        8515.0,
        8520.0,
        8525.0,
        8530.0,
        8535.0,
        8540.0,
        8545.0,
        8550.0,
        8555.0,
        8560.0,
        8565.0,
        8570.0,
        8575.0,
        8580.0,
        8585.0,
        8590.0,
        8595.0,
        8600.0,
        8605.0,
        8610.0,
        8615.0,
        8620.0,
        8625.0,
        8630.0,
        8635.0,
        8640.0,
        8645.0,
        8650.0,
        8655.0,
        8660.0,
        8665.0,
        8670.0,
        8675.0,
        8680.0,
        8685.0,
        8690.0,
        8695.0,
        8700.0,
        8705.0,
        8710.0,
        8715.0,
        8720.0,
        8725.0,
        8730.0,
        8735.0,
        8740.0,
        8745.0,
        8750.0,
        8755.0,
        8760.0,
        8765.0,
        8770.0,
        8775.0,
        8780.0,
        8785.0,
        8790.0,
        8795.0,
        8800.0,
        8805.0,
        8810.0,
        8815.0,
        8820.0,
        8825.0,
        8830.0,
        8835.0,
        8840.0,
        8845.0,
        8850.0,
        8855.0,
        8860.0,
        8865.0,
        8870.0,
        8875.0,
        8880.0,
        8885.0,
        8890.0,
        8895.0,
        8900.0,
        8905.0,
        8910.0,
        8915.0,
        8920.0,
        8925.0,
        8930.0,
        8935.0,
        8940.0,
        8945.0,
        8950.0,
        8955.0,
        8960.0,
        8965.0,
        8970.0,
        8975.0,
        8980.0,
        8985.0,
        8990.0,
        8995.0,
        9000.0,
        9005.0,
        9010.0,
        9015.0,
        9020.0,
        9025.0,
        9030.0,
        9035.0,
        9040.0,
        9045.0,
        9050.0,
        9055.0,
        9060.0,
        9065.0,
        9070.0,
        9075.0,
        9080.0,
        9085.0,
        9090.0,
        9095.0,
        9100.0,
        9105.0,
        9110.0,
        9115.0,
        9120.0,
        9125.0,
        9130.0,
        9135.0,
        9140.0,
        9145.0,
        9150.0,
        9155.0,
        9160.0,
        9165.0,
        9170.0,
        9175.0,
        9180.0,
        9185.0,
        9190.0,
        9195.0,
        9200.0,
        9205.0,
        9210.0,
        9215.0,
        9220.0,
        9225.0,
        9230.0,
        9235.0,
        9240.0,
        9245.0,
        9250.0,
        9255.0,
        9260.0,
        9265.0,
        9270.0,
        9275.0,
        9280.0,
        9285.0,
        9290.0,
        9295.0,
        9300.0,
        9305.0,
        9310.0,
        9315.0,
        9320.0,
        9325.0,
        9330.0,
        9335.0,
        9340.0,
        9345.0,
        9350.0,
        9355.0,
        9360.0,
        9365.0,
        9370.0,
        9375.0,
        9380.0,
        9385.0,
        9390.0,
        9395.0,
        9400.0,
        9405.0,
        9410.0,
        9415.0,
        9420.0,
        9425.0,
        9430.0,
        9435.0,
        9440.0,
        9445.0,
        9450.0,
        9455.0,
        9460.0,
        9465.0,
        9470.0,
        9475.0,
        9480.0,
        9485.0,
        9490.0,
        9495.0,
        9500.0,
        9505.0,
        9510.0,
        9515.0,
        9520.0,
        9525.0,
        9530.0,
        9535.0,
        9540.0,
        9545.0,
        9550.0,
        9555.0,
        9560.0,
        9565.0,
        9570.0,
        9575.0,
        9580.0,
        9585.0,
        9590.0,
        9595.0,
        9600.0,
        9605.0,
        9610.0,
        9615.0,
        9620.0,
        9625.0,
        9630.0,
        9635.0,
        9640.0,
        9645.0,
        9650.0,
        9655.0,
        9660.0,
        9665.0,
        9670.0,
        9675.0,
        9680.0,
        9685.0,
        9690.0,
        9695.0,
        9700.0,
        9705.0,
        9710.0,
        9715.0,
        9720.0,
        9725.0,
        9730.0,
        9735.0,
        9740.0,
        9745.0,
        9750.0,
        9755.0,
        9760.0,
        9765.0,
        9770.0,
        9775.0,
        9780.0,
        9785.0,
        9790.0,
        9795.0,
        9800.0,
        9805.0,
        9810.0,
        9815.0,
        9820.0,
        9825.0,
        9830.0,
        9835.0,
        9840.0,
        9845.0,
        9850.0,
        9855.0,
        9860.0,
        9865.0,
        9870.0,
        9875.0,
        9880.0,
        9885.0,
        9890.0,
        9895.0,
        9900.0,
        9905.0,
        9910.0,
        9915.0,
        9920.0,
        9925.0,
        9930.0,
        9935.0,
        9940.0,
        9945.0,
        9950.0,
        9955.0,
        9960.0,
        9965.0,
        9970.0,
        9975.0,
        9980.0,
        9985.0,
        9990.0,
        9995.0,
        10000.0,
        10005.0,
        10010.0,
        10015.0,
        10020.0,
        10025.0,
        10030.0,
        10035.0,
        10040.0,
        10045.0,
        10050.0,
        10055.0,
        10060.0,
        10065.0,
        10070.0,
        10075.0,
        10080.0,
        10085.0,
        10090.0,
        10095.0,
        10100.0,
        10105.0,
        10110.0,
        10115.0,
        10120.0,
        10125.0,
        10130.0,
        10135.0,
        10140.0,
        10145.0,
        10150.0,
        10155.0,
        10160.0,
        10165.0,
        10170.0,
        10175.0,
        10180.0,
        10185.0,
        10190.0,
        10195.0,
        10200.0,
        10205.0,
        10210.0,
        10215.0,
        10220.0,
        10225.0,
        10230.0,
        10235.0,
        10240.0,
        10245.0,
        10250.0,
        10255.0,
        10260.0,
        10265.0,
        10270.0,
        10275.0,
        10280.0,
        10285.0,
        10290.0,
        10295.0,
        10300.0,
        10305.0,
        10310.0,
        10315.0,
        10320.0,
        10325.0,
        10330.0,
        10335.0,
        10340.0,
        10345.0,
        10350.0,
        10355.0,
        10360.0,
        10365.0,
        10370.0,
        10375.0,
        10380.0,
        10385.0,
        10390.0,
        10395.0,
        10400.0,
        10405.0,
        10410.0,
        10415.0,
        10420.0,
        10425.0,
        10430.0,
        10435.0,
        10440.0,
        10445.0,
        10450.0,
        10455.0,
        10460.0,
        10465.0,
        10470.0,
        10475.0,
        10480.0,
        10485.0,
        10490.0,
        10495.0,
        10500.0
      ],
      "units":"angstrom"
    },
    "values":{
      "value":[
        0.004238,
        0.003044,
        0.001544,
        0.000986,
        0.001096,
        0.001069,
        0.000532,
        0.000454,
        0.000105,
        0.001423,
        0.005172,
        0.035668,
        0.098756,
        0.114361,
        0.051312,
        0.007491,
        0.000896,
        0.000612,
        0.000627,
        0.000492,
        0.000299,
        0.000167,
        0.000188,
        0.000183,
        0.000191,
        0.000299,
        0.000384,
        0.000318,
        0.000215,
        0.000246,
        0.000554,
        0.000747,
        0.000316,
        0.000153,
        0.000127,
        0.000187,
        0.000466,
        0.000936,
        0.00033,
        7.3e-05,
        1.5e-05,
        0.000162,
        0.000229,
        0.000205,
        0.000149,
        0.000182,
        0.00015,
        0.000136,
        0.000308,
        0.000524,
        0.00045,
        0.000494,
        0.000295,
        0.000159,
        0.000164,
        0.000271,
        0.000355,
        0.000226,
        0.000269,
        0.000393,
        0.000434,
        0.000379,
        0.000202,
        0.000347,
        0.000539,
        0.000374,
        0.000281,
        0.000582,
        0.000647,
        0.000612,
        0.000454,
        0.000371,
        0.000489,
        0.000417,
        0.000424,
        0.000435,
        0.000751,
        0.000699,
        0.000544,
        0.001321,
        0.001574,
        0.000637,
        0.00041,
        0.000438,
        0.000338,
        0.000468,
        0.000526,
        0.000429,
        0.000287,
        0.000324,
        0.000435,
        0.000431,
        0.000344,
        0.000359,
        0.000346,
        0.000493,
        0.000647,
        0.000826,
        0.000953,
        0.000534,
        0.000607,
        0.001182,
        0.001203,
        0.00072,
        0.000625,
        0.00054,
        0.00058,
        0.0006,
        0.000676,
        0.000744,
        0.000844,
        0.000918,
        0.000854,
        0.000904,
        0.000839,
        0.000838,
        0.000922,
        0.000997,
        0.001048,
        0.001139,
        0.001275,
        0.001394,
        0.001409,
        0.001345,
        0.001475,
        0.001524,
        0.001505,
        0.001415,
        0.001047,
        0.001465,
        0.001769,
        0.002302,
        0.002741,
        0.003233,
        0.003165,
        0.002358,
        0.00218,
        0.002276,
        0.002229,
        0.002011,
        0.002085,
        0.002254,
        0.002371,
        0.002707,
        0.00306,
        0.002899,
        0.003001,
        0.003078,
        0.00329,
        0.003316,
        0.003277,
        0.003317,
        0.003416,
        0.00353,
        0.00364,
        0.003581,
        0.003218,
        0.003369,
        0.004136,
        0.004585,
        0.005618,
        0.010669,
        0.007893,
        0.007405,
        0.010879,
        0.007635,
        0.009303,
        0.009524,
        0.006593,
        0.012285,
        0.011234,
        0.008908,
        0.006852,
        0.007707,
        0.010511,
        0.007959,
        0.007326,
        0.011014,
        0.014003,
        0.014446,
        0.015963,
        0.011241,
        0.012103,
        0.013161,
        0.016813,
        0.016792,
        0.016403,
        0.016589,
        0.012226,
        0.014896,
        0.02316,
        0.025896,
        0.018673,
        0.022975,
        0.026919,
        0.020566,
        0.018102,
        0.021946,
        0.02517,
        0.023233,
        0.026463,
        0.028834,
        0.02406,
        0.023106,
        0.016961,
        0.01878,
        0.023985,
        0.035072,
        0.041302,
        0.042045,
        0.037178,
        0.029247,
        0.025832,
        0.025242,
        0.03155,
        0.033687,
        0.028604,
        0.03248,
        0.035811,
        0.041252,
        0.040515,
        0.032918,
        0.028284,
        0.025593,
        0.027231,
        0.024015,
        0.032942,
        0.033519,
        0.029264,
        0.033022,
        0.035007,
        0.039965,
        0.040913,
        0.037716,
        0.035404,
        0.043767,
        0.040537,
        0.033068,
        0.033257,
        0.029925,
        0.030281,
        0.034626,
        0.037413,
        0.041019,
        0.047141,
        0.046978,
        0.036567,
        0.031153,
        0.03266,
        0.033659,
        0.025435,
        0.028934,
        0.027841,
        0.03117,
        0.041556,
        0.047396,
        0.041232,
        0.040146,
        0.04259,
        0.040584,
        0.038752,
        0.044827,
        0.039381,
        0.035184,
        0.036902,
        0.036803,
        0.032418,
        0.027434,
        0.030662,
        0.036858,
        0.042982,
        0.041307,
        0.038365,
        0.036613,
        0.036279,
        0.035865,
        0.04092,
        0.03937,
        0.039748,
        0.043217,
        0.046782,
        0.049694,
        0.056284,
        0.067364,
        0.064934,
        0.05867,
        0.070425,
        0.077225,
        0.075458,
        0.068949,
        0.065648,
        0.065932,
        0.063915,
        0.065558,
        0.066483,
        0.070141,
        0.075739,
        0.095959,
        0.126585,
        0.13537,
        0.131086,
        0.139286,
        0.145529,
        0.138284,
        0.137957,
        0.141004,
        0.140611,
        0.134873,
        0.132347,
        0.135085,
        0.15074,
        0.149676,
        0.141022,
        0.12821,
        0.108541,
        0.109663,
        0.1242,
        0.114199,
        0.087491,
        0.081576,
        0.087584,
        0.105356,
        0.125758,
        0.138174,
        0.14192,
        0.138342,
        0.116983,
        0.096678,
        0.084812,
        0.077053,
        0.074221,
        0.078748,
        0.100106,
        0.141991,
        0.160986,
        0.171466,
        0.184655,
        0.18376,
        0.166328,
        0.141967,
        0.110291,
        0.10929,
        0.15615,
        0.193023,
        0.202429,
        0.198608,
        0.179104,
        0.193031,
        0.233802,
        0.277857,
        0.332379,
        0.368557,
        0.373243,
        0.356535,
        0.322058,
        0.308612,
        0.320904,
        0.318572,
        0.297995,
        0.291494,
        0.298318,
        0.327152,
        0.328244,
        0.29622,
        0.269092,
        0.298976,
        0.293705,
        0.25201,
        0.270945,
        0.266788,
        0.240725,
        0.232901,
        0.248271,
        0.256742,
        0.246894,
        0.282813,
        0.333369,
        0.336681,
        0.32118,
        0.326005,
        0.338471,
        0.323572,
        0.305558,
        0.319341,
        0.337357,
        0.345385,
        0.350659,
        0.343149,
        0.324462,
        0.305723,
        0.327583,
        0.401389,
        0.434108,
        0.389308,
        0.373948,
        0.394674,
        0.420637,
        0.435512,
        0.419614,
        0.372104,
        0.399282,
        0.383836,
        0.407876,
        0.433718,
        0.469284,
        0.475033,
        0.437579,
        0.420266,
        0.443262,
        0.455849,
        0.446211,
        0.442053,
        0.426545,
        0.408558,
        0.388239,
        0.366994,
        0.359985,
        0.378127,
        0.40159,
        0.411904,
        0.426775,
        0.464583,
        0.510208,
        0.541949,
        0.545263,
        0.516311,
        0.486901,
        0.489457,
        0.523217,
        0.573137,
        0.600232,
        0.576306,
        0.540275,
        0.533382,
        0.53908,
        0.533918,
        0.52461,
        0.523305,
        0.533708,
        0.552704,
        0.558337,
        0.533387,
        0.498418,
        0.478573,
        0.479539,
        0.497924,
        0.513494,
        0.512237,
        0.521881,
        0.564538,
        0.598121,
        0.581854,
        0.544418,
        0.524806,
        0.533805,
        0.565056,
        0.571835,
        0.520191,
        0.467643,
        0.472335,
        0.503458,
        0.519284,
        0.523361,
        0.526985,
        0.527173,
        0.519851,
        0.510862,
        0.508316,
        0.519479,
        0.545791,
        0.566243,
        0.562473,
        0.550226,
        0.545287,
        0.535304,
        0.522843,
        0.543638,
        0.586575,
        0.614641,
        0.626584,
        0.625169,
        0.606857,
        0.580591,
        0.53608,
        0.49696,
        0.475582,
        0.456078,
        0.453508,
        0.492522,
        0.547192,
        0.577409,
        0.561002,
        0.512542,
        0.504827,
        0.516511,
        0.552844,
        0.577685,
        0.575792,
        0.572596,
        0.551983,
        0.560435,
        0.611283,
        0.656797,
        0.656811,
        0.644785,
        0.643295,
        0.637533,
        0.622196,
        0.644432,
        0.667004,
        0.686087,
        0.653566,
        0.633307,
        0.638959,
        0.611603,
        0.611413,
        0.602271,
        0.547349,
        0.547253,
        0.534767,
        0.524267,
        0.588313,
        0.6173,
        0.631105,
        0.659589,
        0.709897,
        0.771081,
        0.739835,
        0.656713,
        0.620783,
        0.637744,
        0.695407,
        0.710171,
        0.64803,
        0.564733,
        0.496412,
        0.442178,
        0.434818,
        0.494127,
        0.592699,
        0.633458,
        0.603321,
        0.578552,
        0.601467,
        0.597828,
        0.58635,
        0.572999,
        0.583876,
        0.59743,
        0.64186,
        0.679654,
        0.694266,
        0.723518,
        0.720687,
        0.654618,
        0.518018,
        0.34816,
        0.308565,
        0.444473,
        0.598574,
        0.688542,
        0.701235,
        0.601473,
        0.411755,
        0.353028,
        0.537837,
        0.742018,
        0.833899,
        0.862014,
        0.879537,
        0.891567,
        0.896948,
        0.916321,
        0.934237,
        0.935996,
        0.933301,
        0.915335,
        0.923285,
        0.93564,
        0.907577,
        0.905561,
        0.897246,
        0.896556,
        0.889714,
        0.897395,
        0.89481,
        0.90327,
        0.954738,
        0.98016,
        0.92344,
        0.838816,
        0.85608,
        0.93431,
        0.971726,
        0.967655,
        0.951315,
        0.934226,
        0.948724,
        0.962667,
        0.955645,
        0.951723,
        0.953204,
        0.971914,
        0.972418,
        0.941209,
        0.912364,
        0.918541,
        0.931304,
        0.941053,
        0.926984,
        0.896026,
        0.925395,
        0.969806,
        0.965363,
        0.943807,
        0.890161,
        0.884927,
        0.904843,
        0.903273,
        0.903347,
        0.898881,
        0.901486,
        0.893099,
        0.889746,
        0.864639,
        0.867132,
        0.88545,
        0.862459,
        0.820249,
        0.772477,
        0.682099,
        0.632226,
        0.666238,
        0.828156,
        0.945114,
        0.936623,
        0.937426,
        0.894738,
        0.838647,
        0.883416,
        0.934163,
        0.955235,
        0.980021,
        0.99163,
        0.969696,
        0.943423,
        0.914485,
        0.891079,
        0.915341,
        0.938872,
        0.948515,
        0.956218,
        0.98137,
        1.010162,
        1.019786,
        1.030997,
        1.029902,
        1.017404,
        1.030164,
        1.043015,
        1.047192,
        1.001289,
        0.97251,
        1.000487,
        1.037758,
        1.072203,
        1.06837,
        1.068554,
        1.065157,
        1.078518,
        1.096802,
        1.119643,
        1.132944,
        1.109466,
        1.089205,
        1.037566,
        0.996648,
        1.025018,
        1.068878,
        1.054822,
        1.036202,
        1.057336,
        1.092245,
        1.093351,
        1.089452,
        1.088515,
        1.078417,
        1.073357,
        1.077888,
        1.072299,
        1.06769,
        1.086007,
        1.103391,
        1.090358,
        1.088688,
        1.094373,
        1.096092,
        1.087933,
        1.080984,
        1.074593,
        1.067275,
        1.075668,
        1.092823,
        1.068455,
        1.045111,
        1.067898,
        1.074207,
        1.082745,
        1.086432,
        1.092522,
        1.062659,
        1.040753,
        1.050487,
        1.083361,
        1.106223,
        1.087704,
        1.05439,
        1.059884,
        1.089295,
        1.106982,
        1.103905,
        1.084065,
        1.065358,
        1.056888,
        1.077552,
        1.100599,
        1.101857,
        1.081534,
        1.074558,
        1.101086,
        1.104155,
        1.103154,
        1.090455,
        1.107686,
        1.109465,
        1.096987,
        1.077956,
        1.063887,
        1.067312,
        1.080608,
        1.076405,
        0.998541,
        0.893224,
        0.919757,
        0.995912,
        1.028558,
        1.047714,
        1.025564,
        1.007694,
        1.055208,
        1.092895,
        1.080618,
        1.063326,
        1.042157,
        1.012221,
        1.038684,
        1.077381,
        1.055151,
        1.05031,
        1.077741,
        1.085239,
        1.066753,
        1.066683,
        1.083106,
        1.077265,
        1.067003,
        1.025365,
        1.020631,
        1.050434,
        1.047989,
        1.039396,
        1.029382,
        1.01839,
        0.99627,
        1.007473,
        1.035503,
        1.053394,
        1.029637,
        0.999521,
        1.027207,
        1.040979,
        1.063269,
        1.076174,
        1.052047,
        1.031597,
        1.019871,
        1.005519,
        1.035974,
        1.066418,
        1.047502,
        1.026768,
        1.031628,
        1.03027,
        1.057405,
        1.05387,
        1.023443,
        1.009457,
        1.004788,
        0.992683,
        0.99416,
        1.007128,
        1.029416,
        1.030865,
        0.924263,
        0.849267,
        0.905239,
        0.947848,
        0.931396,
        0.965186,
        0.994016,
        1.009827,
        0.995159,
        0.995136,
        1.014996,
        1.016996,
        0.989841,
        0.98019,
        1.007177,
        1.032681,
        1.030791,
        1.01693,
        1.026746,
        1.011431,
        0.945093,
        0.925834,
        0.964151,
        1.000394,
        1.024747,
        1.050246,
        1.030459,
        1.01143,
        1.032595,
        1.055781,
        1.042286,
        1.01683,
        0.98368,
        0.972459,
        1.001659,
        1.01032,
        1.013016,
        1.025823,
        1.051584,
        1.047377,
        1.014165,
        0.995411,
        1.012631,
        1.025693,
        1.027027,
        1.011677,
        0.992428,
        0.97995,
        0.970968,
        0.983395,
        1.00494,
        1.021495,
        1.013636,
        0.997201,
        1.010048,
        1.030471,
        1.017336,
        1.008839,
        1.004485,
        1.008907,
        1.014374,
        1.020729,
        0.999506,
        0.989564,
        1.006216,
        1.011635,
        1.017924,
        1.012941,
        1.00304,
        1.004152,
        1.017853,
        1.031153,
        1.008703,
        0.993231,
        1.005589,
        1.022488,
        1.022062,
        1.017847,
        1.013835,
        1.009476,
        0.990308,
        0.989331,
        1.001952,
        1.005831,
        0.980005,
        0.955652,
        0.967203,
        0.975583,
        0.997732,
        1.017904,
        0.9985,
        0.986362,
        0.993103,
        1.007967,
        1.000849,
        0.984497,
        0.993067,
        0.997526,
        0.976656,
        0.960551,
        0.978591,
        0.994997,
        1.001019,
        0.982984,
        0.973037,
        0.983711,
        0.993402,
        0.979172,
        0.956769,
        0.940371,
        0.964593,
        0.992038,
        0.998095,
        0.992382,
        0.994003,
        0.994429,
        0.981953,
        0.967073,
        0.96713,
        0.976609,
        0.988102,
        0.992199,
        0.977226,
        0.960139,
        0.965458,
        0.973292,
        0.967654,
        0.97424,
        0.980985,
        0.982771,
        0.982161,
        0.986351,
        0.989444,
        0.995712,
        1.000129,
        0.99669,
        0.990175,
        0.981503,
        0.957685,
        0.957088,
        0.975305,
        0.98398,
        0.987049,
        0.978411,
        0.945168,
        0.897099,
        0.89931,
        0.937994,
        0.963356,
        0.966704,
        0.966334,
        0.969614,
        0.96857,
        0.965914,
        0.962779,
        0.96273,
        0.955474,
        0.946976,
        0.955469,
        0.965158,
        0.971046,
        0.967363,
        0.958075,
        0.951715,
        0.952404,
        0.954519,
        0.955939,
        0.950148,
        0.945754,
        0.940549,
        0.936491,
        0.926611,
        0.93452,
        0.953409,
        0.954897,
        0.94343,
        0.945409,
        0.945368,
        0.939011,
        0.937584,
        0.936015,
        0.944575,
        0.941867,
        0.932478,
        0.930043,
        0.932552,
        0.925308,
        0.920529,
        0.92152,
        0.940771,
        0.934648,
        0.923147,
        0.92669,
        0.927044,
        0.90621,
        0.895196,
        0.912475,
        0.921136,
        0.913877,
        0.892929,
        0.882137,
        0.895517,
        0.90563,
        0.909642,
        0.909444,
        0.902639,
        0.913356,
        0.91655,
        0.912183,
        0.920033,
        0.910096,
        0.90006,
        0.895469,
        0.889743,
        0.898,
        0.90014,
        0.892598,
        0.885889,
        0.872289,
        0.878259,
        0.888744,
        0.891755,
        0.871142,
        0.850615,
        0.87627,
        0.888747,
        0.871414,
        0.85991,
        0.871371,
        0.878635,
        0.862846,
        0.864503,
        0.883641,
        0.88244,
        0.865157,
        0.862613,
        0.879547,
        0.887378,
        0.878595,
        0.869878,
        0.879066,
        0.888098,
        0.887563,
        0.890308,
        0.884198,
        0.877185,
        0.86483,
        0.865902,
        0.869484,
        0.866386,
        0.866058,
        0.864986,
        0.872609,
        0.869603,
        0.858853,
        0.861283,
        0.863125,
        0.856207,
        0.856023,
        0.853832,
        0.854746,
        0.857925,
        0.855172,
        0.847446,
        0.848009,
        0.837358,
        0.823196,
        0.842145,
        0.861687,
        0.867141,
        0.857787,
        0.857153,
        0.862118,
        0.862135,
        0.862711,
        0.86441,
        0.859737,
        0.832138,
        0.778498,
        0.711895,
        0.710605,
        0.788424,
        0.830146,
        0.838216,
        0.833034,
        0.830827,
        0.830492,
        0.83995,
        0.839914,
        0.837721,
        0.845517,
        0.846082,
        0.84519,
        0.835287,
        0.83102,
        0.831534,
        0.832749,
        0.83404,
        0.839121,
        0.832809,
        0.826924,
        0.826964,
        0.824616,
        0.820058,
        0.830301,
        0.837337,
        0.833131,
        0.822115,
        0.822373,
        0.820691,
        0.812907,
        0.813054,
        0.818298,
        0.820508,
        0.826219,
        0.824791,
        0.823164,
        0.81256,
        0.813749,
        0.810589,
        0.803659,
        0.797453,
        0.801127,
        0.810764,
        0.807532,
        0.803017,
        0.801252,
        0.80469,
        0.80716,
        0.808557,
        0.809892,
        0.805588,
        0.803751,
        0.800401,
        0.797128,
        0.787742,
        0.787014,
        0.786285,
        0.785557,
        0.784828,
        0.7841,
        0.783371,
        0.782643,
        0.781914,
        0.781186,
        0.780457,
        0.779729,
        0.779001,
        0.778272,
        0.777544,
        0.776815,
        0.776087,
        0.775358,
        0.77463,
        0.773901,
        0.773173,
        0.772444,
        0.771716,
        0.770988,
        0.770259,
        0.769531,
        0.768802,
        0.773777,
        0.759111,
        0.763414,
        0.765782,
        0.772427,
        0.762483,
        0.754148,
        0.768117,
        0.761671,
        0.761163,
        0.758604,
        0.770606,
        0.770352,
        0.769662,
        0.777246,
        0.773786,
        0.77245,
        0.771281,
        0.762302,
        0.76757,
        0.770727,
        0.768342,
        0.768365,
        0.764183,
        0.763502,
        0.765831,
        0.765253,
        0.764592,
        0.762023,
        0.76279,
        0.76561,
        0.768525,
        0.781796,
        0.776322,
        0.767091,
        0.755356,
        0.766067,
        0.760863,
        0.738012,
        0.720634,
        0.722598,
        0.718612,
        0.701024,
        0.698014,
        0.707133,
        0.716457,
        0.720988,
        0.735467,
        0.75516,
        0.760507,
        0.751167,
        0.742898,
        0.728128,
        0.724468,
        0.72572,
        0.721043,
        0.708451,
        0.711226,
        0.720668,
        0.729914,
        0.717166,
        0.713077,
        0.707477,
        0.688074,
        0.709814,
        0.717436,
        0.706248,
        0.708805,
        0.718325,
        0.714082,
        0.714706,
        0.715323,
        0.71862,
        0.725523,
        0.721117,
        0.714568,
        0.713311,
        0.705189,
        0.706065,
        0.706914,
        0.707779,
        0.7121,
        0.697091,
        0.689396,
        0.691256,
        0.690852,
        0.685468,
        0.675927,
        0.682677,
        0.686587,
        0.696334,
        0.702631,
        0.702312,
        0.698319,
        0.693711,
        0.694801,
        0.696262,
        0.691917,
        0.699013,
        0.702077,
        0.699028,
        0.695243,
        0.694929,
        0.691535,
        0.684262,
        0.688451,
        0.6793,
        0.674301,
        0.683627,
        0.683616,
        0.680056,
        0.678876,
        0.68171,
        0.687632,
        0.681792,
        0.678138,
        0.67739,
        0.676641,
        0.675893,
        0.675144,
        0.674396,
        0.673647,
        0.672898,
        0.67215,
        0.671401,
        0.670653,
        0.669904,
        0.669155,
        0.668407,
        0.667658,
        0.66691,
        0.666161,
        0.665412,
        0.664664,
        0.663915,
        0.663167,
        0.662418,
        0.661669,
        0.660921,
        0.660172,
        0.659424,
        0.658675,
        0.657926,
        0.657178,
        0.656429,
        0.655681,
        0.654932,
        0.654184,
        0.653435,
        0.652686,
        0.651938,
        0.651189,
        0.65418,
        0.652601,
        0.64335,
        0.639081,
        0.643833,
        0.649064,
        0.650416,
        0.645664,
        0.638209,
        0.636815,
        0.638877,
        0.641246,
        0.639583,
        0.636764,
        0.636658,
        0.637752,
        0.641683,
        0.644315,
        0.641818,
        0.635755,
        0.633752,
        0.635604,
        0.635642,
        0.637077,
        0.64165,
        0.638316,
        0.636459,
        0.633191,
        0.631274,
        0.630462,
        0.635794,
        0.630887,
        0.627234,
        0.625743,
        0.629368,
        0.628775,
        0.62458,
        0.618839,
        0.620393,
        0.613423,
        0.612792,
        0.615337,
        0.609447,
        0.615946,
        0.615683,
        0.616344,
        0.62043,
        0.618528,
        0.620763,
        0.62467,
        0.62365,
        0.621443,
        0.612857,
        0.60472,
        0.611448,
        0.615226,
        0.61866,
        0.616718,
        0.606379,
        0.607558,
        0.613542,
        0.614391,
        0.60257,
        0.602278,
        0.608667,
        0.612057,
        0.616175,
        0.613221,
        0.612867,
        0.61267,
        0.607061,
        0.604375,
        0.600099,
        0.599027,
        0.602438,
        0.606213,
        0.606232,
        0.604749,
        0.604457,
        0.603442,
        0.59953,
        0.594135,
        0.589413,
        0.586905,
        0.586932,
        0.585546,
        0.579797,
        0.574991,
        0.576327,
        0.580314,
        0.581916,
        0.578592,
        0.571009,
        0.57017,
        0.584183,
        0.599231,
        0.599962,
        0.586804,
        0.566603,
        0.55609,
        0.567542,
        0.585516,
        0.592524,
        0.590604,
        0.5865,
        0.586267,
        0.592546,
        0.595014,
        0.585077,
        0.574022,
        0.573632,
        0.577813,
        0.578351,
        0.576468,
        0.575088,
        0.57452,
        0.574486,
        0.574976,
        0.575576,
        0.573995,
        0.569084,
        0.566132,
        0.569727,
        0.575236,
        0.577148,
        0.575689,
        0.572754,
        0.571186,
        0.572592,
        0.572709,
        0.568193,
        0.565251,
        0.569544,
        0.574993,
        0.574932,
        0.57303,
        0.572739,
        0.571033,
        0.570478,
        0.568598,
        0.56186,
        0.559252,
        0.561908,
        0.567361,
        0.572293,
        0.573632,
        0.570016,
        0.565067,
        0.563791,
        0.564451,
        0.568767,
        0.562248,
        0.523708,
        0.516226,
        0.541385,
        0.55294,
        0.550131,
        0.547237,
        0.545942,
        0.545179,
        0.522954,
        0.472612,
        0.459918,
        0.473346,
        0.498714,
        0.531757,
        0.543825,
        0.540355,
        0.538954,
        0.538202,
        0.536706,
        0.533745,
        0.531196,
        0.533904,
        0.536147,
        0.536124,
        0.535389,
        0.535151,
        0.539675,
        0.546364,
        0.547761,
        0.545548,
        0.542583,
        0.54315,
        0.531291,
        0.489103,
        0.467925,
        0.467913,
        0.495074,
        0.526522,
        0.519533,
        0.516517,
        0.53779,
        0.513832,
        0.532989,
        0.521429,
        0.521644,
        0.529561,
        0.527476,
        0.518455,
        0.516197,
        0.515269,
        0.514134,
        0.510955,
        0.520653,
        0.524016,
        0.517839,
        0.516268,
        0.523693,
        0.526193,
        0.522331,
        0.512002,
        0.521789,
        0.510891,
        0.495908,
        0.512794,
        0.524596,
        0.517431,
        0.518069,
        0.52533,
        0.51398,
        0.515411,
        0.516487,
        0.522578,
        0.514756,
        0.504384,
        0.505155,
        0.519215,
        0.51631,
        0.525139,
        0.528539,
        0.52491,
        0.517965,
        0.527885,
        0.524323,
        0.518726,
        0.522242,
        0.52131,
        0.509818,
        0.511043,
        0.509587,
        0.509107,
        0.509681,
        0.51036,
        0.509938,
        0.507211,
        0.501431,
        0.49369,
        0.485535,
        0.478515,
        0.473842,
        0.471381,
        0.470658,
        0.4712,
        0.472771,
        0.476073,
        0.482045,
        0.491627,
        0.505261,
        0.521401,
        0.538003,
        0.553025,
        0.564492,
        0.570704,
        0.570027,
        0.560829,
        0.542558,
        0.518983,
        0.494953,
        0.475317,
        0.463753,
        0.459252,
        0.459633,
        0.462714,
        0.466464,
        0.469441,
        0.470353,
        0.467908,
        0.461463,
        0.452979,
        0.445067,
        0.44034,
        0.440624,
        0.444602,
        0.450174,
        0.455241,
        0.458311,
        0.460337,
        0.462883,
        0.467513,
        0.475169,
        0.484317,
        0.492805,
        0.498477,
        0.499762,
        0.497412,
        0.492757,
        0.487133,
        0.481594,
        0.476095,
        0.470312,
        0.463923,
        0.457173,
        0.452586,
        0.453254,
        0.462271,
        0.481204,
        0.505519,
        0.529157,
        0.54606,
        0.551572,
        0.546646,
        0.533635,
        0.514897,
        0.492817,
        0.469909,
        0.448719,
        0.431793,
        0.420635,
        0.412589,
        0.403959,
        0.391047,
        0.371833,
        0.350997,
        0.334892,
        0.329875,
        0.34039,
        0.36325,
        0.393354,
        0.425604,
        0.455528,
        0.48116,
        0.501162,
        0.514195,
        0.519426,
        0.518041,
        0.511735,
        0.5022,
        0.490973,
        0.478961,
        0.466917,
        0.455594,
        0.445804,
        0.438616,
        0.435157,
        0.436556,
        0.443242,
        0.452839,
        0.462272,
        0.468464,
        0.469254,
        0.466139,
        0.461532,
        0.457843,
        0.456813,
        0.457501,
        0.458293,
        0.457578,
        0.454371,
        0.450216,
        0.447282,
        0.447742,
        0.452788,
        0.459695,
        0.464757,
        0.464271,
        0.455829,
        0.442223,
        0.427541,
        0.415872,
        0.410289,
        0.409803,
        0.412408,
        0.416096,
        0.419113,
        0.420705,
        0.420373,
        0.417612,
        0.41217,
        0.404781,
        0.396427,
        0.388091,
        0.380836,
        0.376046,
        0.375188,
        0.379728,
        0.390317,
        0.404355,
        0.418426,
        0.429116,
        0.433934,
        0.434089,
        0.431714,
        0.428944,
        0.427418,
        0.426798,
        0.426254,
        0.424956,
        0.422171,
        0.417571,
        0.410925,
        0.402004,
        0.39103,
        0.380031,
        0.371491,
        0.367888,
        0.370724,
        0.377566,
        0.385002,
        0.389618,
        0.389033,
        0.384999,
        0.380297,
        0.377711,
        0.379204,
        0.383463,
        0.388355,
        0.391744,
        0.392067,
        0.390027,
        0.386898,
        0.383951,
        0.382202,
        0.381641,
        0.382001,
        0.383012,
        0.384424,
        0.386038,
        0.387676,
        0.389154,
        0.390314,
        0.391084,
        0.391416,
        0.39126,
        0.39061,
        0.389634,
        0.388543,
        0.387548,
        0.386835,
        0.386496,
        0.386597,
        0.387206,
        0.388316,
        0.389632,
        0.390784,
        0.391404,
        0.391228,
        0.390424,
        0.389266,
        0.388027,
        0.386976,
        0.386358,
        0.386412,
        0.387378,
        0.389258,
        0.391112,
        0.391759,
        0.39002,
        0.385203,
        0.378557,
        0.371818,
        0.366721,
        0.364535,
        0.364666,
        0.366054,
        0.367638,
        0.368587,
        0.36899,
        0.369165,
        0.369431,
        0.370032,
        0.37091,
        0.371934,
        0.372974,
        0.373858,
        0.374253,
        0.373787,
        0.372088,
        0.36903,
        0.365471,
        0.362518,
        0.361276,
        0.362433,
        0.365014,
        0.367625,
        0.368873,
        0.367827,
        0.365402,
        0.362974,
        0.361919,
        0.363145,
        0.365676,
        0.368067,
        0.368872,
        0.367133,
        0.363843,
        0.360478,
        0.358517,
        0.358947,
        0.360791,
        0.36258,
        0.362845,
        0.360598,
        0.35677,
        0.352774,
        0.350022,
        0.349547,
        0.350871,
        0.353135,
        0.355481,
        0.357204,
        0.358213,
        0.358573,
        0.358347,
        0.358912,
        0.358094,
        0.35704,
        0.355763,
        0.354317,
        0.352913,
        0.3518,
        0.351228,
        0.351348,
        0.351901,
        0.352532,
        0.352882,
        0.352735,
        0.35243,
        0.352447,
        0.353268,
        0.355155,
        0.357505,
        0.359498,
        0.360313,
        0.359411,
        0.357374,
        0.355062,
        0.353336,
        0.352794,
        0.352975,
        0.353155,
        0.35261,
        0.350878,
        0.348556,
        0.346502,
        0.345576,
        0.346344,
        0.3482,
        0.350245,
        0.351582,
        0.351563,
        0.35055,
        0.34916,
        0.348007
      ],
      "range":1
    }
  }
]
