[
  {
    "model":"Star, type M4(iii)",
    "name":"Star, type M4(iii)",
    "type":"WB_REF",
    "dataQualityMarker":3,
    "dataSource":"https://www.eso.org/sci/facilities/paranal/decommissioned/isaac/tools/lib.html",
    "manufacturer":"A. Pickles (A.J. Pickles, PASP 110,863, 1998)",
    "version":1,
    "wavelength":{
      "value":[
        1150.0,
        1155.0,
        1160.0,
        1165.0,
        1170.0,
        1175.0,
        1180.0,
        1185.0,
        1190.0,
        1195.0,
        1200.0,
        1205.0,
        1210.0,
        1215.0,
        1220.0,
        1225.0,
        1230.0,
        1235.0,
        1240.0,
        1245.0,
        1250.0,
        1255.0,
        1260.0,
        1265.0,
        1270.0,
        1275.0,
        1280.0,
        1285.0,
        1290.0,
        1295.0,
        1300.0,
        1305.0,
        1310.0,
        1315.0,
        1320.0,
        1325.0,
        1330.0,
        1335.0,
        1340.0,
        1345.0,
        1350.0,
        1355.0,
        1360.0,
        1365.0,
        1370.0,
        1375.0,
        1380.0,
        1385.0,
        1390.0,
        1395.0,
        1400.0,
        1405.0,
        1410.0,
        1415.0,
        1420.0,
        1425.0,
        1430.0,
        1435.0,
        1440.0,
        1445.0,
        1450.0,
        1455.0,
        1460.0,
        1465.0,
        1470.0,
        1475.0,
        1480.0,
        1485.0,
        1490.0,
        1495.0,
        1500.0,
        1505.0,
        1510.0,
        1515.0,
        1520.0,
        1525.0,
        1530.0,
        1535.0,
        1540.0,
        1545.0,
        1550.0,
        1555.0,
        1560.0,
        1565.0,
        1570.0,
        1575.0,
        1580.0,
        1585.0,
        1590.0,
        1595.0,
        1600.0,
        1605.0,
        1610.0,
        1615.0,
        1620.0,
        1625.0,
        1630.0,
        1635.0,
        1640.0,
        1645.0,
        1650.0,
        1655.0,
        1660.0,
        1665.0,
        1670.0,
        1675.0,
        1680.0,
        1685.0,
        1690.0,
        1695.0,
        1700.0,
        1705.0,
        1710.0,
        1715.0,
        1720.0,
        1725.0,
        1730.0,
        1735.0,
        1740.0,
        1745.0,
        1750.0,
        1755.0,
        1760.0,
        1765.0,
        1770.0,
        1775.0,
        1780.0,
        1785.0,
        1790.0,
        1795.0,
        1800.0,
        1805.0,
        1810.0,
        1815.0,
        1820.0,
        1825.0,
        1830.0,
        1835.0,
        1840.0,
        1845.0,
        1850.0,
        1855.0,
        1860.0,
        1865.0,
        1870.0,
        1875.0,
        1880.0,
        1885.0,
        1890.0,
        1895.0,
        1900.0,
        1905.0,
        1910.0,
        1915.0,
        1920.0,
        1925.0,
        1930.0,
        1935.0,
        1940.0,
        1945.0,
        1950.0,
        1955.0,
        1960.0,
        1965.0,
        1970.0,
        1975.0,
        1980.0,
        1985.0,
        1990.0,
        1995.0,
        2000.0,
        2005.0,
        2010.0,
        2015.0,
        2020.0,
        2025.0,
        2030.0,
        2035.0,
        2040.0,
        2045.0,
        2050.0,
        2055.0,
        2060.0,
        2065.0,
        2070.0,
        2075.0,
        2080.0,
        2085.0,
        2090.0,
        2095.0,
        2100.0,
        2105.0,
        2110.0,
        2115.0,
        2120.0,
        2125.0,
        2130.0,
        2135.0,
        2140.0,
        2145.0,
        2150.0,
        2155.0,
        2160.0,
        2165.0,
        2170.0,
        2175.0,
        2180.0,
        2185.0,
        2190.0,
        2195.0,
        2200.0,
        2205.0,
        2210.0,
        2215.0,
        2220.0,
        2225.0,
        2230.0,
        2235.0,
        2240.0,
        2245.0,
        2250.0,
        2255.0,
        2260.0,
        2265.0,
        2270.0,
        2275.0,
        2280.0,
        2285.0,
        2290.0,
        2295.0,
        2300.0,
        2305.0,
        2310.0,
        2315.0,
        2320.0,
        2325.0,
        2330.0,
        2335.0,
        2340.0,
        2345.0,
        2350.0,
        2355.0,
        2360.0,
        2365.0,
        2370.0,
        2375.0,
        2380.0,
        2385.0,
        2390.0,
        2395.0,
        2400.0,
        2405.0,
        2410.0,
        2415.0,
        2420.0,
        2425.0,
        2430.0,
        2435.0,
        2440.0,
        2445.0,
        2450.0,
        2455.0,
        2460.0,
        2465.0,
        2470.0,
        2475.0,
        2480.0,
        2485.0,
        2490.0,
        2495.0,
        2500.0,
        2505.0,
        2510.0,
        2515.0,
        2520.0,
        2525.0,
        2530.0,
        2535.0,
        2540.0,
        2545.0,
        2550.0,
        2555.0,
        2560.0,
        2565.0,
        2570.0,
        2575.0,
        2580.0,
        2585.0,
        2590.0,
        2595.0,
        2600.0,
        2605.0,
        2610.0,
        2615.0,
        2620.0,
        2625.0,
        2630.0,
        2635.0,
        2640.0,
        2645.0,
        2650.0,
        2655.0,
        2660.0,
        2665.0,
        2670.0,
        2675.0,
        2680.0,
        2685.0,
        2690.0,
        2695.0,
        2700.0,
        2705.0,
        2710.0,
        2715.0,
        2720.0,
        2725.0,
        2730.0,
        2735.0,
        2740.0,
        2745.0,
        2750.0,
        2755.0,
        2760.0,
        2765.0,
        2770.0,
        2775.0,
        2780.0,
        2785.0,
        2790.0,
        2795.0,
        2800.0,
        2805.0,
        2810.0,
        2815.0,
        2820.0,
        2825.0,
        2830.0,
        2835.0,
        2840.0,
        2845.0,
        2850.0,
        2855.0,
        2860.0,
        2865.0,
        2870.0,
        2875.0,
        2880.0,
        2885.0,
        2890.0,
        2895.0,
        2900.0,
        2905.0,
        2910.0,
        2915.0,
        2920.0,
        2925.0,
        2930.0,
        2935.0,
        2940.0,
        2945.0,
        2950.0,
        2955.0,
        2960.0,
        2965.0,
        2970.0,
        2975.0,
        2980.0,
        2985.0,
        2990.0,
        2995.0,
        3000.0,
        3005.0,
        3010.0,
        3015.0,
        3020.0,
        3025.0,
        3030.0,
        3035.0,
        3040.0,
        3045.0,
        3050.0,
        3055.0,
        3060.0,
        3065.0,
        3070.0,
        3075.0,
        3080.0,
        3085.0,
        3090.0,
        3095.0,
        3100.0,
        3105.0,
        3110.0,
        3115.0,
        3120.0,
        3125.0,
        3130.0,
        3135.0,
        3140.0,
        3145.0,
        3150.0,
        3155.0,
        3160.0,
        3165.0,
        3170.0,
        3175.0,
        3180.0,
        3185.0,
        3190.0,
        3195.0,
        3200.0,
        3205.0,
        3210.0,
        3215.0,
        3220.0,
        3225.0,
        3230.0,
        3235.0,
        3240.0,
        3245.0,
        3250.0,
        3255.0,
        3260.0,
        3265.0,
        3270.0,
        3275.0,
        3280.0,
        3285.0,
        3290.0,
        3295.0,
        3300.0,
        3305.0,
        3310.0,
        3315.0,
        3320.0,
        3325.0,
        3330.0,
        3335.0,
        3340.0,
        3345.0,
        3350.0,
        3355.0,
        3360.0,
        3365.0,
        3370.0,
        3375.0,
        3380.0,
        3385.0,
        3390.0,
        3395.0,
        3400.0,
        3405.0,
        3410.0,
        3415.0,
        3420.0,
        3425.0,
        3430.0,
        3435.0,
        3440.0,
        3445.0,
        3450.0,
        3455.0,
        3460.0,
        3465.0,
        3470.0,
        3475.0,
        3480.0,
        3485.0,
        3490.0,
        3495.0,
        3500.0,
        3505.0,
        3510.0,
        3515.0,
        3520.0,
        3525.0,
        3530.0,
        3535.0,
        3540.0,
        3545.0,
        3550.0,
        3555.0,
        3560.0,
        3565.0,
        3570.0,
        3575.0,
        3580.0,
        3585.0,
        3590.0,
        3595.0,
        3600.0,
        3605.0,
        3610.0,
        3615.0,
        3620.0,
        3625.0,
        3630.0,
        3635.0,
        3640.0,
        3645.0,
        3650.0,
        3655.0,
        3660.0,
        3665.0,
        3670.0,
        3675.0,
        3680.0,
        3685.0,
        3690.0,
        3695.0,
        3700.0,
        3705.0,
        3710.0,
        3715.0,
        3720.0,
        3725.0,
        3730.0,
        3735.0,
        3740.0,
        3745.0,
        3750.0,
        3755.0,
        3760.0,
        3765.0,
        3770.0,
        3775.0,
        3780.0,
        3785.0,
        3790.0,
        3795.0,
        3800.0,
        3805.0,
        3810.0,
        3815.0,
        3820.0,
        3825.0,
        3830.0,
        3835.0,
        3840.0,
        3845.0,
        3850.0,
        3855.0,
        3860.0,
        3865.0,
        3870.0,
        3875.0,
        3880.0,
        3885.0,
        3890.0,
        3895.0,
        3900.0,
        3905.0,
        3910.0,
        3915.0,
        3920.0,
        3925.0,
        3930.0,
        3935.0,
        3940.0,
        3945.0,
        3950.0,
        3955.0,
        3960.0,
        3965.0,
        3970.0,
        3975.0,
        3980.0,
        3985.0,
        3990.0,
        3995.0,
        4000.0,
        4005.0,
        4010.0,
        4015.0,
        4020.0,
        4025.0,
        4030.0,
        4035.0,
        4040.0,
        4045.0,
        4050.0,
        4055.0,
        4060.0,
        4065.0,
        4070.0,
        4075.0,
        4080.0,
        4085.0,
        4090.0,
        4095.0,
        4100.0,
        4105.0,
        4110.0,
        4115.0,
        4120.0,
        4125.0,
        4130.0,
        4135.0,
        4140.0,
        4145.0,
        4150.0,
        4155.0,
        4160.0,
        4165.0,
        4170.0,
        4175.0,
        4180.0,
        4185.0,
        4190.0,
        4195.0,
        4200.0,
        4205.0,
        4210.0,
        4215.0,
        4220.0,
        4225.0,
        4230.0,
        4235.0,
        4240.0,
        4245.0,
        4250.0,
        4255.0,
        4260.0,
        4265.0,
        4270.0,
        4275.0,
        4280.0,
        4285.0,
        4290.0,
        4295.0,
        4300.0,
        4305.0,
        4310.0,
        4315.0,
        4320.0,
        4325.0,
        4330.0,
        4335.0,
        4340.0,
        4345.0,
        4350.0,
        4355.0,
        4360.0,
        4365.0,
        4370.0,
        4375.0,
        4380.0,
        4385.0,
        4390.0,
        4395.0,
        4400.0,
        4405.0,
        4410.0,
        4415.0,
        4420.0,
        4425.0,
        4430.0,
        4435.0,
        4440.0,
        4445.0,
        4450.0,
        4455.0,
        4460.0,
        4465.0,
        4470.0,
        4475.0,
        4480.0,
        4485.0,
        4490.0,
        4495.0,
        4500.0,
        4505.0,
        4510.0,
        4515.0,
        4520.0,
        4525.0,
        4530.0,
        4535.0,
        4540.0,
        4545.0,
        4550.0,
        4555.0,
        4560.0,
        4565.0,
        4570.0,
        4575.0,
        4580.0,
        4585.0,
        4590.0,
        4595.0,
        4600.0,
        4605.0,
        4610.0,
        4615.0,
        4620.0,
        4625.0,
        4630.0,
        4635.0,
        4640.0,
        4645.0,
        4650.0,
        4655.0,
        4660.0,
        4665.0,
        4670.0,
        4675.0,
        4680.0,
        4685.0,
        4690.0,
        4695.0,
        4700.0,
        4705.0,
        4710.0,
        4715.0,
        4720.0,
        4725.0,
        4730.0,
        4735.0,
        4740.0,
        4745.0,
        4750.0,
        4755.0,
        4760.0,
        4765.0,
        4770.0,
        4775.0,
        4780.0,
        4785.0,
        4790.0,
        4795.0,
        4800.0,
        4805.0,
        4810.0,
        4815.0,
        4820.0,
        4825.0,
        4830.0,
        4835.0,
        4840.0,
        4845.0,
        4850.0,
        4855.0,
        4860.0,
        4865.0,
        4870.0,
        4875.0,
        4880.0,
        4885.0,
        4890.0,
        4895.0,
        4900.0,
        4905.0,
        4910.0,
        4915.0,
        4920.0,
        4925.0,
        4930.0,
        4935.0,
        4940.0,
        4945.0,
        4950.0,
        4955.0,
        4960.0,
        4965.0,
        4970.0,
        4975.0,
        4980.0,
        4985.0,
        4990.0,
        4995.0,
        5000.0,
        5005.0,
        5010.0,
        5015.0,
        5020.0,
        5025.0,
        5030.0,
        5035.0,
        5040.0,
        5045.0,
        5050.0,
        5055.0,
        5060.0,
        5065.0,
        5070.0,
        5075.0,
        5080.0,
        5085.0,
        5090.0,
        5095.0,
        5100.0,
        5105.0,
        5110.0,
        5115.0,
        5120.0,
        5125.0,
        5130.0,
        5135.0,
        5140.0,
        5145.0,
        5150.0,
        5155.0,
        5160.0,
        5165.0,
        5170.0,
        5175.0,
        5180.0,
        5185.0,
        5190.0,
        5195.0,
        5200.0,
        5205.0,
        5210.0,
        5215.0,
        5220.0,
        5225.0,
        5230.0,
        5235.0,
        5240.0,
        5245.0,
        5250.0,
        5255.0,
        5260.0,
        5265.0,
        5270.0,
        5275.0,
        5280.0,
        5285.0,
        5290.0,
        5295.0,
        5300.0,
        5305.0,
        5310.0,
        5315.0,
        5320.0,
        5325.0,
        5330.0,
        5335.0,
        5340.0,
        5345.0,
        5350.0,
        5355.0,
        5360.0,
        5365.0,
        5370.0,
        5375.0,
        5380.0,
        5385.0,
        5390.0,
        5395.0,
        5400.0,
        5405.0,
        5410.0,
        5415.0,
        5420.0,
        5425.0,
        5430.0,
        5435.0,
        5440.0,
        5445.0,
        5450.0,
        5455.0,
        5460.0,
        5465.0,
        5470.0,
        5475.0,
        5480.0,
        5485.0,
        5490.0,
        5495.0,
        5500.0,
        5505.0,
        5510.0,
        5515.0,
        5520.0,
        5525.0,
        5530.0,
        5535.0,
        5540.0,
        5545.0,
        5550.0,
        5555.0,
        5560.0,
        5565.0,
        5570.0,
        5575.0,
        5580.0,
        5585.0,
        5590.0,
        5595.0,
        5600.0,
        5605.0,
        5610.0,
        5615.0,
        5620.0,
        5625.0,
        5630.0,
        5635.0,
        5640.0,
        5645.0,
        5650.0,
        5655.0,
        5660.0,
        5665.0,
        5670.0,
        5675.0,
        5680.0,
        5685.0,
        5690.0,
        5695.0,
        5700.0,
        5705.0,
        5710.0,
        5715.0,
        5720.0,
        5725.0,
        5730.0,
        5735.0,
        5740.0,
        5745.0,
        5750.0,
        5755.0,
        5760.0,
        5765.0,
        5770.0,
        5775.0,
        5780.0,
        5785.0,
        5790.0,
        5795.0,
        5800.0,
        5805.0,
        5810.0,
        5815.0,
        5820.0,
        5825.0,
        5830.0,
        5835.0,
        5840.0,
        5845.0,
        5850.0,
        5855.0,
        5860.0,
        5865.0,
        5870.0,
        5875.0,
        5880.0,
        5885.0,
        5890.0,
        5895.0,
        5900.0,
        5905.0,
        5910.0,
        5915.0,
        5920.0,
        5925.0,
        5930.0,
        5935.0,
        5940.0,
        5945.0,
        5950.0,
        5955.0,
        5960.0,
        5965.0,
        5970.0,
        5975.0,
        5980.0,
        5985.0,
        5990.0,
        5995.0,
        6000.0,
        6005.0,
        6010.0,
        6015.0,
        6020.0,
        6025.0,
        6030.0,
        6035.0,
        6040.0,
        6045.0,
        6050.0,
        6055.0,
        6060.0,
        6065.0,
        6070.0,
        6075.0,
        6080.0,
        6085.0,
        6090.0,
        6095.0,
        6100.0,
        6105.0,
        6110.0,
        6115.0,
        6120.0,
        6125.0,
        6130.0,
        6135.0,
        6140.0,
        6145.0,
        6150.0,
        6155.0,
        6160.0,
        6165.0,
        6170.0,
        6175.0,
        6180.0,
        6185.0,
        6190.0,
        6195.0,
        6200.0,
        6205.0,
        6210.0,
        6215.0,
        6220.0,
        6225.0,
        6230.0,
        6235.0,
        6240.0,
        6245.0,
        6250.0,
        6255.0,
        6260.0,
        6265.0,
        6270.0,
        6275.0,
        6280.0,
        6285.0,
        6290.0,
        6295.0,
        6300.0,
        6305.0,
        6310.0,
        6315.0,
        6320.0,
        6325.0,
        6330.0,
        6335.0,
        6340.0,
        6345.0,
        6350.0,
        6355.0,
        6360.0,
        6365.0,
        6370.0,
        6375.0,
        6380.0,
        6385.0,
        6390.0,
        6395.0,
        6400.0,
        6405.0,
        6410.0,
        6415.0,
        6420.0,
        6425.0,
        6430.0,
        6435.0,
        6440.0,
        6445.0,
        6450.0,
        6455.0,
        6460.0,
        6465.0,
        6470.0,
        6475.0,
        6480.0,
        6485.0,
        6490.0,
        6495.0,
        6500.0,
        6505.0,
        6510.0,
        6515.0,
        6520.0,
        6525.0,
        6530.0,
        6535.0,
        6540.0,
        6545.0,
        6550.0,
        6555.0,
        6560.0,
        6565.0,
        6570.0,
        6575.0,
        6580.0,
        6585.0,
        6590.0,
        6595.0,
        6600.0,
        6605.0,
        6610.0,
        6615.0,
        6620.0,
        6625.0,
        6630.0,
        6635.0,
        6640.0,
        6645.0,
        6650.0,
        6655.0,
        6660.0,
        6665.0,
        6670.0,
        6675.0,
        6680.0,
        6685.0,
        6690.0,
        6695.0,
        6700.0,
        6705.0,
        6710.0,
        6715.0,
        6720.0,
        6725.0,
        6730.0,
        6735.0,
        6740.0,
        6745.0,
        6750.0,
        6755.0,
        6760.0,
        6765.0,
        6770.0,
        6775.0,
        6780.0,
        6785.0,
        6790.0,
        6795.0,
        6800.0,
        6805.0,
        6810.0,
        6815.0,
        6820.0,
        6825.0,
        6830.0,
        6835.0,
        6840.0,
        6845.0,
        6850.0,
        6855.0,
        6860.0,
        6865.0,
        6870.0,
        6875.0,
        6880.0,
        6885.0,
        6890.0,
        6895.0,
        6900.0,
        6905.0,
        6910.0,
        6915.0,
        6920.0,
        6925.0,
        6930.0,
        6935.0,
        6940.0,
        6945.0,
        6950.0,
        6955.0,
        6960.0,
        6965.0,
        6970.0,
        6975.0,
        6980.0,
        6985.0,
        6990.0,
        6995.0,
        7000.0,
        7005.0,
        7010.0,
        7015.0,
        7020.0,
        7025.0,
        7030.0,
        7035.0,
        7040.0,
        7045.0,
        7050.0,
        7055.0,
        7060.0,
        7065.0,
        7070.0,
        7075.0,
        7080.0,
        7085.0,
        7090.0,
        7095.0,
        7100.0,
        7105.0,
        7110.0,
        7115.0,
        7120.0,
        7125.0,
        7130.0,
        7135.0,
        7140.0,
        7145.0,
        7150.0,
        7155.0,
        7160.0,
        7165.0,
        7170.0,
        7175.0,
        7180.0,
        7185.0,
        7190.0,
        7195.0,
        7200.0,
        7205.0,
        7210.0,
        7215.0,
        7220.0,
        7225.0,
        7230.0,
        7235.0,
        7240.0,
        7245.0,
        7250.0,
        7255.0,
        7260.0,
        7265.0,
        7270.0,
        7275.0,
        7280.0,
        7285.0,
        7290.0,
        7295.0,
        7300.0,
        7305.0,
        7310.0,
        7315.0,
        7320.0,
        7325.0,
        7330.0,
        7335.0,
        7340.0,
        7345.0,
        7350.0,
        7355.0,
        7360.0,
        7365.0,
        7370.0,
        7375.0,
        7380.0,
        7385.0,
        7390.0,
        7395.0,
        7400.0,
        7405.0,
        7410.0,
        7415.0,
        7420.0,
        7425.0,
        7430.0,
        7435.0,
        7440.0,
        7445.0,
        7450.0,
        7455.0,
        7460.0,
        7465.0,
        7470.0,
        7475.0,
        7480.0,
        7485.0,
        7490.0,
        7495.0,
        7500.0,
        7505.0,
        7510.0,
        7515.0,
        7520.0,
        7525.0,
        7530.0,
        7535.0,
        7540.0,
        7545.0,
        7550.0,
        7555.0,
        7560.0,
        7565.0,
        7570.0,
        7575.0,
        7580.0,
        7585.0,
        7590.0,
        7595.0,
        7600.0,
        7605.0,
        7610.0,
        7615.0,
        7620.0,
        7625.0,
        7630.0,
        7635.0,
        7640.0,
        7645.0,
        7650.0,
        7655.0,
        7660.0,
        7665.0,
        7670.0,
        7675.0,
        7680.0,
        7685.0,
        7690.0,
        7695.0,
        7700.0,
        7705.0,
        7710.0,
        7715.0,
        7720.0,
        7725.0,
        7730.0,
        7735.0,
        7740.0,
        7745.0,
        7750.0,
        7755.0,
        7760.0,
        7765.0,
        7770.0,
        7775.0,
        7780.0,
        7785.0,
        7790.0,
        7795.0,
        7800.0,
        7805.0,
        7810.0,
        7815.0,
        7820.0,
        7825.0,
        7830.0,
        7835.0,
        7840.0,
        7845.0,
        7850.0,
        7855.0,
        7860.0,
        7865.0,
        7870.0,
        7875.0,
        7880.0,
        7885.0,
        7890.0,
        7895.0,
        7900.0,
        7905.0,
        7910.0,
        7915.0,
        7920.0,
        7925.0,
        7930.0,
        7935.0,
        7940.0,
        7945.0,
        7950.0,
        7955.0,
        7960.0,
        7965.0,
        7970.0,
        7975.0,
        7980.0,
        7985.0,
        7990.0,
        7995.0,
        8000.0,
        8005.0,
        8010.0,
        8015.0,
        8020.0,
        8025.0,
        8030.0,
        8035.0,
        8040.0,
        8045.0,
        8050.0,
        8055.0,
        8060.0,
        8065.0,
        8070.0,
        8075.0,
        8080.0,
        8085.0,
        8090.0,
        8095.0,
        8100.0,
        8105.0,
        8110.0,
        8115.0,
        8120.0,
        8125.0,
        8130.0,
        8135.0,
        8140.0,
        8145.0,
        8150.0,
        8155.0,
        8160.0,
        8165.0,
        8170.0,
        8175.0,
        8180.0,
        8185.0,
        8190.0,
        8195.0,
        8200.0,
        8205.0,
        8210.0,
        8215.0,
        8220.0,
        8225.0,
        8230.0,
        8235.0,
        8240.0,
        8245.0,
        8250.0,
        8255.0,
        8260.0,
        8265.0,
        8270.0,
        8275.0,
        8280.0,
        8285.0,
        8290.0,
        8295.0,
        8300.0,
        8305.0,
        8310.0,
        8315.0,
        8320.0,
        8325.0,
        8330.0,
        8335.0,
        8340.0,
        8345.0,
        8350.0,
        8355.0,
        8360.0,
        8365.0,
        8370.0,
        8375.0,
        8380.0,
        8385.0,
        8390.0,
        8395.0,
        8400.0,
        8405.0,
        8410.0,
        8415.0,
        8420.0,
        8425.0,
        8430.0,
        8435.0,
        8440.0,
        8445.0,
        8450.0,
        8455.0,
        8460.0,
        8465.0,
        8470.0,
        8475.0,
        8480.0,
        8485.0,
        8490.0,
        8495.0,
        8500.0,
        8505.0,
        8510.0,
        8515.0,
        8520.0,
        8525.0,
        8530.0,
        8535.0,
        8540.0,
        8545.0,
        8550.0,
        8555.0,
        8560.0,
        8565.0,
        8570.0,
        8575.0,
        8580.0,
        8585.0,
        8590.0,
        8595.0,
        8600.0,
        8605.0,
        8610.0,
        8615.0,
        8620.0,
        8625.0,
        8630.0,
        8635.0,
        8640.0,
        8645.0,
        8650.0,
        8655.0,
        8660.0,
        8665.0,
        8670.0,
        8675.0,
        8680.0,
        8685.0,
        8690.0,
        8695.0,
        8700.0,
        8705.0,
        8710.0,
        8715.0,
        8720.0,
        8725.0,
        8730.0,
        8735.0,
        8740.0,
        8745.0,
        8750.0,
        8755.0,
        8760.0,
        8765.0,
        8770.0,
        8775.0,
        8780.0,
        8785.0,
        8790.0,
        8795.0,
        8800.0,
        8805.0,
        8810.0,
        8815.0,
        8820.0,
        8825.0,
        8830.0,
        8835.0,
        8840.0,
        8845.0,
        8850.0,
        8855.0,
        8860.0,
        8865.0,
        8870.0,
        8875.0,
        8880.0,
        8885.0,
        8890.0,
        8895.0,
        8900.0,
        8905.0,
        8910.0,
        8915.0,
        8920.0,
        8925.0,
        8930.0,
        8935.0,
        8940.0,
        8945.0,
        8950.0,
        8955.0,
        8960.0,
        8965.0,
        8970.0,
        8975.0,
        8980.0,
        8985.0,
        8990.0,
        8995.0,
        9000.0,
        9005.0,
        9010.0,
        9015.0,
        9020.0,
        9025.0,
        9030.0,
        9035.0,
        9040.0,
        9045.0,
        9050.0,
        9055.0,
        9060.0,
        9065.0,
        9070.0,
        9075.0,
        9080.0,
        9085.0,
        9090.0,
        9095.0,
        9100.0,
        9105.0,
        9110.0,
        9115.0,
        9120.0,
        9125.0,
        9130.0,
        9135.0,
        9140.0,
        9145.0,
        9150.0,
        9155.0,
        9160.0,
        9165.0,
        9170.0,
        9175.0,
        9180.0,
        9185.0,
        9190.0,
        9195.0,
        9200.0,
        9205.0,
        9210.0,
        9215.0,
        9220.0,
        9225.0,
        9230.0,
        9235.0,
        9240.0,
        9245.0,
        9250.0,
        9255.0,
        9260.0,
        9265.0,
        9270.0,
        9275.0,
        9280.0,
        9285.0,
        9290.0,
        9295.0,
        9300.0,
        9305.0,
        9310.0,
        9315.0,
        9320.0,
        9325.0,
        9330.0,
        9335.0,
        9340.0,
        9345.0,
        9350.0,
        9355.0,
        9360.0,
        9365.0,
        9370.0,
        9375.0,
        9380.0,
        9385.0,
        9390.0,
        9395.0,
        9400.0,
        9405.0,
        9410.0,
        9415.0,
        9420.0,
        9425.0,
        9430.0,
        9435.0,
        9440.0,
        9445.0,
        9450.0,
        9455.0,
        9460.0,
        9465.0,
        9470.0,
        9475.0,
        9480.0,
        9485.0,
        9490.0,
        9495.0,
        9500.0,
        9505.0,
        9510.0,
        9515.0,
        9520.0,
        9525.0,
        9530.0,
        9535.0,
        9540.0,
        9545.0,
        9550.0,
        9555.0,
        9560.0,
        9565.0,
        9570.0,
        9575.0,
        9580.0,
        9585.0,
        9590.0,
        9595.0,
        9600.0,
        9605.0,
        9610.0,
        9615.0,
        9620.0,
        9625.0,
        9630.0,
        9635.0,
        9640.0,
        9645.0,
        9650.0,
        9655.0,
        9660.0,
        9665.0,
        9670.0,
        9675.0,
        9680.0,
        9685.0,
        9690.0,
        9695.0,
        9700.0,
        9705.0,
        9710.0,
        9715.0,
        9720.0,
        9725.0,
        9730.0,
        9735.0,
        9740.0,
        9745.0,
        9750.0,
        9755.0,
        9760.0,
        9765.0,
        9770.0,
        9775.0,
        9780.0,
        9785.0,
        9790.0,
        9795.0,
        9800.0,
        9805.0,
        9810.0,
        9815.0,
        9820.0,
        9825.0,
        9830.0,
        9835.0,
        9840.0,
        9845.0,
        9850.0,
        9855.0,
        9860.0,
        9865.0,
        9870.0,
        9875.0,
        9880.0,
        9885.0,
        9890.0,
        9895.0,
        9900.0,
        9905.0,
        9910.0,
        9915.0,
        9920.0,
        9925.0,
        9930.0,
        9935.0,
        9940.0,
        9945.0,
        9950.0,
        9955.0,
        9960.0,
        9965.0,
        9970.0,
        9975.0,
        9980.0,
        9985.0,
        9990.0,
        9995.0,
        10000.0,
        10005.0,
        10010.0,
        10015.0,
        10020.0,
        10025.0,
        10030.0,
        10035.0,
        10040.0,
        10045.0,
        10050.0,
        10055.0,
        10060.0,
        10065.0,
        10070.0,
        10075.0,
        10080.0,
        10085.0,
        10090.0,
        10095.0,
        10100.0,
        10105.0,
        10110.0,
        10115.0,
        10120.0,
        10125.0,
        10130.0,
        10135.0,
        10140.0,
        10145.0,
        10150.0,
        10155.0,
        10160.0,
        10165.0,
        10170.0,
        10175.0,
        10180.0,
        10185.0,
        10190.0,
        10195.0,
        10200.0,
        10205.0,
        10210.0,
        10215.0,
        10220.0,
        10225.0,
        10230.0,
        10235.0,
        10240.0,
        10245.0,
        10250.0,
        10255.0,
        10260.0,
        10265.0,
        10270.0,
        10275.0,
        10280.0,
        10285.0,
        10290.0,
        10295.0,
        10300.0,
        10305.0,
        10310.0,
        10315.0,
        10320.0,
        10325.0,
        10330.0,
        10335.0,
        10340.0,
        10345.0,
        10350.0,
        10355.0,
        10360.0,
        10365.0,
        10370.0,
        10375.0,
        10380.0,
        10385.0,
        10390.0,
        10395.0,
        10400.0,
        10405.0,
        10410.0,
        10415.0,
        10420.0,
        10425.0,
        10430.0,
        10435.0,
        10440.0,
        10445.0,
        10450.0,
        10455.0,
        10460.0,
        10465.0,
        10470.0,
        10475.0,
        10480.0,
        10485.0,
        10490.0,
        10495.0,
        10500.0
      ],
      "units":"angstrom"
    },
    "values":{
      "value":[
        0.0,
        0.0,
        0.0,
        0.0,
        0.0,
        0.0,
        0.0,
        0.0,
        0.0,
        0.0,
        0.0,
        0.0,
        0.0,
        0.0,
        0.0,
        0.0,
        0.0,
        0.0,
        0.0,
        0.0,
        0.0,
        0.0,
        0.0,
        0.0,
        0.0,
        0.0,
        0.0,
        0.0,
        0.0,
        0.0,
        0.0,
        0.0,
        0.0,
        0.0,
        0.0,
        0.0,
        0.0,
        0.0,
        0.0,
        0.0,
        0.0,
        0.0,
        0.0,
        0.0,
        0.0,
        0.0,
        0.0,
        0.0,
        0.0,
        0.0,
        0.0,
        0.0,
        0.0,
        0.0,
        0.0,
        0.0,
        0.0,
        0.0,
        0.0,
        0.0,
        0.0,
        0.0,
        0.0,
        0.0,
        0.0,
        0.0,
        0.0,
        0.0,
        0.0,
        0.0,
        0.0,
        0.0,
        0.0,
        0.0,
        0.0,
        0.0,
        0.0,
        0.0,
        0.0,
        0.0,
        0.0,
        0.0,
        0.0,
        0.0,
        0.0,
        0.0,
        0.0,
        0.0,
        0.0,
        0.0,
        0.0,
        0.0,
        0.0,
        0.0,
        0.0,
        0.0,
        0.0,
        0.0,
        0.0,
        0.0,
        0.0,
        0.0,
        0.0,
        0.0,
        0.0,
        0.0,
        0.0,
        0.0,
        0.0,
        0.0,
        0.0,
        0.0,
        0.0,
        0.0,
        0.0,
        0.0,
        0.0,
        0.0,
        0.0,
        0.0,
        0.0,
        0.0,
        0.0,
        0.0,
        0.0,
        0.0,
        0.0,
        0.0,
        0.0,
        0.0,
        0.0,
        0.0,
        0.0,
        0.0,
        0.0,
        0.0,
        0.0,
        0.0,
        0.0,
        0.0,
        0.0,
        0.0,
        0.0,
        0.0,
        0.0,
        0.0,
        0.0,
        0.0,
        0.0,
        0.0,
        0.0,
        0.0,
        0.0,
        0.0,
        0.0,
        0.0,
        0.0,
        0.0,
        0.0,
        0.0,
        0.0,
        0.0,
        0.0,
        0.0,
        0.0,
        0.0,
        0.0,
        0.0,
        0.0,
        0.0,
        0.0,
        0.0,
        0.0,
        0.0,
        0.0,
        0.0,
        0.0,
        1e-06,
        1e-06,
        1e-06,
        1e-06,
        2e-06,
        2e-06,
        2e-06,
        3e-06,
        3e-06,
        4e-06,
        5e-06,
        5e-06,
        6e-06,
        7e-06,
        8e-06,
        8e-06,
        9e-06,
        1e-05,
        1.1e-05,
        1.1e-05,
        1.2e-05,
        1.3e-05,
        1.3e-05,
        1.4e-05,
        1.4e-05,
        1.5e-05,
        1.5e-05,
        1.6e-05,
        1.6e-05,
        1.7e-05,
        1.8e-05,
        1.9e-05,
        2e-05,
        2.1e-05,
        2.3e-05,
        2.5e-05,
        2.7e-05,
        3e-05,
        3.3e-05,
        3.7e-05,
        4.1e-05,
        4.5e-05,
        5.1e-05,
        5.6e-05,
        6.3e-05,
        6.9e-05,
        7.6e-05,
        8.3e-05,
        9e-05,
        9.6e-05,
        0.000102,
        0.000108,
        0.000113,
        0.000117,
        0.00012,
        0.000122,
        0.000123,
        0.000123,
        0.00012,
        0.000117,
        0.000111,
        0.000103,
        9.4e-05,
        8.2e-05,
        6.8e-05,
        5.4e-05,
        4e-05,
        2.8e-05,
        1.8e-05,
        1.2e-05,
        1e-05,
        1.4e-05,
        2.5e-05,
        4.3e-05,
        7e-05,
        0.000107,
        0.000152,
        0.00019,
        0.000194,
        0.000142,
        0.000147,
        0.000271,
        0.000242,
        0.00012,
        0.000115,
        0.000134,
        0.000104,
        7.4e-05,
        5.2e-05,
        2.9e-05,
        1.6e-05,
        3.1e-05,
        8.2e-05,
        0.00012,
        0.000119,
        0.00014,
        0.000153,
        7.2e-05,
        6.2e-05,
        0.000173,
        0.000183,
        8.4e-05,
        5.9e-05,
        0.000419,
        0.000826,
        0.000823,
        0.000753,
        0.00076,
        0.000697,
        0.000762,
        0.001071,
        0.001047,
        0.000729,
        0.000762,
        0.00103,
        0.001268,
        0.001469,
        0.001423,
        0.001147,
        0.001896,
        0.003163,
        0.002939,
        0.00184,
        0.00126,
        0.002145,
        0.00298,
        0.002046,
        0.001212,
        0.001643,
        0.002922,
        0.003502,
        0.002803,
        0.002394,
        0.002533,
        0.00124,
        0.001024,
        0.000689,
        0.000421,
        0.00044,
        0.000754,
        0.000748,
        0.000457,
        0.000518,
        0.001394,
        0.001492,
        0.001744,
        0.002013,
        0.002026,
        0.002229,
        0.00252,
        0.002242,
        0.001406,
        0.000495,
        0.000415,
        0.000507,
        0.000632,
        0.000731,
        0.000906,
        0.000834,
        0.000625,
        0.000531,
        0.000386,
        0.000171,
        0.000116,
        0.000149,
        0.000401,
        0.000911,
        0.001284,
        0.00121,
        0.001394,
        0.002288,
        0.003766,
        0.004932,
        0.005011,
        0.002022,
        0.00199,
        0.0036,
        0.004057,
        0.002363,
        0.002386,
        0.003334,
        0.002997,
        0.003144,
        0.004228,
        0.005314,
        0.004903,
        0.003603,
        0.003875,
        0.004304,
        0.002979,
        0.003218,
        0.00489,
        0.004417,
        0.00355,
        0.004013,
        0.004377,
        0.00381,
        0.002691,
        0.003551,
        0.006,
        0.006332,
        0.005377,
        0.004714,
        0.004504,
        0.005099,
        0.00643,
        0.006721,
        0.006382,
        0.007615,
        0.0088,
        0.008354,
        0.007113,
        0.007226,
        0.010422,
        0.013574,
        0.015969,
        0.022261,
        0.025845,
        0.020237,
        0.019251,
        0.022343,
        0.016068,
        0.015012,
        0.024089,
        0.01895,
        0.010357,
        0.01973,
        0.03352,
        0.037505,
        0.027147,
        0.018454,
        0.020117,
        0.018694,
        0.021779,
        0.035555,
        0.040602,
        0.022937,
        0.010795,
        0.014255,
        0.021983,
        0.022978,
        0.024843,
        0.04441,
        0.05211,
        0.03657,
        0.036256,
        0.044865,
        0.042895,
        0.043633,
        0.04956,
        0.052831,
        0.061897,
        0.074975,
        0.064743,
        0.036656,
        0.02271,
        0.021526,
        0.025604,
        0.034742,
        0.038904,
        0.030144,
        0.024262,
        0.029694,
        0.040806,
        0.039694,
        0.022016,
        0.011852,
        0.01947,
        0.039226,
        0.048077,
        0.042189,
        0.036317,
        0.036299,
        0.041003,
        0.040773,
        0.035763,
        0.034639,
        0.046369,
        0.065669,
        0.065835,
        0.047685,
        0.030228,
        0.031089,
        0.04437,
        0.047951,
        0.052013,
        0.059139,
        0.045418,
        0.031783,
        0.045772,
        0.057414,
        0.053863,
        0.048103,
        0.049176,
        0.056127,
        0.060138,
        0.050865,
        0.038083,
        0.045555,
        0.080753,
        0.106708,
        0.122261,
        0.130309,
        0.114717,
        0.092229,
        0.083884,
        0.067108,
        0.041166,
        0.024067,
        0.024827,
        0.038375,
        0.036073,
        0.030744,
        0.049763,
        0.059749,
        0.052714,
        0.059569,
        0.07231,
        0.070428,
        0.061992,
        0.06783,
        0.091382,
        0.096503,
        0.092088,
        0.147135,
        0.186436,
        0.131267,
        0.107667,
        0.128437,
        0.086484,
        0.058888,
        0.107806,
        0.169423,
        0.18015,
        0.118,
        0.066389,
        0.075808,
        0.081262,
        0.067484,
        0.047919,
        0.04701,
        0.06156,
        0.053848,
        0.054493,
        0.078061,
        0.078231,
        0.085456,
        0.144258,
        0.218968,
        0.248719,
        0.18203,
        0.110386,
        0.108542,
        0.134057,
        0.149274,
        0.131118,
        0.095676,
        0.065749,
        0.055464,
        0.060176,
        0.071914,
        0.104131,
        0.136302,
        0.119947,
        0.09098,
        0.085458,
        0.089898,
        0.095581,
        0.100464,
        0.078537,
        0.061178,
        0.119275,
        0.165921,
        0.128076,
        0.119456,
        0.157639,
        0.14817,
        0.104994,
        0.067206,
        0.041811,
        0.032598,
        0.043921,
        0.086065,
        0.126585,
        0.100579,
        0.052068,
        0.037724,
        0.056464,
        0.104575,
        0.161397,
        0.184844,
        0.181603,
        0.216748,
        0.257989,
        0.250932,
        0.245543,
        0.27466,
        0.310384,
        0.281627,
        0.195759,
        0.21196,
        0.297634,
        0.333243,
        0.319791,
        0.270091,
        0.22262,
        0.254974,
        0.342191,
        0.301432,
        0.253683,
        0.380145,
        0.472038,
        0.410087,
        0.351706,
        0.349809,
        0.355629,
        0.339184,
        0.33484,
        0.391933,
        0.409094,
        0.338507,
        0.275202,
        0.263865,
        0.305331,
        0.369146,
        0.396043,
        0.323853,
        0.244881,
        0.251843,
        0.326397,
        0.39172,
        0.384573,
        0.334974,
        0.295052,
        0.32007,
        0.338989,
        0.26215,
        0.163878,
        0.105793,
        0.129489,
        0.218659,
        0.310672,
        0.344182,
        0.310091,
        0.266894,
        0.321063,
        0.397116,
        0.314666,
        0.264018,
        0.358333,
        0.365604,
        0.313733,
        0.329002,
        0.324491,
        0.320465,
        0.419358,
        0.469522,
        0.353334,
        0.346682,
        0.492553,
        0.541998,
        0.552794,
        0.608314,
        0.592067,
        0.569168,
        0.644852,
        0.676227,
        0.619496,
        0.563843,
        0.477291,
        0.388505,
        0.493646,
        0.587355,
        0.431438,
        0.345321,
        0.509973,
        0.716957,
        0.753629,
        0.556159,
        0.402361,
        0.41238,
        0.496565,
        0.556495,
        0.535499,
        0.433867,
        0.34071,
        0.349138,
        0.464586,
        0.633131,
        0.733882,
        0.754147,
        0.720563,
        0.647702,
        0.589937,
        0.601092,
        0.597189,
        0.521726,
        0.483307,
        0.464515,
        0.373158,
        0.451628,
        0.705482,
        0.669796,
        0.501439,
        0.564655,
        0.646702,
        0.636037,
        0.628792,
        0.624349,
        0.586776,
        0.493127,
        0.432198,
        0.480778,
        0.542929,
        0.557682,
        0.54145,
        0.577263,
        0.68002,
        0.668145,
        0.532661,
        0.415283,
        0.406334,
        0.479641,
        0.464395,
        0.489155,
        0.700272,
        0.740115,
        0.597023,
        0.585974,
        0.607275,
        0.601207,
        0.746938,
        0.856347,
        0.698514,
        0.586982,
        0.599292,
        0.542113,
        0.539515,
        0.639777,
        0.626495,
        0.583247,
        0.678394,
        0.829409,
        0.902454,
        0.820336,
        0.614206,
        0.419672,
        0.352959,
        0.403278,
        0.488565,
        0.552573,
        0.587548,
        0.626893,
        0.618719,
        0.468524,
        0.314352,
        0.341674,
        0.598367,
        0.811595,
        0.604668,
        0.459807,
        0.635904,
        0.634506,
        0.500122,
        0.530285,
        0.655494,
        0.739765,
        0.671746,
        0.669223,
        0.813403,
        0.787727,
        0.688448,
        0.754828,
        0.850632,
        0.882701,
        0.8532,
        0.832439,
        0.871168,
        0.992927,
        1.08751,
        1.043365,
        0.993122,
        1.007706,
        0.980466,
        0.720354,
        0.384958,
        0.327675,
        0.483075,
        0.659932,
        0.7003,
        0.641567,
        0.668779,
        0.681149,
        0.530497,
        0.407896,
        0.404793,
        0.459837,
        0.541351,
        0.605367,
        0.617099,
        0.574746,
        0.553654,
        0.5678,
        0.612621,
        0.824836,
        1.023428,
        0.955884,
        0.830392,
        0.768562,
        0.749946,
        0.772315,
        0.806307,
        0.863959,
        0.89891,
        0.894757,
        1.011057,
        1.164791,
        1.028572,
        0.870837,
        0.963558,
        1.057649,
        0.996694,
        0.850495,
        0.753834,
        0.839308,
        1.065632,
        1.017394,
        0.578444,
        0.331536,
        0.373376,
        0.465013,
        0.620483,
        0.789802,
        0.700116,
        0.510068,
        0.697919,
        0.948535,
        0.931063,
        0.838235,
        0.90239,
        1.164051,
        1.135529,
        0.750987,
        0.740674,
        1.037149,
        1.129804,
        0.904596,
        0.733756,
        1.049165,
        1.276562,
        1.1179,
        1.049665,
        1.163784,
        1.329881,
        1.389974,
        1.237068,
        1.004253,
        0.900458,
        0.969549,
        1.011805,
        1.017244,
        1.011888,
        0.964785,
        0.974909,
        1.188252,
        1.270613,
        1.085432,
        0.89237,
        0.888937,
        1.058489,
        1.190307,
        1.201927,
        1.173263,
        1.164054,
        1.167389,
        1.23512,
        1.331088,
        1.277623,
        1.147025,
        1.094275,
        1.274303,
        1.476295,
        1.201418,
        0.775665,
        0.651048,
        0.688874,
        0.767006,
        0.831847,
        0.854703,
        0.879225,
        0.98089,
        1.100252,
        1.123963,
        0.920412,
        0.702595,
        0.839257,
        1.072069,
        1.132988,
        1.059125,
        1.008569,
        1.104927,
        1.204425,
        1.184641,
        1.117686,
        1.040623,
        0.969311,
        0.917532,
        0.905583,
        0.960702,
        0.995641,
        0.960408,
        0.957293,
        0.946437,
        0.859102,
        0.764921,
        0.740312,
        0.823602,
        0.871173,
        0.813604,
        0.771339,
        0.746113,
        0.714879,
        0.915327,
        1.207089,
        1.146474,
        0.904564,
        0.791815,
        0.860431,
        0.98066,
        0.945185,
        0.953292,
        1.119212,
        1.154506,
        1.046175,
        1.014106,
        1.045071,
        1.073868,
        1.083575,
        1.0991,
        1.143785,
        1.18454,
        1.203077,
        1.303231,
        1.403652,
        1.318755,
        1.142107,
        1.044458,
        1.062098,
        1.080399,
        1.02284,
        1.004471,
        1.082499,
        1.20467,
        1.273013,
        1.236839,
        1.123644,
        1.010897,
        0.987511,
        1.070477,
        1.169895,
        1.132641,
        1.067648,
        1.071893,
        1.084103,
        1.03991,
        0.867893,
        0.773175,
        0.794165,
        0.754162,
        0.722335,
        0.742791,
        0.738511,
        0.726404,
        0.71063,
        0.661632,
        0.599106,
        0.613791,
        0.637552,
        0.590185,
        0.613512,
        0.707694,
        0.727858,
        0.690746,
        0.654572,
        0.665393,
        0.706924,
        0.728264,
        0.725926,
        0.737454,
        0.827602,
        0.923914,
        0.945809,
        0.888911,
        0.814291,
        0.816549,
        0.870397,
        0.923843,
        0.935962,
        0.935411,
        0.94983,
        0.944782,
        0.967748,
        1.083876,
        1.146013,
        1.094677,
        1.067105,
        1.125225,
        1.251405,
        1.288124,
        1.221286,
        1.205785,
        1.243051,
        1.284773,
        1.314691,
        1.332071,
        1.314841,
        1.306124,
        1.362957,
        1.393075,
        1.368578,
        1.389319,
        1.452188,
        1.403714,
        1.255652,
        1.122778,
        0.934813,
        0.763819,
        0.668763,
        0.662863,
        0.678711,
        0.593649,
        0.571745,
        0.676524,
        0.758369,
        0.739504,
        0.642906,
        0.571003,
        0.548489,
        0.528765,
        0.527623,
        0.564205,
        0.618956,
        0.66291,
        0.667676,
        0.644703,
        0.64645,
        0.720004,
        0.76319,
        0.741278,
        0.761243,
        0.825989,
        0.853445,
        0.868093,
        0.924107,
        0.999786,
        1.060079,
        1.083153,
        1.066672,
        1.050617,
        1.090695,
        1.152405,
        1.177421,
        1.152104,
        1.132718,
        1.2069,
        1.272834,
        1.212026,
        1.277727,
        1.459189,
        1.491274,
        1.406519,
        1.331958,
        1.345366,
        1.432953,
        1.544308,
        1.616506,
        1.592841,
        1.438466,
        1.330837,
        1.442755,
        1.598907,
        1.656699,
        1.620928,
        1.595721,
        1.698584,
        1.691011,
        1.59797,
        1.694584,
        1.829642,
        1.803904,
        1.649405,
        1.494619,
        1.452908,
        1.566614,
        1.740689,
        1.772958,
        1.708207,
        1.701788,
        1.819489,
        1.996937,
        2.101182,
        2.055542,
        1.856726,
        1.712848,
        1.662525,
        1.542459,
        1.466311,
        1.523317,
        1.517482,
        1.497485,
        1.566527,
        1.494693,
        1.304729,
        1.317887,
        1.439564,
        1.511165,
        1.483665,
        1.366061,
        1.237925,
        1.201504,
        1.251398,
        1.31671,
        1.301034,
        1.164125,
        1.099313,
        1.099458,
        1.054029,
        1.053461,
        1.081337,
        1.028327,
        0.994906,
        1.035118,
        1.059174,
        1.048234,
        1.013885,
        1.010892,
        1.007345,
        0.993841,
        1.008696,
        1.019448,
        1.009686,
        1.041076,
        1.105396,
        1.061947,
        1.006777,
        1.074866,
        1.205874,
        1.315747,
        1.330822,
        1.225577,
        1.06552,
        1.038669,
        1.09805,
        1.080742,
        1.110035,
        1.267485,
        1.381735,
        1.388276,
        1.320788,
        1.289656,
        1.336333,
        1.415295,
        1.432013,
        1.405151,
        1.413921,
        1.445284,
        1.448982,
        1.522321,
        1.702831,
        1.743728,
        1.637873,
        1.639958,
        1.738567,
        1.82118,
        1.796303,
        1.709205,
        1.704314,
        1.768738,
        1.86729,
        1.926484,
        1.935943,
        1.965348,
        2.014554,
        2.066128,
        2.14752,
        2.271317,
        2.291345,
        2.244852,
        2.228144,
        2.221684,
        2.229987,
        2.281398,
        2.369501,
        2.423599,
        2.355332,
        2.322033,
        2.401705,
        2.483647,
        2.516146,
        2.505265,
        2.505795,
        2.52253,
        2.568425,
        2.527333,
        2.129668,
        1.600179,
        1.337179,
        1.531266,
        1.793078,
        1.861614,
        1.653043,
        1.355529,
        1.308538,
        1.377101,
        1.465884,
        1.608891,
        1.707677,
        1.632012,
        1.341254,
        1.036168,
        0.971162,
        1.018318,
        0.979464,
        1.09774,
        1.488471,
        1.579414,
        1.326019,
        1.221825,
        1.326874,
        1.453952,
        1.467211,
        1.399871,
        1.373759,
        1.407953,
        1.45106,
        1.397935,
        1.455582,
        1.669733,
        1.699697,
        1.627444,
        1.692827,
        1.801866,
        1.864248,
        1.85089,
        1.828559,
        1.883636,
        1.956435,
        2.015014,
        2.058146,
        2.08615,
        2.10279,
        2.111699,
        2.16587,
        2.24276,
        2.31738,
        2.393994,
        2.464619,
        2.528022,
        2.588565,
        2.643225,
        2.684841,
        2.711448,
        2.715807,
        2.681648,
        2.614315,
        2.57175,
        2.591299,
        2.658459,
        2.746099,
        2.853813,
        2.935874,
        3.014386,
        3.054373,
        3.034264,
        3.029231,
        3.030719,
        3.03952,
        3.070575,
        3.115277,
        3.110416,
        3.101695,
        3.074342,
        3.050631,
        3.057331,
        3.05204,
        3.048267,
        3.083565,
        3.103133,
        3.13105,
        3.173504,
        3.198857,
        3.210171,
        3.238224,
        3.315764,
        3.342106,
        3.320422,
        3.291924,
        3.248233,
        3.17998,
        3.149446,
        3.159011,
        3.169531,
        3.20178,
        3.248414,
        3.284713,
        3.33687,
        3.353197,
        3.346296,
        3.300495,
        3.209009,
        2.98961,
        2.757196,
        2.753117,
        2.865847,
        2.90023,
        2.815166,
        2.716235,
        2.761856,
        2.662358,
        2.399567,
        2.339499,
        2.32677,
        2.375366,
        2.460722,
        2.519844,
        2.51819,
        2.407757,
        2.349604,
        2.325113,
        2.378956,
        2.387276,
        2.398082,
        2.390208,
        2.412125,
        2.349297,
        2.344953,
        2.382117,
        2.452368,
        2.506971,
        2.539085,
        2.585793,
        2.595058,
        2.495121,
        2.415128,
        2.443714,
        2.454242,
        2.439541,
        2.407789,
        2.384821,
        2.354997,
        2.340917,
        2.403149,
        2.507392,
        2.619544,
        2.687739,
        2.698122,
        2.682865,
        2.634721,
        2.557599,
        2.448792,
        2.386541,
        2.368768,
        2.3498,
        2.357858,
        2.424924,
        2.484351,
        2.533741,
        2.598803,
        2.667749,
        2.714718,
        2.729051,
        2.744421,
        2.694731,
        2.626606,
        2.569023,
        2.515427,
        2.534418,
        2.615314,
        2.718213,
        2.813979,
        2.852419,
        2.824836,
        2.799258,
        2.808068,
        2.824409,
        2.844691,
        2.913106,
        2.984973,
        2.996737,
        2.971761,
        2.937862,
        2.913593,
        2.890215,
        2.92611,
        3.007522,
        3.094708,
        3.157163,
        3.126054,
        2.993569,
        2.932422,
        2.984455,
        3.021652,
        3.033178,
        3.112419,
        3.248908,
        3.344544,
        3.351243,
        3.315289,
        3.327669,
        3.353819,
        3.36966,
        3.352286,
        3.314416,
        3.375034,
        3.396917,
        3.39604,
        3.344213,
        3.336018,
        3.407656,
        3.456502,
        3.505271,
        3.516275,
        3.521619,
        3.540486,
        3.563534,
        3.531188,
        3.55873,
        3.553575,
        3.566086,
        3.573203,
        3.554013,
        3.555845,
        3.471081,
        3.439585,
        3.44197,
        3.470286,
        3.491145,
        3.47798,
        3.430962,
        3.396397,
        3.400248,
        3.425014,
        3.468305,
        3.442199,
        3.408016,
        3.475653,
        3.551563,
        3.593462,
        3.567207,
        3.49343,
        3.391941,
        3.32342,
        3.288766,
        3.238614,
        3.184784,
        3.209576,
        3.324514,
        3.406112,
        3.382167,
        3.355928,
        3.331382,
        3.338065,
        3.314438,
        3.340705,
        3.408846,
        3.435872,
        3.409051,
        3.39307,
        3.295843,
        3.155972,
        2.996205,
        2.986998,
        3.072966,
        3.188606,
        3.329346,
        3.374654,
        3.392175,
        3.35323,
        3.2976,
        3.270952,
        3.07784,
        3.057136,
        3.022691,
        3.018492,
        2.976135,
        2.958836,
        2.93789,
        2.956224,
        3.012147,
        3.03674,
        3.037689,
        2.967687,
        2.72041,
        2.687187,
        2.771206,
        2.839698,
        2.84054,
        2.913674,
        3.015801,
        3.070358,
        3.01247,
        2.800127,
        2.725154,
        2.841991,
        2.971988,
        3.097516,
        3.170926,
        3.190829,
        3.2217,
        3.239865,
        3.261578,
        3.264119,
        3.243527,
        3.242512,
        3.264853,
        3.271305,
        3.29488,
        3.307328,
        3.339463,
        3.369294,
        3.388284,
        3.393889,
        3.370996,
        3.340877,
        3.264285,
        3.011214,
        2.949478,
        3.018715,
        3.063455,
        3.150153,
        3.184742,
        3.25308,
        3.427476,
        3.445901,
        3.536444,
        3.539698,
        3.545895,
        3.583532,
        3.628503,
        3.624079,
        3.612752,
        3.637367,
        3.633119,
        3.62735,
        3.609433,
        3.581642,
        3.551569,
        3.553297,
        3.608939,
        3.656836,
        3.688422,
        3.676591,
        3.662006,
        3.581708,
        3.477539,
        3.557053,
        3.591898,
        3.527281,
        3.563255,
        3.675545,
        3.688147,
        3.739229,
        3.813731,
        3.842938,
        3.753855,
        3.506225,
        3.405583,
        3.316858,
        3.279994,
        3.3201,
        3.404356,
        3.470057,
        3.520293,
        3.57245,
        3.57462,
        3.514378,
        3.403893,
        3.297646,
        3.229084,
        3.206038,
        3.226388,
        3.264966,
        3.302232,
        3.331598,
        3.358269,
        3.38783,
        3.423641,
        3.458854,
        3.483669,
        3.488426,
        3.471324,
        3.443786,
        3.418724,
        3.408406,
        3.418789,
        3.450129,
        3.501951,
        3.570733,
        3.643617,
        3.705011,
        3.739442,
        3.742883,
        3.725282,
        3.701088,
        3.684164,
        3.675936,
        3.671663,
        3.666002,
        3.655485,
        3.642648,
        3.630296,
        3.617907,
        3.605111,
        3.592739,
        3.582313,
        3.577398,
        3.577778,
        3.580643,
        3.58322,
        3.583297,
        3.579939,
        3.572543,
        3.560293,
        3.542872,
        3.522553,
        3.501714,
        3.482966,
        3.470417,
        3.46882,
        3.482948,
        3.516123,
        3.561944,
        3.609416,
        3.647492,
        3.667554,
        3.671922,
        3.666031,
        3.655316,
        3.644178,
        3.632673,
        3.619707,
        3.604183,
        3.586108,
        3.569816,
        3.558934,
        3.555227,
        3.558738,
        3.563087,
        3.560288,
        3.543608,
        3.512557,
        3.472863,
        3.431489,
        3.395405,
        3.372028,
        3.36661,
        3.379197,
        3.409448,
        3.454383,
        3.500467,
        3.532325,
        3.540486,
        3.521792,
        3.487781,
        3.453655,
        3.434591,
        3.441225,
        3.4692,
        3.51087,
        3.558589,
        3.604489,
        3.639908,
        3.657537,
        3.651443,
        3.618357,
        3.565468,
        3.502582,
        3.439873,
        3.388004,
        3.351619,
        3.333661,
        3.337073,
        3.364079,
        3.411689,
        3.46967,
        3.52666,
        3.572722,
        3.603649,
        3.616738,
        3.613357,
        3.600413,
        3.583321,
        3.567001,
        3.556374,
        3.555736,
        3.564371,
        3.578408,
        3.593893,
        3.60739,
        3.617515,
        3.623446,
        3.62481,
        3.621334,
        3.612148,
        3.596232,
        3.572569,
        3.540642,
        3.503601,
        3.466176,
        3.433111,
        3.409494,
        3.401806,
        3.415182,
        3.446862,
        3.491086,
        3.539251,
        3.582039,
        3.61014,
        3.616984,
        3.606979,
        3.587284,
        3.565052,
        3.546456,
        3.533745,
        3.527501,
        3.525923,
        3.527146,
        3.531126,
        3.538272,
        3.548994,
        3.563411,
        3.580493,
        3.59892,
        3.617372,
        3.634273,
        3.647018,
        3.653206,
        3.652727,
        3.646358,
        3.635533,
        3.621851,
        3.60691,
        3.592276,
        3.579139,
        3.568478,
        3.561096,
        3.557518,
        3.557323,
        3.559824,
        3.564064,
        3.569067,
        3.574389,
        3.579714,
        3.584732,
        3.589169,
        3.593384,
        3.598255,
        3.604676,
        3.61345,
        3.625015,
        3.639701,
        3.656826,
        3.674363,
        3.690767,
        3.704669,
        3.714816,
        3.719717,
        3.717615,
        3.708961,
        3.6947,
        3.676403,
        3.658141,
        3.644614,
        3.640222,
        3.646254,
        3.659343,
        3.675202,
        3.689538,
        3.698745,
        3.701967,
        3.700004,
        3.69493,
        3.688476,
        3.680686,
        3.671195,
        3.659694,
        3.646295,
        3.632744,
        3.621184,
        3.613761,
        3.612419,
        3.618299,
        3.632178,
        3.652407,
        3.675387,
        3.697134,
        3.713583,
        3.720665,
        3.714756,
        3.695957,
        3.669254,
        3.640238,
        3.61405,
        3.594044,
        3.583086,
        3.583446,
        3.593624,
        3.610895,
        3.632711,
        3.656527,
        3.679626,
        3.698621,
        3.710992,
        3.716546,
        3.715759,
        3.710526,
        3.703095,
        3.695717,
        3.690372,
        3.687407,
        3.686393,
        3.686892,
        3.688416,
        3.690299,
        3.691801,
        3.692134,
        3.690921,
        3.68871,
        3.68627,
        3.684365,
        3.6835,
        3.683137,
        3.682837,
        3.682477,
        3.722639,
        3.724239,
        3.726799,
        3.73036,
        3.734437,
        3.73827,
        3.741041,
        3.74196,
        3.740849,
        3.73865,
        3.736533,
        3.735728,
        3.737052,
        3.73947,
        3.741408,
        3.741296,
        3.738009,
        3.732299,
        3.725721,
        3.719947,
        3.716312,
        3.714808,
        3.714884,
        3.715256,
        3.714728,
        3.713151,
        3.710638,
        3.707722,
        3.705827,
        3.705216,
        3.705793,
        3.707428,
        3.709557,
        3.711299,
        3.711903,
        3.710622,
        3.706389,
        3.698289,
        3.688125,
        3.678074,
        3.670433,
        3.667923,
        3.671844,
        3.680499,
        3.69184,
        3.703792,
        3.714278,
        3.72198,
        3.72709,
        3.729697,
        3.729828,
        3.727569,
        3.723168,
        3.717644,
        3.712232,
        3.708167,
        3.706353,
        3.706208,
        3.706427,
        3.705645
      ],
      "range":1
    }
  }
]
