[
  {
    "model":"Star, type A0(iii)",
    "name":"Star, type A0(iii)",
    "type":"WB_REF",
    "dataQualityMarker":3,
    "dataSource":"https://www.eso.org/sci/facilities/paranal/decommissioned/isaac/tools/lib.html",
    "manufacturer":"A. Pickles (A.J. Pickles, PASP 110,863, 1998)",
    "version":1,
    "wavelength":{
      "value":[
        1150.0,
        1155.0,
        1160.0,
        1165.0,
        1170.0,
        1175.0,
        1180.0,
        1185.0,
        1190.0,
        1195.0,
        1200.0,
        1205.0,
        1210.0,
        1215.0,
        1220.0,
        1225.0,
        1230.0,
        1235.0,
        1240.0,
        1245.0,
        1250.0,
        1255.0,
        1260.0,
        1265.0,
        1270.0,
        1275.0,
        1280.0,
        1285.0,
        1290.0,
        1295.0,
        1300.0,
        1305.0,
        1310.0,
        1315.0,
        1320.0,
        1325.0,
        1330.0,
        1335.0,
        1340.0,
        1345.0,
        1350.0,
        1355.0,
        1360.0,
        1365.0,
        1370.0,
        1375.0,
        1380.0,
        1385.0,
        1390.0,
        1395.0,
        1400.0,
        1405.0,
        1410.0,
        1415.0,
        1420.0,
        1425.0,
        1430.0,
        1435.0,
        1440.0,
        1445.0,
        1450.0,
        1455.0,
        1460.0,
        1465.0,
        1470.0,
        1475.0,
        1480.0,
        1485.0,
        1490.0,
        1495.0,
        1500.0,
        1505.0,
        1510.0,
        1515.0,
        1520.0,
        1525.0,
        1530.0,
        1535.0,
        1540.0,
        1545.0,
        1550.0,
        1555.0,
        1560.0,
        1565.0,
        1570.0,
        1575.0,
        1580.0,
        1585.0,
        1590.0,
        1595.0,
        1600.0,
        1605.0,
        1610.0,
        1615.0,
        1620.0,
        1625.0,
        1630.0,
        1635.0,
        1640.0,
        1645.0,
        1650.0,
        1655.0,
        1660.0,
        1665.0,
        1670.0,
        1675.0,
        1680.0,
        1685.0,
        1690.0,
        1695.0,
        1700.0,
        1705.0,
        1710.0,
        1715.0,
        1720.0,
        1725.0,
        1730.0,
        1735.0,
        1740.0,
        1745.0,
        1750.0,
        1755.0,
        1760.0,
        1765.0,
        1770.0,
        1775.0,
        1780.0,
        1785.0,
        1790.0,
        1795.0,
        1800.0,
        1805.0,
        1810.0,
        1815.0,
        1820.0,
        1825.0,
        1830.0,
        1835.0,
        1840.0,
        1845.0,
        1850.0,
        1855.0,
        1860.0,
        1865.0,
        1870.0,
        1875.0,
        1880.0,
        1885.0,
        1890.0,
        1895.0,
        1900.0,
        1905.0,
        1910.0,
        1915.0,
        1920.0,
        1925.0,
        1930.0,
        1935.0,
        1940.0,
        1945.0,
        1950.0,
        1955.0,
        1960.0,
        1965.0,
        1970.0,
        1975.0,
        1980.0,
        1985.0,
        1990.0,
        1995.0,
        2000.0,
        2005.0,
        2010.0,
        2015.0,
        2020.0,
        2025.0,
        2030.0,
        2035.0,
        2040.0,
        2045.0,
        2050.0,
        2055.0,
        2060.0,
        2065.0,
        2070.0,
        2075.0,
        2080.0,
        2085.0,
        2090.0,
        2095.0,
        2100.0,
        2105.0,
        2110.0,
        2115.0,
        2120.0,
        2125.0,
        2130.0,
        2135.0,
        2140.0,
        2145.0,
        2150.0,
        2155.0,
        2160.0,
        2165.0,
        2170.0,
        2175.0,
        2180.0,
        2185.0,
        2190.0,
        2195.0,
        2200.0,
        2205.0,
        2210.0,
        2215.0,
        2220.0,
        2225.0,
        2230.0,
        2235.0,
        2240.0,
        2245.0,
        2250.0,
        2255.0,
        2260.0,
        2265.0,
        2270.0,
        2275.0,
        2280.0,
        2285.0,
        2290.0,
        2295.0,
        2300.0,
        2305.0,
        2310.0,
        2315.0,
        2320.0,
        2325.0,
        2330.0,
        2335.0,
        2340.0,
        2345.0,
        2350.0,
        2355.0,
        2360.0,
        2365.0,
        2370.0,
        2375.0,
        2380.0,
        2385.0,
        2390.0,
        2395.0,
        2400.0,
        2405.0,
        2410.0,
        2415.0,
        2420.0,
        2425.0,
        2430.0,
        2435.0,
        2440.0,
        2445.0,
        2450.0,
        2455.0,
        2460.0,
        2465.0,
        2470.0,
        2475.0,
        2480.0,
        2485.0,
        2490.0,
        2495.0,
        2500.0,
        2505.0,
        2510.0,
        2515.0,
        2520.0,
        2525.0,
        2530.0,
        2535.0,
        2540.0,
        2545.0,
        2550.0,
        2555.0,
        2560.0,
        2565.0,
        2570.0,
        2575.0,
        2580.0,
        2585.0,
        2590.0,
        2595.0,
        2600.0,
        2605.0,
        2610.0,
        2615.0,
        2620.0,
        2625.0,
        2630.0,
        2635.0,
        2640.0,
        2645.0,
        2650.0,
        2655.0,
        2660.0,
        2665.0,
        2670.0,
        2675.0,
        2680.0,
        2685.0,
        2690.0,
        2695.0,
        2700.0,
        2705.0,
        2710.0,
        2715.0,
        2720.0,
        2725.0,
        2730.0,
        2735.0,
        2740.0,
        2745.0,
        2750.0,
        2755.0,
        2760.0,
        2765.0,
        2770.0,
        2775.0,
        2780.0,
        2785.0,
        2790.0,
        2795.0,
        2800.0,
        2805.0,
        2810.0,
        2815.0,
        2820.0,
        2825.0,
        2830.0,
        2835.0,
        2840.0,
        2845.0,
        2850.0,
        2855.0,
        2860.0,
        2865.0,
        2870.0,
        2875.0,
        2880.0,
        2885.0,
        2890.0,
        2895.0,
        2900.0,
        2905.0,
        2910.0,
        2915.0,
        2920.0,
        2925.0,
        2930.0,
        2935.0,
        2940.0,
        2945.0,
        2950.0,
        2955.0,
        2960.0,
        2965.0,
        2970.0,
        2975.0,
        2980.0,
        2985.0,
        2990.0,
        2995.0,
        3000.0,
        3005.0,
        3010.0,
        3015.0,
        3020.0,
        3025.0,
        3030.0,
        3035.0,
        3040.0,
        3045.0,
        3050.0,
        3055.0,
        3060.0,
        3065.0,
        3070.0,
        3075.0,
        3080.0,
        3085.0,
        3090.0,
        3095.0,
        3100.0,
        3105.0,
        3110.0,
        3115.0,
        3120.0,
        3125.0,
        3130.0,
        3135.0,
        3140.0,
        3145.0,
        3150.0,
        3155.0,
        3160.0,
        3165.0,
        3170.0,
        3175.0,
        3180.0,
        3185.0,
        3190.0,
        3195.0,
        3200.0,
        3205.0,
        3210.0,
        3215.0,
        3220.0,
        3225.0,
        3230.0,
        3235.0,
        3240.0,
        3245.0,
        3250.0,
        3255.0,
        3260.0,
        3265.0,
        3270.0,
        3275.0,
        3280.0,
        3285.0,
        3290.0,
        3295.0,
        3300.0,
        3305.0,
        3310.0,
        3315.0,
        3320.0,
        3325.0,
        3330.0,
        3335.0,
        3340.0,
        3345.0,
        3350.0,
        3355.0,
        3360.0,
        3365.0,
        3370.0,
        3375.0,
        3380.0,
        3385.0,
        3390.0,
        3395.0,
        3400.0,
        3405.0,
        3410.0,
        3415.0,
        3420.0,
        3425.0,
        3430.0,
        3435.0,
        3440.0,
        3445.0,
        3450.0,
        3455.0,
        3460.0,
        3465.0,
        3470.0,
        3475.0,
        3480.0,
        3485.0,
        3490.0,
        3495.0,
        3500.0,
        3505.0,
        3510.0,
        3515.0,
        3520.0,
        3525.0,
        3530.0,
        3535.0,
        3540.0,
        3545.0,
        3550.0,
        3555.0,
        3560.0,
        3565.0,
        3570.0,
        3575.0,
        3580.0,
        3585.0,
        3590.0,
        3595.0,
        3600.0,
        3605.0,
        3610.0,
        3615.0,
        3620.0,
        3625.0,
        3630.0,
        3635.0,
        3640.0,
        3645.0,
        3650.0,
        3655.0,
        3660.0,
        3665.0,
        3670.0,
        3675.0,
        3680.0,
        3685.0,
        3690.0,
        3695.0,
        3700.0,
        3705.0,
        3710.0,
        3715.0,
        3720.0,
        3725.0,
        3730.0,
        3735.0,
        3740.0,
        3745.0,
        3750.0,
        3755.0,
        3760.0,
        3765.0,
        3770.0,
        3775.0,
        3780.0,
        3785.0,
        3790.0,
        3795.0,
        3800.0,
        3805.0,
        3810.0,
        3815.0,
        3820.0,
        3825.0,
        3830.0,
        3835.0,
        3840.0,
        3845.0,
        3850.0,
        3855.0,
        3860.0,
        3865.0,
        3870.0,
        3875.0,
        3880.0,
        3885.0,
        3890.0,
        3895.0,
        3900.0,
        3905.0,
        3910.0,
        3915.0,
        3920.0,
        3925.0,
        3930.0,
        3935.0,
        3940.0,
        3945.0,
        3950.0,
        3955.0,
        3960.0,
        3965.0,
        3970.0,
        3975.0,
        3980.0,
        3985.0,
        3990.0,
        3995.0,
        4000.0,
        4005.0,
        4010.0,
        4015.0,
        4020.0,
        4025.0,
        4030.0,
        4035.0,
        4040.0,
        4045.0,
        4050.0,
        4055.0,
        4060.0,
        4065.0,
        4070.0,
        4075.0,
        4080.0,
        4085.0,
        4090.0,
        4095.0,
        4100.0,
        4105.0,
        4110.0,
        4115.0,
        4120.0,
        4125.0,
        4130.0,
        4135.0,
        4140.0,
        4145.0,
        4150.0,
        4155.0,
        4160.0,
        4165.0,
        4170.0,
        4175.0,
        4180.0,
        4185.0,
        4190.0,
        4195.0,
        4200.0,
        4205.0,
        4210.0,
        4215.0,
        4220.0,
        4225.0,
        4230.0,
        4235.0,
        4240.0,
        4245.0,
        4250.0,
        4255.0,
        4260.0,
        4265.0,
        4270.0,
        4275.0,
        4280.0,
        4285.0,
        4290.0,
        4295.0,
        4300.0,
        4305.0,
        4310.0,
        4315.0,
        4320.0,
        4325.0,
        4330.0,
        4335.0,
        4340.0,
        4345.0,
        4350.0,
        4355.0,
        4360.0,
        4365.0,
        4370.0,
        4375.0,
        4380.0,
        4385.0,
        4390.0,
        4395.0,
        4400.0,
        4405.0,
        4410.0,
        4415.0,
        4420.0,
        4425.0,
        4430.0,
        4435.0,
        4440.0,
        4445.0,
        4450.0,
        4455.0,
        4460.0,
        4465.0,
        4470.0,
        4475.0,
        4480.0,
        4485.0,
        4490.0,
        4495.0,
        4500.0,
        4505.0,
        4510.0,
        4515.0,
        4520.0,
        4525.0,
        4530.0,
        4535.0,
        4540.0,
        4545.0,
        4550.0,
        4555.0,
        4560.0,
        4565.0,
        4570.0,
        4575.0,
        4580.0,
        4585.0,
        4590.0,
        4595.0,
        4600.0,
        4605.0,
        4610.0,
        4615.0,
        4620.0,
        4625.0,
        4630.0,
        4635.0,
        4640.0,
        4645.0,
        4650.0,
        4655.0,
        4660.0,
        4665.0,
        4670.0,
        4675.0,
        4680.0,
        4685.0,
        4690.0,
        4695.0,
        4700.0,
        4705.0,
        4710.0,
        4715.0,
        4720.0,
        4725.0,
        4730.0,
        4735.0,
        4740.0,
        4745.0,
        4750.0,
        4755.0,
        4760.0,
        4765.0,
        4770.0,
        4775.0,
        4780.0,
        4785.0,
        4790.0,
        4795.0,
        4800.0,
        4805.0,
        4810.0,
        4815.0,
        4820.0,
        4825.0,
        4830.0,
        4835.0,
        4840.0,
        4845.0,
        4850.0,
        4855.0,
        4860.0,
        4865.0,
        4870.0,
        4875.0,
        4880.0,
        4885.0,
        4890.0,
        4895.0,
        4900.0,
        4905.0,
        4910.0,
        4915.0,
        4920.0,
        4925.0,
        4930.0,
        4935.0,
        4940.0,
        4945.0,
        4950.0,
        4955.0,
        4960.0,
        4965.0,
        4970.0,
        4975.0,
        4980.0,
        4985.0,
        4990.0,
        4995.0,
        5000.0,
        5005.0,
        5010.0,
        5015.0,
        5020.0,
        5025.0,
        5030.0,
        5035.0,
        5040.0,
        5045.0,
        5050.0,
        5055.0,
        5060.0,
        5065.0,
        5070.0,
        5075.0,
        5080.0,
        5085.0,
        5090.0,
        5095.0,
        5100.0,
        5105.0,
        5110.0,
        5115.0,
        5120.0,
        5125.0,
        5130.0,
        5135.0,
        5140.0,
        5145.0,
        5150.0,
        5155.0,
        5160.0,
        5165.0,
        5170.0,
        5175.0,
        5180.0,
        5185.0,
        5190.0,
        5195.0,
        5200.0,
        5205.0,
        5210.0,
        5215.0,
        5220.0,
        5225.0,
        5230.0,
        5235.0,
        5240.0,
        5245.0,
        5250.0,
        5255.0,
        5260.0,
        5265.0,
        5270.0,
        5275.0,
        5280.0,
        5285.0,
        5290.0,
        5295.0,
        5300.0,
        5305.0,
        5310.0,
        5315.0,
        5320.0,
        5325.0,
        5330.0,
        5335.0,
        5340.0,
        5345.0,
        5350.0,
        5355.0,
        5360.0,
        5365.0,
        5370.0,
        5375.0,
        5380.0,
        5385.0,
        5390.0,
        5395.0,
        5400.0,
        5405.0,
        5410.0,
        5415.0,
        5420.0,
        5425.0,
        5430.0,
        5435.0,
        5440.0,
        5445.0,
        5450.0,
        5455.0,
        5460.0,
        5465.0,
        5470.0,
        5475.0,
        5480.0,
        5485.0,
        5490.0,
        5495.0,
        5500.0,
        5505.0,
        5510.0,
        5515.0,
        5520.0,
        5525.0,
        5530.0,
        5535.0,
        5540.0,
        5545.0,
        5550.0,
        5555.0,
        5560.0,
        5565.0,
        5570.0,
        5575.0,
        5580.0,
        5585.0,
        5590.0,
        5595.0,
        5600.0,
        5605.0,
        5610.0,
        5615.0,
        5620.0,
        5625.0,
        5630.0,
        5635.0,
        5640.0,
        5645.0,
        5650.0,
        5655.0,
        5660.0,
        5665.0,
        5670.0,
        5675.0,
        5680.0,
        5685.0,
        5690.0,
        5695.0,
        5700.0,
        5705.0,
        5710.0,
        5715.0,
        5720.0,
        5725.0,
        5730.0,
        5735.0,
        5740.0,
        5745.0,
        5750.0,
        5755.0,
        5760.0,
        5765.0,
        5770.0,
        5775.0,
        5780.0,
        5785.0,
        5790.0,
        5795.0,
        5800.0,
        5805.0,
        5810.0,
        5815.0,
        5820.0,
        5825.0,
        5830.0,
        5835.0,
        5840.0,
        5845.0,
        5850.0,
        5855.0,
        5860.0,
        5865.0,
        5870.0,
        5875.0,
        5880.0,
        5885.0,
        5890.0,
        5895.0,
        5900.0,
        5905.0,
        5910.0,
        5915.0,
        5920.0,
        5925.0,
        5930.0,
        5935.0,
        5940.0,
        5945.0,
        5950.0,
        5955.0,
        5960.0,
        5965.0,
        5970.0,
        5975.0,
        5980.0,
        5985.0,
        5990.0,
        5995.0,
        6000.0,
        6005.0,
        6010.0,
        6015.0,
        6020.0,
        6025.0,
        6030.0,
        6035.0,
        6040.0,
        6045.0,
        6050.0,
        6055.0,
        6060.0,
        6065.0,
        6070.0,
        6075.0,
        6080.0,
        6085.0,
        6090.0,
        6095.0,
        6100.0,
        6105.0,
        6110.0,
        6115.0,
        6120.0,
        6125.0,
        6130.0,
        6135.0,
        6140.0,
        6145.0,
        6150.0,
        6155.0,
        6160.0,
        6165.0,
        6170.0,
        6175.0,
        6180.0,
        6185.0,
        6190.0,
        6195.0,
        6200.0,
        6205.0,
        6210.0,
        6215.0,
        6220.0,
        6225.0,
        6230.0,
        6235.0,
        6240.0,
        6245.0,
        6250.0,
        6255.0,
        6260.0,
        6265.0,
        6270.0,
        6275.0,
        6280.0,
        6285.0,
        6290.0,
        6295.0,
        6300.0,
        6305.0,
        6310.0,
        6315.0,
        6320.0,
        6325.0,
        6330.0,
        6335.0,
        6340.0,
        6345.0,
        6350.0,
        6355.0,
        6360.0,
        6365.0,
        6370.0,
        6375.0,
        6380.0,
        6385.0,
        6390.0,
        6395.0,
        6400.0,
        6405.0,
        6410.0,
        6415.0,
        6420.0,
        6425.0,
        6430.0,
        6435.0,
        6440.0,
        6445.0,
        6450.0,
        6455.0,
        6460.0,
        6465.0,
        6470.0,
        6475.0,
        6480.0,
        6485.0,
        6490.0,
        6495.0,
        6500.0,
        6505.0,
        6510.0,
        6515.0,
        6520.0,
        6525.0,
        6530.0,
        6535.0,
        6540.0,
        6545.0,
        6550.0,
        6555.0,
        6560.0,
        6565.0,
        6570.0,
        6575.0,
        6580.0,
        6585.0,
        6590.0,
        6595.0,
        6600.0,
        6605.0,
        6610.0,
        6615.0,
        6620.0,
        6625.0,
        6630.0,
        6635.0,
        6640.0,
        6645.0,
        6650.0,
        6655.0,
        6660.0,
        6665.0,
        6670.0,
        6675.0,
        6680.0,
        6685.0,
        6690.0,
        6695.0,
        6700.0,
        6705.0,
        6710.0,
        6715.0,
        6720.0,
        6725.0,
        6730.0,
        6735.0,
        6740.0,
        6745.0,
        6750.0,
        6755.0,
        6760.0,
        6765.0,
        6770.0,
        6775.0,
        6780.0,
        6785.0,
        6790.0,
        6795.0,
        6800.0,
        6805.0,
        6810.0,
        6815.0,
        6820.0,
        6825.0,
        6830.0,
        6835.0,
        6840.0,
        6845.0,
        6850.0,
        6855.0,
        6860.0,
        6865.0,
        6870.0,
        6875.0,
        6880.0,
        6885.0,
        6890.0,
        6895.0,
        6900.0,
        6905.0,
        6910.0,
        6915.0,
        6920.0,
        6925.0,
        6930.0,
        6935.0,
        6940.0,
        6945.0,
        6950.0,
        6955.0,
        6960.0,
        6965.0,
        6970.0,
        6975.0,
        6980.0,
        6985.0,
        6990.0,
        6995.0,
        7000.0,
        7005.0,
        7010.0,
        7015.0,
        7020.0,
        7025.0,
        7030.0,
        7035.0,
        7040.0,
        7045.0,
        7050.0,
        7055.0,
        7060.0,
        7065.0,
        7070.0,
        7075.0,
        7080.0,
        7085.0,
        7090.0,
        7095.0,
        7100.0,
        7105.0,
        7110.0,
        7115.0,
        7120.0,
        7125.0,
        7130.0,
        7135.0,
        7140.0,
        7145.0,
        7150.0,
        7155.0,
        7160.0,
        7165.0,
        7170.0,
        7175.0,
        7180.0,
        7185.0,
        7190.0,
        7195.0,
        7200.0,
        7205.0,
        7210.0,
        7215.0,
        7220.0,
        7225.0,
        7230.0,
        7235.0,
        7240.0,
        7245.0,
        7250.0,
        7255.0,
        7260.0,
        7265.0,
        7270.0,
        7275.0,
        7280.0,
        7285.0,
        7290.0,
        7295.0,
        7300.0,
        7305.0,
        7310.0,
        7315.0,
        7320.0,
        7325.0,
        7330.0,
        7335.0,
        7340.0,
        7345.0,
        7350.0,
        7355.0,
        7360.0,
        7365.0,
        7370.0,
        7375.0,
        7380.0,
        7385.0,
        7390.0,
        7395.0,
        7400.0,
        7405.0,
        7410.0,
        7415.0,
        7420.0,
        7425.0,
        7430.0,
        7435.0,
        7440.0,
        7445.0,
        7450.0,
        7455.0,
        7460.0,
        7465.0,
        7470.0,
        7475.0,
        7480.0,
        7485.0,
        7490.0,
        7495.0,
        7500.0,
        7505.0,
        7510.0,
        7515.0,
        7520.0,
        7525.0,
        7530.0,
        7535.0,
        7540.0,
        7545.0,
        7550.0,
        7555.0,
        7560.0,
        7565.0,
        7570.0,
        7575.0,
        7580.0,
        7585.0,
        7590.0,
        7595.0,
        7600.0,
        7605.0,
        7610.0,
        7615.0,
        7620.0,
        7625.0,
        7630.0,
        7635.0,
        7640.0,
        7645.0,
        7650.0,
        7655.0,
        7660.0,
        7665.0,
        7670.0,
        7675.0,
        7680.0,
        7685.0,
        7690.0,
        7695.0,
        7700.0,
        7705.0,
        7710.0,
        7715.0,
        7720.0,
        7725.0,
        7730.0,
        7735.0,
        7740.0,
        7745.0,
        7750.0,
        7755.0,
        7760.0,
        7765.0,
        7770.0,
        7775.0,
        7780.0,
        7785.0,
        7790.0,
        7795.0,
        7800.0,
        7805.0,
        7810.0,
        7815.0,
        7820.0,
        7825.0,
        7830.0,
        7835.0,
        7840.0,
        7845.0,
        7850.0,
        7855.0,
        7860.0,
        7865.0,
        7870.0,
        7875.0,
        7880.0,
        7885.0,
        7890.0,
        7895.0,
        7900.0,
        7905.0,
        7910.0,
        7915.0,
        7920.0,
        7925.0,
        7930.0,
        7935.0,
        7940.0,
        7945.0,
        7950.0,
        7955.0,
        7960.0,
        7965.0,
        7970.0,
        7975.0,
        7980.0,
        7985.0,
        7990.0,
        7995.0,
        8000.0,
        8005.0,
        8010.0,
        8015.0,
        8020.0,
        8025.0,
        8030.0,
        8035.0,
        8040.0,
        8045.0,
        8050.0,
        8055.0,
        8060.0,
        8065.0,
        8070.0,
        8075.0,
        8080.0,
        8085.0,
        8090.0,
        8095.0,
        8100.0,
        8105.0,
        8110.0,
        8115.0,
        8120.0,
        8125.0,
        8130.0,
        8135.0,
        8140.0,
        8145.0,
        8150.0,
        8155.0,
        8160.0,
        8165.0,
        8170.0,
        8175.0,
        8180.0,
        8185.0,
        8190.0,
        8195.0,
        8200.0,
        8205.0,
        8210.0,
        8215.0,
        8220.0,
        8225.0,
        8230.0,
        8235.0,
        8240.0,
        8245.0,
        8250.0,
        8255.0,
        8260.0,
        8265.0,
        8270.0,
        8275.0,
        8280.0,
        8285.0,
        8290.0,
        8295.0,
        8300.0,
        8305.0,
        8310.0,
        8315.0,
        8320.0,
        8325.0,
        8330.0,
        8335.0,
        8340.0,
        8345.0,
        8350.0,
        8355.0,
        8360.0,
        8365.0,
        8370.0,
        8375.0,
        8380.0,
        8385.0,
        8390.0,
        8395.0,
        8400.0,
        8405.0,
        8410.0,
        8415.0,
        8420.0,
        8425.0,
        8430.0,
        8435.0,
        8440.0,
        8445.0,
        8450.0,
        8455.0,
        8460.0,
        8465.0,
        8470.0,
        8475.0,
        8480.0,
        8485.0,
        8490.0,
        8495.0,
        8500.0,
        8505.0,
        8510.0,
        8515.0,
        8520.0,
        8525.0,
        8530.0,
        8535.0,
        8540.0,
        8545.0,
        8550.0,
        8555.0,
        8560.0,
        8565.0,
        8570.0,
        8575.0,
        8580.0,
        8585.0,
        8590.0,
        8595.0,
        8600.0,
        8605.0,
        8610.0,
        8615.0,
        8620.0,
        8625.0,
        8630.0,
        8635.0,
        8640.0,
        8645.0,
        8650.0,
        8655.0,
        8660.0,
        8665.0,
        8670.0,
        8675.0,
        8680.0,
        8685.0,
        8690.0,
        8695.0,
        8700.0,
        8705.0,
        8710.0,
        8715.0,
        8720.0,
        8725.0,
        8730.0,
        8735.0,
        8740.0,
        8745.0,
        8750.0,
        8755.0,
        8760.0,
        8765.0,
        8770.0,
        8775.0,
        8780.0,
        8785.0,
        8790.0,
        8795.0,
        8800.0,
        8805.0,
        8810.0,
        8815.0,
        8820.0,
        8825.0,
        8830.0,
        8835.0,
        8840.0,
        8845.0,
        8850.0,
        8855.0,
        8860.0,
        8865.0,
        8870.0,
        8875.0,
        8880.0,
        8885.0,
        8890.0,
        8895.0,
        8900.0,
        8905.0,
        8910.0,
        8915.0,
        8920.0,
        8925.0,
        8930.0,
        8935.0,
        8940.0,
        8945.0,
        8950.0,
        8955.0,
        8960.0,
        8965.0,
        8970.0,
        8975.0,
        8980.0,
        8985.0,
        8990.0,
        8995.0,
        9000.0,
        9005.0,
        9010.0,
        9015.0,
        9020.0,
        9025.0,
        9030.0,
        9035.0,
        9040.0,
        9045.0,
        9050.0,
        9055.0,
        9060.0,
        9065.0,
        9070.0,
        9075.0,
        9080.0,
        9085.0,
        9090.0,
        9095.0,
        9100.0,
        9105.0,
        9110.0,
        9115.0,
        9120.0,
        9125.0,
        9130.0,
        9135.0,
        9140.0,
        9145.0,
        9150.0,
        9155.0,
        9160.0,
        9165.0,
        9170.0,
        9175.0,
        9180.0,
        9185.0,
        9190.0,
        9195.0,
        9200.0,
        9205.0,
        9210.0,
        9215.0,
        9220.0,
        9225.0,
        9230.0,
        9235.0,
        9240.0,
        9245.0,
        9250.0,
        9255.0,
        9260.0,
        9265.0,
        9270.0,
        9275.0,
        9280.0,
        9285.0,
        9290.0,
        9295.0,
        9300.0,
        9305.0,
        9310.0,
        9315.0,
        9320.0,
        9325.0,
        9330.0,
        9335.0,
        9340.0,
        9345.0,
        9350.0,
        9355.0,
        9360.0,
        9365.0,
        9370.0,
        9375.0,
        9380.0,
        9385.0,
        9390.0,
        9395.0,
        9400.0,
        9405.0,
        9410.0,
        9415.0,
        9420.0,
        9425.0,
        9430.0,
        9435.0,
        9440.0,
        9445.0,
        9450.0,
        9455.0,
        9460.0,
        9465.0,
        9470.0,
        9475.0,
        9480.0,
        9485.0,
        9490.0,
        9495.0,
        9500.0,
        9505.0,
        9510.0,
        9515.0,
        9520.0,
        9525.0,
        9530.0,
        9535.0,
        9540.0,
        9545.0,
        9550.0,
        9555.0,
        9560.0,
        9565.0,
        9570.0,
        9575.0,
        9580.0,
        9585.0,
        9590.0,
        9595.0,
        9600.0,
        9605.0,
        9610.0,
        9615.0,
        9620.0,
        9625.0,
        9630.0,
        9635.0,
        9640.0,
        9645.0,
        9650.0,
        9655.0,
        9660.0,
        9665.0,
        9670.0,
        9675.0,
        9680.0,
        9685.0,
        9690.0,
        9695.0,
        9700.0,
        9705.0,
        9710.0,
        9715.0,
        9720.0,
        9725.0,
        9730.0,
        9735.0,
        9740.0,
        9745.0,
        9750.0,
        9755.0,
        9760.0,
        9765.0,
        9770.0,
        9775.0,
        9780.0,
        9785.0,
        9790.0,
        9795.0,
        9800.0,
        9805.0,
        9810.0,
        9815.0,
        9820.0,
        9825.0,
        9830.0,
        9835.0,
        9840.0,
        9845.0,
        9850.0,
        9855.0,
        9860.0,
        9865.0,
        9870.0,
        9875.0,
        9880.0,
        9885.0,
        9890.0,
        9895.0,
        9900.0,
        9905.0,
        9910.0,
        9915.0,
        9920.0,
        9925.0,
        9930.0,
        9935.0,
        9940.0,
        9945.0,
        9950.0,
        9955.0,
        9960.0,
        9965.0,
        9970.0,
        9975.0,
        9980.0,
        9985.0,
        9990.0,
        9995.0,
        10000.0,
        10005.0,
        10010.0,
        10015.0,
        10020.0,
        10025.0,
        10030.0,
        10035.0,
        10040.0,
        10045.0,
        10050.0,
        10055.0,
        10060.0,
        10065.0,
        10070.0,
        10075.0,
        10080.0,
        10085.0,
        10090.0,
        10095.0,
        10100.0,
        10105.0,
        10110.0,
        10115.0,
        10120.0,
        10125.0,
        10130.0,
        10135.0,
        10140.0,
        10145.0,
        10150.0,
        10155.0,
        10160.0,
        10165.0,
        10170.0,
        10175.0,
        10180.0,
        10185.0,
        10190.0,
        10195.0,
        10200.0,
        10205.0,
        10210.0,
        10215.0,
        10220.0,
        10225.0,
        10230.0,
        10235.0,
        10240.0,
        10245.0,
        10250.0,
        10255.0,
        10260.0,
        10265.0,
        10270.0,
        10275.0,
        10280.0,
        10285.0,
        10290.0,
        10295.0,
        10300.0,
        10305.0,
        10310.0,
        10315.0,
        10320.0,
        10325.0,
        10330.0,
        10335.0,
        10340.0,
        10345.0,
        10350.0,
        10355.0,
        10360.0,
        10365.0,
        10370.0,
        10375.0,
        10380.0,
        10385.0,
        10390.0,
        10395.0,
        10400.0,
        10405.0,
        10410.0,
        10415.0,
        10420.0,
        10425.0,
        10430.0,
        10435.0,
        10440.0,
        10445.0,
        10450.0,
        10455.0,
        10460.0,
        10465.0,
        10470.0,
        10475.0,
        10480.0,
        10485.0,
        10490.0,
        10495.0,
        10500.0
      ],
      "units":"angstrom"
    },
    "values":{
      "value":[
        1.530129,
        1.032613,
        0.72728,
        0.532408,
        0.420349,
        0.408327,
        0.316608,
        0.185472,
        0.0,
        0.0,
        0.0,
        0.047121,
        0.077969,
        0.026013,
        0.050548,
        0.078596,
        0.149855,
        0.222803,
        0.395202,
        0.604009,
        0.774908,
        0.781932,
        0.591078,
        0.841718,
        1.344341,
        1.535049,
        1.777005,
        1.884654,
        1.725357,
        1.750093,
        1.487,
        1.07781,
        1.384106,
        2.206183,
        2.422284,
        2.284753,
        1.962179,
        1.874251,
        2.490498,
        2.66982,
        2.444915,
        2.39829,
        2.265369,
        2.151433,
        2.333635,
        2.385022,
        2.329112,
        2.399833,
        2.326815,
        2.328483,
        2.373931,
        2.307319,
        2.147877,
        2.222971,
        2.274531,
        2.37539,
        2.342671,
        2.258733,
        2.45542,
        2.595183,
        2.791346,
        2.912509,
        2.812431,
        2.571198,
        2.468624,
        2.56696,
        2.577019,
        2.624894,
        2.781281,
        2.88762,
        3.004266,
        2.830476,
        2.425326,
        2.434479,
        2.63844,
        2.493302,
        2.305759,
        2.268027,
        2.614113,
        2.66827,
        2.547747,
        2.539789,
        2.433079,
        2.461446,
        2.505315,
        2.488177,
        2.542481,
        2.532119,
        2.507063,
        2.460837,
        2.416219,
        2.239324,
        2.342167,
        2.479672,
        2.341182,
        2.326364,
        2.283692,
        2.315428,
        2.295526,
        2.289264,
        2.197891,
        2.054637,
        2.091579,
        2.183779,
        2.106704,
        2.080831,
        2.233098,
        2.270366,
        2.357567,
        2.368908,
        2.397221,
        2.309198,
        2.277816,
        2.176751,
        2.053647,
        1.976786,
        2.070199,
        2.129949,
        2.262803,
        2.249371,
        2.260929,
        2.31473,
        2.223958,
        2.107936,
        2.149833,
        2.135176,
        2.102371,
        1.862154,
        1.470473,
        2.081517,
        2.382131,
        2.389151,
        2.329073,
        2.33506,
        2.304096,
        2.32096,
        2.293537,
        2.228563,
        2.147863,
        2.044985,
        2.047039,
        2.115469,
        2.112531,
        2.131176,
        2.172777,
        2.151896,
        2.126149,
        2.170325,
        2.130477,
        2.107962,
        2.028143,
        2.060184,
        2.10997,
        2.128251,
        2.185758,
        2.096878,
        1.98788,
        2.027407,
        2.128989,
        2.162992,
        1.989731,
        1.670168,
        1.882841,
        2.081528,
        1.915743,
        1.806421,
        1.666769,
        1.776715,
        1.92776,
        1.939577,
        1.890745,
        1.836612,
        1.79422,
        1.722255,
        1.714334,
        1.950982,
        1.721025,
        1.659433,
        1.710757,
        1.554468,
        1.525779,
        1.627946,
        1.591063,
        1.506293,
        1.604881,
        1.762373,
        1.740462,
        1.524151,
        1.525644,
        1.486625,
        1.365308,
        1.6113,
        1.540685,
        1.491583,
        1.546979,
        1.672688,
        1.457759,
        1.25738,
        1.3974,
        1.664286,
        1.65339,
        1.542569,
        1.43031,
        1.194159,
        1.08785,
        1.284608,
        1.473794,
        1.531972,
        1.448783,
        1.275542,
        1.404543,
        1.39038,
        1.41591,
        1.348237,
        1.510118,
        1.4172,
        1.241287,
        1.195696,
        1.070964,
        1.198256,
        1.153123,
        1.195998,
        1.393165,
        1.443903,
        1.236381,
        1.351371,
        1.298198,
        1.349646,
        1.252019,
        1.103606,
        1.151127,
        1.373259,
        1.451926,
        1.112816,
        1.147554,
        1.245745,
        1.119097,
        1.040088,
        1.167898,
        1.259635,
        1.314895,
        1.356719,
        1.348216,
        1.312451,
        1.297205,
        1.159246,
        1.118804,
        1.189555,
        1.150059,
        1.115419,
        1.135242,
        1.074864,
        1.059608,
        1.169519,
        1.194173,
        1.248925,
        1.305387,
        1.384207,
        1.386537,
        1.230252,
        1.137837,
        1.170566,
        1.289418,
        1.327639,
        1.123647,
        1.117209,
        1.187926,
        1.282264,
        1.195065,
        1.259057,
        1.326755,
        1.339679,
        1.273604,
        1.222242,
        1.210819,
        1.222338,
        1.324513,
        1.351046,
        1.224909,
        1.176646,
        1.207235,
        1.242842,
        1.229841,
        1.335168,
        1.305864,
        1.294293,
        1.307156,
        1.229782,
        1.180029,
        1.146811,
        1.154549,
        1.194568,
        1.1983,
        1.328738,
        1.281716,
        1.212451,
        1.233921,
        1.305305,
        1.313909,
        1.351242,
        1.460776,
        1.464243,
        1.329172,
        1.306764,
        1.267339,
        1.251587,
        1.298059,
        1.295265,
        1.375343,
        1.256516,
        1.205905,
        1.194688,
        1.27239,
        1.315831,
        1.320457,
        1.237384,
        1.172615,
        1.223284,
        1.191091,
        1.065685,
        0.987826,
        1.057974,
        1.071977,
        0.989154,
        1.16388,
        1.258481,
        1.246326,
        1.208752,
        1.134817,
        0.904668,
        0.797508,
        0.937615,
        1.109975,
        1.113916,
        1.189204,
        1.200223,
        1.113099,
        1.090922,
        1.040223,
        0.99325,
        0.985895,
        1.105763,
        1.199156,
        1.093527,
        1.092042,
        1.174164,
        1.169001,
        1.154443,
        1.125873,
        1.097731,
        1.168578,
        1.291018,
        1.264325,
        1.232391,
        1.208065,
        1.185598,
        1.134813,
        1.144787,
        1.153675,
        1.234649,
        1.237035,
        1.176042,
        1.156594,
        1.167675,
        1.231413,
        1.181711,
        1.056265,
        1.114973,
        1.281413,
        1.246454,
        1.175563,
        1.107154,
        1.129776,
        1.098931,
        1.168522,
        1.178403,
        1.09404,
        1.101621,
        1.116409,
        1.016625,
        1.002566,
        1.035842,
        1.089805,
        1.108154,
        1.045128,
        1.091636,
        1.084445,
        0.990175,
        0.972659,
        1.07891,
        1.072507,
        0.958448,
        0.953783,
        1.03204,
        0.960557,
        0.982489,
        0.982698,
        0.889808,
        0.847941,
        1.040425,
        0.86253,
        0.877004,
        0.99748,
        0.90251,
        0.8754,
        0.941165,
        1.001895,
        1.000652,
        1.118961,
        1.029223,
        1.035832,
        1.0042,
        0.991437,
        1.015741,
        1.026008,
        0.979643,
        0.937402,
        0.959158,
        0.997886,
        1.000064,
        0.993066,
        1.010616,
        1.030942,
        1.026567,
        1.002688,
        0.973814,
        0.959019,
        0.970124,
        0.985353,
        0.982802,
        0.973648,
        0.972557,
        0.975049,
        0.974236,
        0.972728,
        0.972958,
        0.967146,
        0.950867,
        0.943316,
        0.960462,
        0.98173,
        0.984423,
        0.973884,
        0.960711,
        0.948482,
        0.940195,
        0.943568,
        0.961682,
        0.974362,
        0.964538,
        0.950821,
        0.953491,
        0.963811,
        0.968139,
        0.962213,
        0.947106,
        0.935837,
        0.938936,
        0.945023,
        0.941514,
        0.932924,
        0.926985,
        0.927192,
        0.933793,
        0.938273,
        0.932786,
        0.920901,
        0.909084,
        0.903952,
        0.908613,
        0.91199,
        0.904781,
        0.928202,
        0.935831,
        0.973537,
        0.980001,
        0.965219,
        0.970367,
        0.973591,
        0.978619,
        0.969605,
        0.93949,
        0.931573,
        0.924428,
        0.906541,
        0.895926,
        0.896849,
        0.871159,
        0.879178,
        0.905263,
        0.894959,
        0.875409,
        0.849615,
        0.849391,
        0.858007,
        0.879667,
        0.867733,
        0.878175,
        0.911105,
        0.895141,
        0.931289,
        0.939277,
        0.940455,
        0.933341,
        0.959084,
        0.957454,
        0.92356,
        0.926679,
        0.931749,
        0.946051,
        0.928625,
        0.903764,
        0.928748,
        0.978531,
        0.94837,
        1.06823,
        1.083893,
        0.944191,
        1.13264,
        1.060715,
        0.937017,
        1.174083,
        1.240124,
        1.163768,
        1.001119,
        1.267382,
        1.663077,
        1.687937,
        1.422594,
        1.090228,
        1.167232,
        1.534164,
        1.806499,
        1.881656,
        1.874493,
        1.582113,
        1.178004,
        0.964096,
        1.282938,
        1.68947,
        1.951641,
        2.065672,
        2.137264,
        2.192067,
        2.068875,
        1.833912,
        1.530501,
        1.110661,
        1.022201,
        1.373533,
        1.680695,
        1.956423,
        2.174923,
        2.19271,
        2.249978,
        2.214156,
        1.768825,
        1.67203,
        2.067567,
        2.119082,
        2.009426,
        1.827903,
        1.549495,
        1.107025,
        0.868501,
        1.247834,
        1.650594,
        1.909413,
        2.101093,
        2.180559,
        2.230145,
        2.280701,
        2.349914,
        2.393585,
        2.40951,
        2.358052,
        2.318429,
        2.356112,
        2.390415,
        2.330975,
        2.339336,
        2.316346,
        2.259183,
        2.188266,
        2.129357,
        1.997008,
        1.914019,
        1.850995,
        1.657419,
        1.328637,
        0.98405,
        1.05813,
        1.425707,
        1.702815,
        1.866597,
        1.951049,
        1.961847,
        2.054043,
        2.121298,
        2.151429,
        2.152779,
        2.111116,
        2.153478,
        2.172463,
        2.128832,
        2.050736,
        2.042241,
        2.088911,
        2.116742,
        2.110883,
        2.034811,
        2.064086,
        2.117318,
        2.116597,
        2.09455,
        2.042467,
        2.062003,
        2.030965,
        2.048552,
        2.029748,
        2.005136,
        2.048082,
        2.044641,
        2.063283,
        1.994985,
        1.996432,
        2.013458,
        1.961247,
        1.911183,
        1.907012,
        1.838197,
        1.790922,
        1.752399,
        1.721961,
        1.694301,
        1.542139,
        1.365349,
        1.079316,
        0.838108,
        1.010562,
        1.294638,
        1.514233,
        1.692623,
        1.806795,
        1.837649,
        1.850192,
        1.871454,
        1.842452,
        1.899554,
        1.891266,
        1.87873,
        1.910627,
        1.91888,
        1.847231,
        1.867885,
        1.901887,
        1.898112,
        1.888355,
        1.876553,
        1.819506,
        1.840344,
        1.803432,
        1.790209,
        1.812813,
        1.805811,
        1.818744,
        1.743663,
        1.783946,
        1.769765,
        1.795454,
        1.831356,
        1.833056,
        1.831172,
        1.79357,
        1.748877,
        1.731449,
        1.717779,
        1.767595,
        1.805704,
        1.769793,
        1.669689,
        1.673919,
        1.690762,
        1.732131,
        1.749109,
        1.739277,
        1.70811,
        1.659276,
        1.67163,
        1.703098,
        1.717491,
        1.737546,
        1.75138,
        1.732031,
        1.708236,
        1.682351,
        1.632045,
        1.650679,
        1.676001,
        1.673048,
        1.683829,
        1.677848,
        1.663153,
        1.634495,
        1.661416,
        1.68141,
        1.686295,
        1.689287,
        1.674049,
        1.675365,
        1.64186,
        1.626784,
        1.622799,
        1.622854,
        1.614708,
        1.608582,
        1.575547,
        1.559957,
        1.557075,
        1.579985,
        1.587714,
        1.551832,
        1.563005,
        1.538874,
        1.542483,
        1.54527,
        1.511689,
        1.489169,
        1.496081,
        1.53336,
        1.525228,
        1.487495,
        1.475678,
        1.4776,
        1.415754,
        1.365731,
        1.35077,
        1.31666,
        1.275519,
        1.186366,
        1.072899,
        0.883265,
        0.711668,
        0.741119,
        0.912051,
        1.048562,
        1.156595,
        1.185466,
        1.224382,
        1.266961,
        1.293665,
        1.336422,
        1.383903,
        1.395433,
        1.345463,
        1.356966,
        1.403687,
        1.375755,
        1.395421,
        1.420086,
        1.427951,
        1.381761,
        1.355069,
        1.369515,
        1.378875,
        1.377953,
        1.332966,
        1.325731,
        1.335738,
        1.335795,
        1.327981,
        1.306518,
        1.269838,
        1.231981,
        1.253586,
        1.28143,
        1.2951,
        1.293693,
        1.280271,
        1.300798,
        1.294323,
        1.301882,
        1.317305,
        1.303493,
        1.27614,
        1.253256,
        1.23507,
        1.239341,
        1.268841,
        1.257331,
        1.25494,
        1.254966,
        1.268193,
        1.279626,
        1.255811,
        1.234857,
        1.220368,
        1.21199,
        1.22414,
        1.213793,
        1.224557,
        1.229437,
        1.209584,
        1.138419,
        1.11423,
        1.184065,
        1.192485,
        1.161821,
        1.172968,
        1.175844,
        1.19018,
        1.168472,
        1.174161,
        1.191305,
        1.203115,
        1.148599,
        1.141469,
        1.156094,
        1.177229,
        1.189963,
        1.172431,
        1.166466,
        1.151014,
        1.116913,
        1.100658,
        1.095049,
        1.106535,
        1.120388,
        1.157623,
        1.153415,
        1.141167,
        1.151278,
        1.140703,
        1.103873,
        1.101104,
        1.070641,
        1.063331,
        1.096723,
        1.110034,
        1.126188,
        1.127599,
        1.127292,
        1.10433,
        1.069586,
        1.072928,
        1.106232,
        1.088666,
        1.069155,
        1.06792,
        1.052114,
        1.053711,
        1.055319,
        1.068431,
        1.079716,
        1.081248,
        1.050249,
        1.044899,
        1.055455,
        1.075993,
        1.056649,
        1.048607,
        1.032772,
        1.041808,
        1.044659,
        1.047483,
        1.035583,
        1.032086,
        1.044815,
        1.043604,
        1.050579,
        1.046849,
        1.032982,
        1.03213,
        1.045992,
        1.039412,
        1.003919,
        0.997289,
        1.000301,
        1.011158,
        1.006386,
        1.001894,
        1.001866,
        1.011918,
        0.99755,
        0.975737,
        0.973998,
        0.986033,
        0.976988,
        0.974659,
        0.969197,
        0.984037,
        0.992338,
        0.987063,
        0.954219,
        0.961874,
        0.974956,
        0.970374,
        0.960613,
        0.973414,
        0.98453,
        0.965006,
        0.944613,
        0.931108,
        0.931687,
        0.943174,
        0.940234,
        0.918918,
        0.910814,
        0.916689,
        0.926352,
        0.916415,
        0.896275,
        0.893754,
        0.91783,
        0.924843,
        0.920155,
        0.926457,
        0.921149,
        0.914072,
        0.914734,
        0.885305,
        0.867228,
        0.890848,
        0.897595,
        0.89729,
        0.887521,
        0.866886,
        0.868475,
        0.871661,
        0.874012,
        0.8819,
        0.881095,
        0.886123,
        0.875279,
        0.856084,
        0.850169,
        0.844353,
        0.850888,
        0.862309,
        0.856514,
        0.856632,
        0.865596,
        0.864583,
        0.872804,
        0.877828,
        0.877244,
        0.877971,
        0.835639,
        0.786633,
        0.781649,
        0.811186,
        0.843373,
        0.840253,
        0.848684,
        0.838095,
        0.83525,
        0.820657,
        0.815543,
        0.814428,
        0.816923,
        0.815987,
        0.814298,
        0.806578,
        0.804277,
        0.804343,
        0.803477,
        0.800545,
        0.800731,
        0.800842,
        0.795606,
        0.787716,
        0.784818,
        0.794466,
        0.793675,
        0.79348,
        0.78519,
        0.78453,
        0.780325,
        0.774599,
        0.777758,
        0.77772,
        0.767758,
        0.771617,
        0.774952,
        0.774264,
        0.767085,
        0.768956,
        0.762636,
        0.762123,
        0.756355,
        0.754402,
        0.75038,
        0.754305,
        0.750347,
        0.755602,
        0.750128,
        0.748503,
        0.746882,
        0.735167,
        0.735874,
        0.733997,
        0.738081,
        0.735394,
        0.734172,
        0.73143,
        0.732124,
        0.728283,
        0.729964,
        0.732034,
        0.729602,
        0.728249,
        0.727438,
        0.723601,
        0.722172,
        0.718728,
        0.718521,
        0.71302,
        0.708757,
        0.707955,
        0.699148,
        0.703548,
        0.707983,
        0.712248,
        0.715097,
        0.707189,
        0.694323,
        0.676948,
        0.688751,
        0.695359,
        0.696302,
        0.688664,
        0.689471,
        0.69198,
        0.689621,
        0.686855,
        0.685433,
        0.682899,
        0.685133,
        0.684367,
        0.667095,
        0.668441,
        0.677024,
        0.675837,
        0.678913,
        0.662902,
        0.661771,
        0.667655,
        0.668472,
        0.67082,
        0.665871,
        0.663323,
        0.665545,
        0.661015,
        0.656451,
        0.656822,
        0.661304,
        0.656495,
        0.651803,
        0.64999,
        0.643904,
        0.637147,
        0.626876,
        0.626339,
        0.627627,
        0.624608,
        0.621535,
        0.616144,
        0.607683,
        0.599916,
        0.594263,
        0.600603,
        0.606336,
        0.606408,
        0.598334,
        0.602166,
        0.601146,
        0.592073,
        0.581649,
        0.57538,
        0.556532,
        0.527704,
        0.483395,
        0.405847,
        0.373203,
        0.457226,
        0.518701,
        0.547415,
        0.56312,
        0.573122,
        0.579798,
        0.587202,
        0.59223,
        0.593852,
        0.595689,
        0.598281,
        0.5962,
        0.590428,
        0.589198,
        0.585124,
        0.586003,
        0.589681,
        0.583997,
        0.581772,
        0.58129,
        0.577597,
        0.572746,
        0.572087,
        0.575217,
        0.574322,
        0.573716,
        0.573096,
        0.564981,
        0.561695,
        0.565198,
        0.564768,
        0.565297,
        0.562007,
        0.561845,
        0.560523,
        0.558532,
        0.557898,
        0.554789,
        0.558648,
        0.560293,
        0.561692,
        0.552735,
        0.548839,
        0.548332,
        0.550829,
        0.550937,
        0.549738,
        0.545098,
        0.543442,
        0.543781,
        0.541324,
        0.540756,
        0.540551,
        0.541811,
        0.540767,
        0.539683,
        0.538618,
        0.537573,
        0.536536,
        0.535463,
        0.534398,
        0.533365,
        0.532309,
        0.531246,
        0.530201,
        0.529175,
        0.528152,
        0.527129,
        0.526104,
        0.525112,
        0.524138,
        0.523171,
        0.522252,
        0.521303,
        0.520362,
        0.519507,
        0.518542,
        0.517551,
        0.516577,
        0.515568,
        0.514696,
        0.512679,
        0.504567,
        0.501838,
        0.499412,
        0.501533,
        0.501179,
        0.495059,
        0.497935,
        0.496065,
        0.496624,
        0.499391,
        0.500643,
        0.498932,
        0.493295,
        0.491079,
        0.493532,
        0.489997,
        0.491144,
        0.489091,
        0.484714,
        0.489847,
        0.491757,
        0.487627,
        0.488272,
        0.485082,
        0.479427,
        0.481965,
        0.478996,
        0.478765,
        0.476836,
        0.47954,
        0.484986,
        0.485958,
        0.481947,
        0.481852,
        0.48323,
        0.483373,
        0.483754,
        0.476541,
        0.47141,
        0.462781,
        0.455334,
        0.442193,
        0.443069,
        0.448131,
        0.450117,
        0.45266,
        0.464267,
        0.475364,
        0.473733,
        0.470596,
        0.467645,
        0.463009,
        0.461589,
        0.458139,
        0.452259,
        0.443282,
        0.449294,
        0.452904,
        0.450993,
        0.445315,
        0.449733,
        0.451511,
        0.44482,
        0.445124,
        0.448513,
        0.440712,
        0.438579,
        0.438143,
        0.440727,
        0.440014,
        0.439225,
        0.438784,
        0.440741,
        0.433711,
        0.430487,
        0.434057,
        0.432164,
        0.428394,
        0.424118,
        0.427561,
        0.424687,
        0.425637,
        0.43024,
        0.429459,
        0.424947,
        0.426847,
        0.426352,
        0.423982,
        0.421682,
        0.420212,
        0.41964,
        0.418739,
        0.41391,
        0.412981,
        0.416726,
        0.418182,
        0.418441,
        0.412689,
        0.407635,
        0.410652,
        0.413398,
        0.411255,
        0.408901,
        0.409069,
        0.406581,
        0.406195,
        0.404071,
        0.402986,
        0.404345,
        0.402372,
        0.401505,
        0.399677,
        0.399461,
        0.399505,
        0.398853,
        0.39806,
        0.397303,
        0.396489,
        0.395699,
        0.394857,
        0.394021,
        0.393258,
        0.392441,
        0.391642,
        0.390806,
        0.390008,
        0.38924,
        0.388478,
        0.387717,
        0.386954,
        0.386186,
        0.385412,
        0.38463,
        0.383837,
        0.383032,
        0.382215,
        0.381387,
        0.380549,
        0.379709,
        0.37882,
        0.377868,
        0.376954,
        0.376042,
        0.375198,
        0.374361,
        0.373733,
        0.373336,
        0.373464,
        0.373211,
        0.372434,
        0.371426,
        0.371982,
        0.372415,
        0.37064,
        0.369556,
        0.367326,
        0.366218,
        0.36013,
        0.353425,
        0.339669,
        0.351511,
        0.362245,
        0.362291,
        0.359644,
        0.361252,
        0.359868,
        0.360561,
        0.360516,
        0.35923,
        0.35773,
        0.35733,
        0.355101,
        0.353546,
        0.351565,
        0.35316,
        0.350544,
        0.349181,
        0.349332,
        0.349732,
        0.348724,
        0.345012,
        0.347692,
        0.347276,
        0.341712,
        0.341035,
        0.344795,
        0.343672,
        0.343029,
        0.344097,
        0.341935,
        0.342336,
        0.342127,
        0.340419,
        0.339977,
        0.337372,
        0.336738,
        0.334978,
        0.336511,
        0.335964,
        0.334437,
        0.33555,
        0.334828,
        0.334511,
        0.33196,
        0.330002,
        0.333041,
        0.330312,
        0.329546,
        0.329687,
        0.327214,
        0.32745,
        0.328246,
        0.327456,
        0.326925,
        0.326721,
        0.326917,
        0.325774,
        0.324805,
        0.325425,
        0.326011,
        0.324143,
        0.323702,
        0.323599,
        0.322298,
        0.320454,
        0.323658,
        0.322262,
        0.319598,
        0.319112,
        0.320141,
        0.318357,
        0.316313,
        0.316785,
        0.312471,
        0.309933,
        0.311315,
        0.308625,
        0.303369,
        0.307223,
        0.311063,
        0.306083,
        0.302307,
        0.302659,
        0.308288,
        0.307842,
        0.314475,
        0.312333,
        0.307798,
        0.304174,
        0.296161,
        0.286854,
        0.295641,
        0.303614,
        0.304257,
        0.308101,
        0.306446,
        0.302455,
        0.307265,
        0.30445,
        0.299445,
        0.298674,
        0.297704,
        0.297234,
        0.295529,
        0.296706,
        0.292902,
        0.295359,
        0.29519,
        0.292588,
        0.294481,
        0.294566,
        0.293929,
        0.294708,
        0.2944,
        0.292889,
        0.292562,
        0.290047,
        0.291382,
        0.289632,
        0.286248,
        0.28962,
        0.293566,
        0.286144,
        0.28122,
        0.288997,
        0.292596,
        0.285268,
        0.274203,
        0.286549,
        0.293692,
        0.28924,
        0.276307,
        0.263023,
        0.271737,
        0.284736,
        0.295815,
        0.285815,
        0.264553,
        0.253407,
        0.273009,
        0.291288,
        0.299693,
        0.296096,
        0.281937,
        0.253784,
        0.241983,
        0.263715,
        0.284144,
        0.294443,
        0.298803,
        0.294829,
        0.282003,
        0.25743,
        0.230253,
        0.242785,
        0.270007,
        0.288374,
        0.296696,
        0.296442,
        0.299325,
        0.293682,
        0.282852,
        0.265917,
        0.238516,
        0.219069,
        0.243117,
        0.270259,
        0.289645,
        0.299883,
        0.304002,
        0.302429,
        0.303879,
        0.304881,
        0.304774,
        0.291871,
        0.2716,
        0.243261,
        0.211375,
        0.22166,
        0.249315,
        0.264483,
        0.274819,
        0.291832,
        0.299936,
        0.305732,
        0.302556,
        0.306081,
        0.303564,
        0.301523,
        0.296205,
        0.291718,
        0.280241,
        0.264319,
        0.237426,
        0.209046,
        0.211626,
        0.242802,
        0.261224,
        0.272299,
        0.277647,
        0.280682,
        0.279121,
        0.279404,
        0.277325,
        0.279186,
        0.281815,
        0.27988,
        0.276469,
        0.273216,
        0.269085,
        0.268277,
        0.26345,
        0.258206,
        0.254237,
        0.246269,
        0.224043,
        0.19571,
        0.188219,
        0.207673,
        0.232861,
        0.248539,
        0.257314,
        0.262891,
        0.265715,
        0.27045,
        0.270037,
        0.272931,
        0.272699,
        0.27301,
        0.268213,
        0.263985,
        0.265693,
        0.262794,
        0.262079,
        0.260074,
        0.260934,
        0.261402,
        0.26073,
        0.261306,
        0.257226,
        0.258113,
        0.251962,
        0.236597,
        0.238785,
        0.234879,
        0.218554,
        0.199366,
        0.177434,
        0.184739,
        0.211514,
        0.229035,
        0.247352,
        0.255973,
        0.257511,
        0.25883,
        0.260723,
        0.255702,
        0.254457,
        0.252099,
        0.25207,
        0.252375,
        0.248808,
        0.252907,
        0.251572,
        0.25073,
        0.255933,
        0.262385,
        0.262255,
        0.258665,
        0.261083,
        0.256791,
        0.249235,
        0.253915,
        0.257023,
        0.251724,
        0.240673,
        0.249844,
        0.251445,
        0.24645,
        0.240295,
        0.248557,
        0.248211,
        0.243025,
        0.241029,
        0.243453,
        0.242781,
        0.23381,
        0.22124,
        0.208325,
        0.187941,
        0.172087,
        0.182402,
        0.200175,
        0.216246,
        0.230223,
        0.236021,
        0.235967,
        0.235337,
        0.244245,
        0.248146,
        0.248093,
        0.250765,
        0.249926,
        0.244908,
        0.239275,
        0.236676,
        0.231756,
        0.228558,
        0.223436,
        0.216943,
        0.222757,
        0.212626,
        0.211942,
        0.19702,
        0.225865,
        0.217208,
        0.220571,
        0.235409,
        0.219314,
        0.230387,
        0.221777,
        0.240463,
        0.253557,
        0.271833,
        0.259469,
        0.254914,
        0.253026,
        0.254105,
        0.245337,
        0.238319,
        0.214599,
        0.23702,
        0.214635,
        0.215756,
        0.233816,
        0.226562,
        0.215289,
        0.224078,
        0.227227,
        0.217417,
        0.224026,
        0.22745,
        0.231288,
        0.211476,
        0.19868,
        0.216529,
        0.235682,
        0.221821,
        0.197391,
        0.189209,
        0.195677,
        0.191147,
        0.176345,
        0.154248,
        0.158121,
        0.166851,
        0.195005,
        0.189408,
        0.197526,
        0.219694,
        0.222023,
        0.206108,
        0.196575,
        0.201123,
        0.211924,
        0.213395,
        0.210606,
        0.214807,
        0.208678,
        0.211408,
        0.212943,
        0.211666,
        0.207325,
        0.213668,
        0.217432,
        0.216146,
        0.208495,
        0.208556,
        0.216641,
        0.214819,
        0.21737,
        0.219177,
        0.225128,
        0.221789,
        0.215297,
        0.208369,
        0.209277,
        0.213964,
        0.215281,
        0.211802,
        0.211632,
        0.205514,
        0.208262,
        0.208851,
        0.20579,
        0.206424,
        0.205622,
        0.205571,
        0.203943,
        0.205816,
        0.205916,
        0.214646,
        0.204447,
        0.207169,
        0.201375,
        0.203258,
        0.211009,
        0.209355,
        0.206308,
        0.205972,
        0.205931,
        0.204387,
        0.200399,
        0.197326,
        0.198118,
        0.200716,
        0.200725,
        0.196898,
        0.195019,
        0.192744,
        0.192573,
        0.190845,
        0.1906,
        0.19332,
        0.197278,
        0.199689,
        0.196935,
        0.196798,
        0.201257,
        0.197133,
        0.196403,
        0.193917,
        0.19009,
        0.192825,
        0.194724,
        0.190028,
        0.187786,
        0.185989,
        0.187355,
        0.187575,
        0.183994,
        0.179909,
        0.177914,
        0.180435,
        0.178315,
        0.17268,
        0.165432,
        0.156837,
        0.163883,
        0.166983,
        0.160363,
        0.154659,
        0.152766,
        0.159209,
        0.148106,
        0.144315,
        0.150606,
        0.159709,
        0.160116,
        0.159497,
        0.166473,
        0.171102,
        0.177336,
        0.181482,
        0.181934,
        0.181505,
        0.179792,
        0.17772,
        0.176212,
        0.175944,
        0.17661,
        0.177657,
        0.178531,
        0.17881,
        0.178597,
        0.178126,
        0.17763,
        0.177283,
        0.177024,
        0.176728,
        0.176274,
        0.175565,
        0.174606,
        0.173427,
        0.172059,
        0.170586,
        0.169301,
        0.16855,
        0.168681,
        0.169868,
        0.171605,
        0.173211,
        0.17401,
        0.173534,
        0.172169,
        0.170512,
        0.169162,
        0.168574,
        0.168645,
        0.169127,
        0.169776,
        0.17039,
        0.170958,
        0.171515,
        0.172095,
        0.173013,
        0.173222,
        0.173389,
        0.173481,
        0.173467,
        0.173346,
        0.173118,
        0.172787,
        0.172365,
        0.171896,
        0.171434,
        0.171032,
        0.170736,
        0.170557,
        0.170496,
        0.170557,
        0.170725,
        0.170911,
        0.171009,
        0.170916,
        0.170567,
        0.17007,
        0.169576,
        0.169235,
        0.169153,
        0.16926,
        0.169444,
        0.169591,
        0.169595,
        0.169376,
        0.168862,
        0.167981,
        0.166722,
        0.165317,
        0.164061,
        0.163247,
        0.163056,
        0.163212,
        0.163327,
        0.163009
      ],
      "range":1
    }
  }
]
