[
  {
    "model":"Star, type RG5(v)",
    "name":"Star, type RG5(v)",
    "type":"WB_REF",
    "dataQualityMarker":3,
    "dataSource":"https://www.eso.org/sci/facilities/paranal/decommissioned/isaac/tools/lib.html",
    "manufacturer":"A. Pickles (A.J. Pickles, PASP 110,863, 1998)",
    "version":1,
    "wavelength":{
      "value":[
        1150.0,
        1155.0,
        1160.0,
        1165.0,
        1170.0,
        1175.0,
        1180.0,
        1185.0,
        1190.0,
        1195.0,
        1200.0,
        1205.0,
        1210.0,
        1215.0,
        1220.0,
        1225.0,
        1230.0,
        1235.0,
        1240.0,
        1245.0,
        1250.0,
        1255.0,
        1260.0,
        1265.0,
        1270.0,
        1275.0,
        1280.0,
        1285.0,
        1290.0,
        1295.0,
        1300.0,
        1305.0,
        1310.0,
        1315.0,
        1320.0,
        1325.0,
        1330.0,
        1335.0,
        1340.0,
        1345.0,
        1350.0,
        1355.0,
        1360.0,
        1365.0,
        1370.0,
        1375.0,
        1380.0,
        1385.0,
        1390.0,
        1395.0,
        1400.0,
        1405.0,
        1410.0,
        1415.0,
        1420.0,
        1425.0,
        1430.0,
        1435.0,
        1440.0,
        1445.0,
        1450.0,
        1455.0,
        1460.0,
        1465.0,
        1470.0,
        1475.0,
        1480.0,
        1485.0,
        1490.0,
        1495.0,
        1500.0,
        1505.0,
        1510.0,
        1515.0,
        1520.0,
        1525.0,
        1530.0,
        1535.0,
        1540.0,
        1545.0,
        1550.0,
        1555.0,
        1560.0,
        1565.0,
        1570.0,
        1575.0,
        1580.0,
        1585.0,
        1590.0,
        1595.0,
        1600.0,
        1605.0,
        1610.0,
        1615.0,
        1620.0,
        1625.0,
        1630.0,
        1635.0,
        1640.0,
        1645.0,
        1650.0,
        1655.0,
        1660.0,
        1665.0,
        1670.0,
        1675.0,
        1680.0,
        1685.0,
        1690.0,
        1695.0,
        1700.0,
        1705.0,
        1710.0,
        1715.0,
        1720.0,
        1725.0,
        1730.0,
        1735.0,
        1740.0,
        1745.0,
        1750.0,
        1755.0,
        1760.0,
        1765.0,
        1770.0,
        1775.0,
        1780.0,
        1785.0,
        1790.0,
        1795.0,
        1800.0,
        1805.0,
        1810.0,
        1815.0,
        1820.0,
        1825.0,
        1830.0,
        1835.0,
        1840.0,
        1845.0,
        1850.0,
        1855.0,
        1860.0,
        1865.0,
        1870.0,
        1875.0,
        1880.0,
        1885.0,
        1890.0,
        1895.0,
        1900.0,
        1905.0,
        1910.0,
        1915.0,
        1920.0,
        1925.0,
        1930.0,
        1935.0,
        1940.0,
        1945.0,
        1950.0,
        1955.0,
        1960.0,
        1965.0,
        1970.0,
        1975.0,
        1980.0,
        1985.0,
        1990.0,
        1995.0,
        2000.0,
        2005.0,
        2010.0,
        2015.0,
        2020.0,
        2025.0,
        2030.0,
        2035.0,
        2040.0,
        2045.0,
        2050.0,
        2055.0,
        2060.0,
        2065.0,
        2070.0,
        2075.0,
        2080.0,
        2085.0,
        2090.0,
        2095.0,
        2100.0,
        2105.0,
        2110.0,
        2115.0,
        2120.0,
        2125.0,
        2130.0,
        2135.0,
        2140.0,
        2145.0,
        2150.0,
        2155.0,
        2160.0,
        2165.0,
        2170.0,
        2175.0,
        2180.0,
        2185.0,
        2190.0,
        2195.0,
        2200.0,
        2205.0,
        2210.0,
        2215.0,
        2220.0,
        2225.0,
        2230.0,
        2235.0,
        2240.0,
        2245.0,
        2250.0,
        2255.0,
        2260.0,
        2265.0,
        2270.0,
        2275.0,
        2280.0,
        2285.0,
        2290.0,
        2295.0,
        2300.0,
        2305.0,
        2310.0,
        2315.0,
        2320.0,
        2325.0,
        2330.0,
        2335.0,
        2340.0,
        2345.0,
        2350.0,
        2355.0,
        2360.0,
        2365.0,
        2370.0,
        2375.0,
        2380.0,
        2385.0,
        2390.0,
        2395.0,
        2400.0,
        2405.0,
        2410.0,
        2415.0,
        2420.0,
        2425.0,
        2430.0,
        2435.0,
        2440.0,
        2445.0,
        2450.0,
        2455.0,
        2460.0,
        2465.0,
        2470.0,
        2475.0,
        2480.0,
        2485.0,
        2490.0,
        2495.0,
        2500.0,
        2505.0,
        2510.0,
        2515.0,
        2520.0,
        2525.0,
        2530.0,
        2535.0,
        2540.0,
        2545.0,
        2550.0,
        2555.0,
        2560.0,
        2565.0,
        2570.0,
        2575.0,
        2580.0,
        2585.0,
        2590.0,
        2595.0,
        2600.0,
        2605.0,
        2610.0,
        2615.0,
        2620.0,
        2625.0,
        2630.0,
        2635.0,
        2640.0,
        2645.0,
        2650.0,
        2655.0,
        2660.0,
        2665.0,
        2670.0,
        2675.0,
        2680.0,
        2685.0,
        2690.0,
        2695.0,
        2700.0,
        2705.0,
        2710.0,
        2715.0,
        2720.0,
        2725.0,
        2730.0,
        2735.0,
        2740.0,
        2745.0,
        2750.0,
        2755.0,
        2760.0,
        2765.0,
        2770.0,
        2775.0,
        2780.0,
        2785.0,
        2790.0,
        2795.0,
        2800.0,
        2805.0,
        2810.0,
        2815.0,
        2820.0,
        2825.0,
        2830.0,
        2835.0,
        2840.0,
        2845.0,
        2850.0,
        2855.0,
        2860.0,
        2865.0,
        2870.0,
        2875.0,
        2880.0,
        2885.0,
        2890.0,
        2895.0,
        2900.0,
        2905.0,
        2910.0,
        2915.0,
        2920.0,
        2925.0,
        2930.0,
        2935.0,
        2940.0,
        2945.0,
        2950.0,
        2955.0,
        2960.0,
        2965.0,
        2970.0,
        2975.0,
        2980.0,
        2985.0,
        2990.0,
        2995.0,
        3000.0,
        3005.0,
        3010.0,
        3015.0,
        3020.0,
        3025.0,
        3030.0,
        3035.0,
        3040.0,
        3045.0,
        3050.0,
        3055.0,
        3060.0,
        3065.0,
        3070.0,
        3075.0,
        3080.0,
        3085.0,
        3090.0,
        3095.0,
        3100.0,
        3105.0,
        3110.0,
        3115.0,
        3120.0,
        3125.0,
        3130.0,
        3135.0,
        3140.0,
        3145.0,
        3150.0,
        3155.0,
        3160.0,
        3165.0,
        3170.0,
        3175.0,
        3180.0,
        3185.0,
        3190.0,
        3195.0,
        3200.0,
        3205.0,
        3210.0,
        3215.0,
        3220.0,
        3225.0,
        3230.0,
        3235.0,
        3240.0,
        3245.0,
        3250.0,
        3255.0,
        3260.0,
        3265.0,
        3270.0,
        3275.0,
        3280.0,
        3285.0,
        3290.0,
        3295.0,
        3300.0,
        3305.0,
        3310.0,
        3315.0,
        3320.0,
        3325.0,
        3330.0,
        3335.0,
        3340.0,
        3345.0,
        3350.0,
        3355.0,
        3360.0,
        3365.0,
        3370.0,
        3375.0,
        3380.0,
        3385.0,
        3390.0,
        3395.0,
        3400.0,
        3405.0,
        3410.0,
        3415.0,
        3420.0,
        3425.0,
        3430.0,
        3435.0,
        3440.0,
        3445.0,
        3450.0,
        3455.0,
        3460.0,
        3465.0,
        3470.0,
        3475.0,
        3480.0,
        3485.0,
        3490.0,
        3495.0,
        3500.0,
        3505.0,
        3510.0,
        3515.0,
        3520.0,
        3525.0,
        3530.0,
        3535.0,
        3540.0,
        3545.0,
        3550.0,
        3555.0,
        3560.0,
        3565.0,
        3570.0,
        3575.0,
        3580.0,
        3585.0,
        3590.0,
        3595.0,
        3600.0,
        3605.0,
        3610.0,
        3615.0,
        3620.0,
        3625.0,
        3630.0,
        3635.0,
        3640.0,
        3645.0,
        3650.0,
        3655.0,
        3660.0,
        3665.0,
        3670.0,
        3675.0,
        3680.0,
        3685.0,
        3690.0,
        3695.0,
        3700.0,
        3705.0,
        3710.0,
        3715.0,
        3720.0,
        3725.0,
        3730.0,
        3735.0,
        3740.0,
        3745.0,
        3750.0,
        3755.0,
        3760.0,
        3765.0,
        3770.0,
        3775.0,
        3780.0,
        3785.0,
        3790.0,
        3795.0,
        3800.0,
        3805.0,
        3810.0,
        3815.0,
        3820.0,
        3825.0,
        3830.0,
        3835.0,
        3840.0,
        3845.0,
        3850.0,
        3855.0,
        3860.0,
        3865.0,
        3870.0,
        3875.0,
        3880.0,
        3885.0,
        3890.0,
        3895.0,
        3900.0,
        3905.0,
        3910.0,
        3915.0,
        3920.0,
        3925.0,
        3930.0,
        3935.0,
        3940.0,
        3945.0,
        3950.0,
        3955.0,
        3960.0,
        3965.0,
        3970.0,
        3975.0,
        3980.0,
        3985.0,
        3990.0,
        3995.0,
        4000.0,
        4005.0,
        4010.0,
        4015.0,
        4020.0,
        4025.0,
        4030.0,
        4035.0,
        4040.0,
        4045.0,
        4050.0,
        4055.0,
        4060.0,
        4065.0,
        4070.0,
        4075.0,
        4080.0,
        4085.0,
        4090.0,
        4095.0,
        4100.0,
        4105.0,
        4110.0,
        4115.0,
        4120.0,
        4125.0,
        4130.0,
        4135.0,
        4140.0,
        4145.0,
        4150.0,
        4155.0,
        4160.0,
        4165.0,
        4170.0,
        4175.0,
        4180.0,
        4185.0,
        4190.0,
        4195.0,
        4200.0,
        4205.0,
        4210.0,
        4215.0,
        4220.0,
        4225.0,
        4230.0,
        4235.0,
        4240.0,
        4245.0,
        4250.0,
        4255.0,
        4260.0,
        4265.0,
        4270.0,
        4275.0,
        4280.0,
        4285.0,
        4290.0,
        4295.0,
        4300.0,
        4305.0,
        4310.0,
        4315.0,
        4320.0,
        4325.0,
        4330.0,
        4335.0,
        4340.0,
        4345.0,
        4350.0,
        4355.0,
        4360.0,
        4365.0,
        4370.0,
        4375.0,
        4380.0,
        4385.0,
        4390.0,
        4395.0,
        4400.0,
        4405.0,
        4410.0,
        4415.0,
        4420.0,
        4425.0,
        4430.0,
        4435.0,
        4440.0,
        4445.0,
        4450.0,
        4455.0,
        4460.0,
        4465.0,
        4470.0,
        4475.0,
        4480.0,
        4485.0,
        4490.0,
        4495.0,
        4500.0,
        4505.0,
        4510.0,
        4515.0,
        4520.0,
        4525.0,
        4530.0,
        4535.0,
        4540.0,
        4545.0,
        4550.0,
        4555.0,
        4560.0,
        4565.0,
        4570.0,
        4575.0,
        4580.0,
        4585.0,
        4590.0,
        4595.0,
        4600.0,
        4605.0,
        4610.0,
        4615.0,
        4620.0,
        4625.0,
        4630.0,
        4635.0,
        4640.0,
        4645.0,
        4650.0,
        4655.0,
        4660.0,
        4665.0,
        4670.0,
        4675.0,
        4680.0,
        4685.0,
        4690.0,
        4695.0,
        4700.0,
        4705.0,
        4710.0,
        4715.0,
        4720.0,
        4725.0,
        4730.0,
        4735.0,
        4740.0,
        4745.0,
        4750.0,
        4755.0,
        4760.0,
        4765.0,
        4770.0,
        4775.0,
        4780.0,
        4785.0,
        4790.0,
        4795.0,
        4800.0,
        4805.0,
        4810.0,
        4815.0,
        4820.0,
        4825.0,
        4830.0,
        4835.0,
        4840.0,
        4845.0,
        4850.0,
        4855.0,
        4860.0,
        4865.0,
        4870.0,
        4875.0,
        4880.0,
        4885.0,
        4890.0,
        4895.0,
        4900.0,
        4905.0,
        4910.0,
        4915.0,
        4920.0,
        4925.0,
        4930.0,
        4935.0,
        4940.0,
        4945.0,
        4950.0,
        4955.0,
        4960.0,
        4965.0,
        4970.0,
        4975.0,
        4980.0,
        4985.0,
        4990.0,
        4995.0,
        5000.0,
        5005.0,
        5010.0,
        5015.0,
        5020.0,
        5025.0,
        5030.0,
        5035.0,
        5040.0,
        5045.0,
        5050.0,
        5055.0,
        5060.0,
        5065.0,
        5070.0,
        5075.0,
        5080.0,
        5085.0,
        5090.0,
        5095.0,
        5100.0,
        5105.0,
        5110.0,
        5115.0,
        5120.0,
        5125.0,
        5130.0,
        5135.0,
        5140.0,
        5145.0,
        5150.0,
        5155.0,
        5160.0,
        5165.0,
        5170.0,
        5175.0,
        5180.0,
        5185.0,
        5190.0,
        5195.0,
        5200.0,
        5205.0,
        5210.0,
        5215.0,
        5220.0,
        5225.0,
        5230.0,
        5235.0,
        5240.0,
        5245.0,
        5250.0,
        5255.0,
        5260.0,
        5265.0,
        5270.0,
        5275.0,
        5280.0,
        5285.0,
        5290.0,
        5295.0,
        5300.0,
        5305.0,
        5310.0,
        5315.0,
        5320.0,
        5325.0,
        5330.0,
        5335.0,
        5340.0,
        5345.0,
        5350.0,
        5355.0,
        5360.0,
        5365.0,
        5370.0,
        5375.0,
        5380.0,
        5385.0,
        5390.0,
        5395.0,
        5400.0,
        5405.0,
        5410.0,
        5415.0,
        5420.0,
        5425.0,
        5430.0,
        5435.0,
        5440.0,
        5445.0,
        5450.0,
        5455.0,
        5460.0,
        5465.0,
        5470.0,
        5475.0,
        5480.0,
        5485.0,
        5490.0,
        5495.0,
        5500.0,
        5505.0,
        5510.0,
        5515.0,
        5520.0,
        5525.0,
        5530.0,
        5535.0,
        5540.0,
        5545.0,
        5550.0,
        5555.0,
        5560.0,
        5565.0,
        5570.0,
        5575.0,
        5580.0,
        5585.0,
        5590.0,
        5595.0,
        5600.0,
        5605.0,
        5610.0,
        5615.0,
        5620.0,
        5625.0,
        5630.0,
        5635.0,
        5640.0,
        5645.0,
        5650.0,
        5655.0,
        5660.0,
        5665.0,
        5670.0,
        5675.0,
        5680.0,
        5685.0,
        5690.0,
        5695.0,
        5700.0,
        5705.0,
        5710.0,
        5715.0,
        5720.0,
        5725.0,
        5730.0,
        5735.0,
        5740.0,
        5745.0,
        5750.0,
        5755.0,
        5760.0,
        5765.0,
        5770.0,
        5775.0,
        5780.0,
        5785.0,
        5790.0,
        5795.0,
        5800.0,
        5805.0,
        5810.0,
        5815.0,
        5820.0,
        5825.0,
        5830.0,
        5835.0,
        5840.0,
        5845.0,
        5850.0,
        5855.0,
        5860.0,
        5865.0,
        5870.0,
        5875.0,
        5880.0,
        5885.0,
        5890.0,
        5895.0,
        5900.0,
        5905.0,
        5910.0,
        5915.0,
        5920.0,
        5925.0,
        5930.0,
        5935.0,
        5940.0,
        5945.0,
        5950.0,
        5955.0,
        5960.0,
        5965.0,
        5970.0,
        5975.0,
        5980.0,
        5985.0,
        5990.0,
        5995.0,
        6000.0,
        6005.0,
        6010.0,
        6015.0,
        6020.0,
        6025.0,
        6030.0,
        6035.0,
        6040.0,
        6045.0,
        6050.0,
        6055.0,
        6060.0,
        6065.0,
        6070.0,
        6075.0,
        6080.0,
        6085.0,
        6090.0,
        6095.0,
        6100.0,
        6105.0,
        6110.0,
        6115.0,
        6120.0,
        6125.0,
        6130.0,
        6135.0,
        6140.0,
        6145.0,
        6150.0,
        6155.0,
        6160.0,
        6165.0,
        6170.0,
        6175.0,
        6180.0,
        6185.0,
        6190.0,
        6195.0,
        6200.0,
        6205.0,
        6210.0,
        6215.0,
        6220.0,
        6225.0,
        6230.0,
        6235.0,
        6240.0,
        6245.0,
        6250.0,
        6255.0,
        6260.0,
        6265.0,
        6270.0,
        6275.0,
        6280.0,
        6285.0,
        6290.0,
        6295.0,
        6300.0,
        6305.0,
        6310.0,
        6315.0,
        6320.0,
        6325.0,
        6330.0,
        6335.0,
        6340.0,
        6345.0,
        6350.0,
        6355.0,
        6360.0,
        6365.0,
        6370.0,
        6375.0,
        6380.0,
        6385.0,
        6390.0,
        6395.0,
        6400.0,
        6405.0,
        6410.0,
        6415.0,
        6420.0,
        6425.0,
        6430.0,
        6435.0,
        6440.0,
        6445.0,
        6450.0,
        6455.0,
        6460.0,
        6465.0,
        6470.0,
        6475.0,
        6480.0,
        6485.0,
        6490.0,
        6495.0,
        6500.0,
        6505.0,
        6510.0,
        6515.0,
        6520.0,
        6525.0,
        6530.0,
        6535.0,
        6540.0,
        6545.0,
        6550.0,
        6555.0,
        6560.0,
        6565.0,
        6570.0,
        6575.0,
        6580.0,
        6585.0,
        6590.0,
        6595.0,
        6600.0,
        6605.0,
        6610.0,
        6615.0,
        6620.0,
        6625.0,
        6630.0,
        6635.0,
        6640.0,
        6645.0,
        6650.0,
        6655.0,
        6660.0,
        6665.0,
        6670.0,
        6675.0,
        6680.0,
        6685.0,
        6690.0,
        6695.0,
        6700.0,
        6705.0,
        6710.0,
        6715.0,
        6720.0,
        6725.0,
        6730.0,
        6735.0,
        6740.0,
        6745.0,
        6750.0,
        6755.0,
        6760.0,
        6765.0,
        6770.0,
        6775.0,
        6780.0,
        6785.0,
        6790.0,
        6795.0,
        6800.0,
        6805.0,
        6810.0,
        6815.0,
        6820.0,
        6825.0,
        6830.0,
        6835.0,
        6840.0,
        6845.0,
        6850.0,
        6855.0,
        6860.0,
        6865.0,
        6870.0,
        6875.0,
        6880.0,
        6885.0,
        6890.0,
        6895.0,
        6900.0,
        6905.0,
        6910.0,
        6915.0,
        6920.0,
        6925.0,
        6930.0,
        6935.0,
        6940.0,
        6945.0,
        6950.0,
        6955.0,
        6960.0,
        6965.0,
        6970.0,
        6975.0,
        6980.0,
        6985.0,
        6990.0,
        6995.0,
        7000.0,
        7005.0,
        7010.0,
        7015.0,
        7020.0,
        7025.0,
        7030.0,
        7035.0,
        7040.0,
        7045.0,
        7050.0,
        7055.0,
        7060.0,
        7065.0,
        7070.0,
        7075.0,
        7080.0,
        7085.0,
        7090.0,
        7095.0,
        7100.0,
        7105.0,
        7110.0,
        7115.0,
        7120.0,
        7125.0,
        7130.0,
        7135.0,
        7140.0,
        7145.0,
        7150.0,
        7155.0,
        7160.0,
        7165.0,
        7170.0,
        7175.0,
        7180.0,
        7185.0,
        7190.0,
        7195.0,
        7200.0,
        7205.0,
        7210.0,
        7215.0,
        7220.0,
        7225.0,
        7230.0,
        7235.0,
        7240.0,
        7245.0,
        7250.0,
        7255.0,
        7260.0,
        7265.0,
        7270.0,
        7275.0,
        7280.0,
        7285.0,
        7290.0,
        7295.0,
        7300.0,
        7305.0,
        7310.0,
        7315.0,
        7320.0,
        7325.0,
        7330.0,
        7335.0,
        7340.0,
        7345.0,
        7350.0,
        7355.0,
        7360.0,
        7365.0,
        7370.0,
        7375.0,
        7380.0,
        7385.0,
        7390.0,
        7395.0,
        7400.0,
        7405.0,
        7410.0,
        7415.0,
        7420.0,
        7425.0,
        7430.0,
        7435.0,
        7440.0,
        7445.0,
        7450.0,
        7455.0,
        7460.0,
        7465.0,
        7470.0,
        7475.0,
        7480.0,
        7485.0,
        7490.0,
        7495.0,
        7500.0,
        7505.0,
        7510.0,
        7515.0,
        7520.0,
        7525.0,
        7530.0,
        7535.0,
        7540.0,
        7545.0,
        7550.0,
        7555.0,
        7560.0,
        7565.0,
        7570.0,
        7575.0,
        7580.0,
        7585.0,
        7590.0,
        7595.0,
        7600.0,
        7605.0,
        7610.0,
        7615.0,
        7620.0,
        7625.0,
        7630.0,
        7635.0,
        7640.0,
        7645.0,
        7650.0,
        7655.0,
        7660.0,
        7665.0,
        7670.0,
        7675.0,
        7680.0,
        7685.0,
        7690.0,
        7695.0,
        7700.0,
        7705.0,
        7710.0,
        7715.0,
        7720.0,
        7725.0,
        7730.0,
        7735.0,
        7740.0,
        7745.0,
        7750.0,
        7755.0,
        7760.0,
        7765.0,
        7770.0,
        7775.0,
        7780.0,
        7785.0,
        7790.0,
        7795.0,
        7800.0,
        7805.0,
        7810.0,
        7815.0,
        7820.0,
        7825.0,
        7830.0,
        7835.0,
        7840.0,
        7845.0,
        7850.0,
        7855.0,
        7860.0,
        7865.0,
        7870.0,
        7875.0,
        7880.0,
        7885.0,
        7890.0,
        7895.0,
        7900.0,
        7905.0,
        7910.0,
        7915.0,
        7920.0,
        7925.0,
        7930.0,
        7935.0,
        7940.0,
        7945.0,
        7950.0,
        7955.0,
        7960.0,
        7965.0,
        7970.0,
        7975.0,
        7980.0,
        7985.0,
        7990.0,
        7995.0,
        8000.0,
        8005.0,
        8010.0,
        8015.0,
        8020.0,
        8025.0,
        8030.0,
        8035.0,
        8040.0,
        8045.0,
        8050.0,
        8055.0,
        8060.0,
        8065.0,
        8070.0,
        8075.0,
        8080.0,
        8085.0,
        8090.0,
        8095.0,
        8100.0,
        8105.0,
        8110.0,
        8115.0,
        8120.0,
        8125.0,
        8130.0,
        8135.0,
        8140.0,
        8145.0,
        8150.0,
        8155.0,
        8160.0,
        8165.0,
        8170.0,
        8175.0,
        8180.0,
        8185.0,
        8190.0,
        8195.0,
        8200.0,
        8205.0,
        8210.0,
        8215.0,
        8220.0,
        8225.0,
        8230.0,
        8235.0,
        8240.0,
        8245.0,
        8250.0,
        8255.0,
        8260.0,
        8265.0,
        8270.0,
        8275.0,
        8280.0,
        8285.0,
        8290.0,
        8295.0,
        8300.0,
        8305.0,
        8310.0,
        8315.0,
        8320.0,
        8325.0,
        8330.0,
        8335.0,
        8340.0,
        8345.0,
        8350.0,
        8355.0,
        8360.0,
        8365.0,
        8370.0,
        8375.0,
        8380.0,
        8385.0,
        8390.0,
        8395.0,
        8400.0,
        8405.0,
        8410.0,
        8415.0,
        8420.0,
        8425.0,
        8430.0,
        8435.0,
        8440.0,
        8445.0,
        8450.0,
        8455.0,
        8460.0,
        8465.0,
        8470.0,
        8475.0,
        8480.0,
        8485.0,
        8490.0,
        8495.0,
        8500.0,
        8505.0,
        8510.0,
        8515.0,
        8520.0,
        8525.0,
        8530.0,
        8535.0,
        8540.0,
        8545.0,
        8550.0,
        8555.0,
        8560.0,
        8565.0,
        8570.0,
        8575.0,
        8580.0,
        8585.0,
        8590.0,
        8595.0,
        8600.0,
        8605.0,
        8610.0,
        8615.0,
        8620.0,
        8625.0,
        8630.0,
        8635.0,
        8640.0,
        8645.0,
        8650.0,
        8655.0,
        8660.0,
        8665.0,
        8670.0,
        8675.0,
        8680.0,
        8685.0,
        8690.0,
        8695.0,
        8700.0,
        8705.0,
        8710.0,
        8715.0,
        8720.0,
        8725.0,
        8730.0,
        8735.0,
        8740.0,
        8745.0,
        8750.0,
        8755.0,
        8760.0,
        8765.0,
        8770.0,
        8775.0,
        8780.0,
        8785.0,
        8790.0,
        8795.0,
        8800.0,
        8805.0,
        8810.0,
        8815.0,
        8820.0,
        8825.0,
        8830.0,
        8835.0,
        8840.0,
        8845.0,
        8850.0,
        8855.0,
        8860.0,
        8865.0,
        8870.0,
        8875.0,
        8880.0,
        8885.0,
        8890.0,
        8895.0,
        8900.0,
        8905.0,
        8910.0,
        8915.0,
        8920.0,
        8925.0,
        8930.0,
        8935.0,
        8940.0,
        8945.0,
        8950.0,
        8955.0,
        8960.0,
        8965.0,
        8970.0,
        8975.0,
        8980.0,
        8985.0,
        8990.0,
        8995.0,
        9000.0,
        9005.0,
        9010.0,
        9015.0,
        9020.0,
        9025.0,
        9030.0,
        9035.0,
        9040.0,
        9045.0,
        9050.0,
        9055.0,
        9060.0,
        9065.0,
        9070.0,
        9075.0,
        9080.0,
        9085.0,
        9090.0,
        9095.0,
        9100.0,
        9105.0,
        9110.0,
        9115.0,
        9120.0,
        9125.0,
        9130.0,
        9135.0,
        9140.0,
        9145.0,
        9150.0,
        9155.0,
        9160.0,
        9165.0,
        9170.0,
        9175.0,
        9180.0,
        9185.0,
        9190.0,
        9195.0,
        9200.0,
        9205.0,
        9210.0,
        9215.0,
        9220.0,
        9225.0,
        9230.0,
        9235.0,
        9240.0,
        9245.0,
        9250.0,
        9255.0,
        9260.0,
        9265.0,
        9270.0,
        9275.0,
        9280.0,
        9285.0,
        9290.0,
        9295.0,
        9300.0,
        9305.0,
        9310.0,
        9315.0,
        9320.0,
        9325.0,
        9330.0,
        9335.0,
        9340.0,
        9345.0,
        9350.0,
        9355.0,
        9360.0,
        9365.0,
        9370.0,
        9375.0,
        9380.0,
        9385.0,
        9390.0,
        9395.0,
        9400.0,
        9405.0,
        9410.0,
        9415.0,
        9420.0,
        9425.0,
        9430.0,
        9435.0,
        9440.0,
        9445.0,
        9450.0,
        9455.0,
        9460.0,
        9465.0,
        9470.0,
        9475.0,
        9480.0,
        9485.0,
        9490.0,
        9495.0,
        9500.0,
        9505.0,
        9510.0,
        9515.0,
        9520.0,
        9525.0,
        9530.0,
        9535.0,
        9540.0,
        9545.0,
        9550.0,
        9555.0,
        9560.0,
        9565.0,
        9570.0,
        9575.0,
        9580.0,
        9585.0,
        9590.0,
        9595.0,
        9600.0,
        9605.0,
        9610.0,
        9615.0,
        9620.0,
        9625.0,
        9630.0,
        9635.0,
        9640.0,
        9645.0,
        9650.0,
        9655.0,
        9660.0,
        9665.0,
        9670.0,
        9675.0,
        9680.0,
        9685.0,
        9690.0,
        9695.0,
        9700.0,
        9705.0,
        9710.0,
        9715.0,
        9720.0,
        9725.0,
        9730.0,
        9735.0,
        9740.0,
        9745.0,
        9750.0,
        9755.0,
        9760.0,
        9765.0,
        9770.0,
        9775.0,
        9780.0,
        9785.0,
        9790.0,
        9795.0,
        9800.0,
        9805.0,
        9810.0,
        9815.0,
        9820.0,
        9825.0,
        9830.0,
        9835.0,
        9840.0,
        9845.0,
        9850.0,
        9855.0,
        9860.0,
        9865.0,
        9870.0,
        9875.0,
        9880.0,
        9885.0,
        9890.0,
        9895.0,
        9900.0,
        9905.0,
        9910.0,
        9915.0,
        9920.0,
        9925.0,
        9930.0,
        9935.0,
        9940.0,
        9945.0,
        9950.0,
        9955.0,
        9960.0,
        9965.0,
        9970.0,
        9975.0,
        9980.0,
        9985.0,
        9990.0,
        9995.0,
        10000.0,
        10005.0,
        10010.0,
        10015.0,
        10020.0,
        10025.0,
        10030.0,
        10035.0,
        10040.0,
        10045.0,
        10050.0,
        10055.0,
        10060.0,
        10065.0,
        10070.0,
        10075.0,
        10080.0,
        10085.0,
        10090.0,
        10095.0,
        10100.0,
        10105.0,
        10110.0,
        10115.0,
        10120.0,
        10125.0,
        10130.0,
        10135.0,
        10140.0,
        10145.0,
        10150.0,
        10155.0,
        10160.0,
        10165.0,
        10170.0,
        10175.0,
        10180.0,
        10185.0,
        10190.0,
        10195.0,
        10200.0,
        10205.0,
        10210.0,
        10215.0,
        10220.0,
        10225.0,
        10230.0,
        10235.0,
        10240.0,
        10245.0,
        10250.0,
        10255.0,
        10260.0,
        10265.0,
        10270.0,
        10275.0,
        10280.0,
        10285.0,
        10290.0,
        10295.0,
        10300.0,
        10305.0,
        10310.0,
        10315.0,
        10320.0,
        10325.0,
        10330.0,
        10335.0,
        10340.0,
        10345.0,
        10350.0,
        10355.0,
        10360.0,
        10365.0,
        10370.0,
        10375.0,
        10380.0,
        10385.0,
        10390.0,
        10395.0,
        10400.0,
        10405.0,
        10410.0,
        10415.0,
        10420.0,
        10425.0,
        10430.0,
        10435.0,
        10440.0,
        10445.0,
        10450.0,
        10455.0,
        10460.0,
        10465.0,
        10470.0,
        10475.0,
        10480.0,
        10485.0,
        10490.0,
        10495.0,
        10500.0
      ],
      "units":"angstrom"
    },
    "values":{
      "value":[
        0.003386,
        0.002432,
        0.001234,
        0.000788,
        0.000876,
        0.000854,
        0.000425,
        0.000363,
        8.4e-05,
        0.001137,
        0.004133,
        0.028503,
        0.078916,
        0.091386,
        0.041003,
        0.005986,
        0.000716,
        0.000489,
        0.000501,
        0.000393,
        0.000239,
        0.000134,
        0.00015,
        0.000146,
        0.000153,
        0.000239,
        0.000307,
        0.000254,
        0.000172,
        0.000196,
        0.000443,
        0.000597,
        0.000253,
        0.000122,
        0.000101,
        0.00015,
        0.000373,
        0.000748,
        0.000264,
        5.8e-05,
        1.2e-05,
        0.000129,
        0.000183,
        0.000164,
        0.000119,
        0.000146,
        0.00012,
        0.000108,
        0.000246,
        0.000419,
        0.000359,
        0.000395,
        0.000236,
        0.000127,
        0.000131,
        0.000217,
        0.000283,
        0.000181,
        0.000215,
        0.000314,
        0.000347,
        0.000303,
        0.000162,
        0.000277,
        0.000431,
        0.000299,
        0.000225,
        0.000465,
        0.000517,
        0.000489,
        0.000363,
        0.000296,
        0.000391,
        0.000333,
        0.000339,
        0.000348,
        0.0006,
        0.000558,
        0.000435,
        0.001056,
        0.001258,
        0.000509,
        0.000327,
        0.00035,
        0.00027,
        0.000374,
        0.00042,
        0.000343,
        0.00023,
        0.000259,
        0.000348,
        0.000345,
        0.000275,
        0.000287,
        0.000277,
        0.000394,
        0.000517,
        0.00066,
        0.000762,
        0.000427,
        0.000485,
        0.000945,
        0.000961,
        0.000576,
        0.0005,
        0.000432,
        0.000463,
        0.00048,
        0.00054,
        0.000595,
        0.000674,
        0.000734,
        0.000682,
        0.000723,
        0.000671,
        0.00067,
        0.000736,
        0.000797,
        0.000838,
        0.00091,
        0.001019,
        0.001114,
        0.001126,
        0.001075,
        0.001178,
        0.001218,
        0.001202,
        0.001131,
        0.000837,
        0.00117,
        0.001414,
        0.001839,
        0.00219,
        0.002583,
        0.002529,
        0.001884,
        0.001742,
        0.001819,
        0.001781,
        0.001607,
        0.001666,
        0.001801,
        0.001895,
        0.002163,
        0.002445,
        0.002317,
        0.002398,
        0.00246,
        0.002629,
        0.00265,
        0.002619,
        0.00265,
        0.00273,
        0.002821,
        0.002909,
        0.002862,
        0.002571,
        0.002692,
        0.003305,
        0.003664,
        0.004489,
        0.008526,
        0.006307,
        0.005917,
        0.008694,
        0.006101,
        0.007434,
        0.00761,
        0.005268,
        0.009817,
        0.008977,
        0.007119,
        0.005476,
        0.006159,
        0.008399,
        0.00636,
        0.005854,
        0.008801,
        0.011189,
        0.011544,
        0.012756,
        0.008982,
        0.009672,
        0.010517,
        0.013435,
        0.013418,
        0.013108,
        0.013256,
        0.00977,
        0.011903,
        0.018507,
        0.020693,
        0.014922,
        0.018359,
        0.021511,
        0.016434,
        0.014465,
        0.017537,
        0.020113,
        0.018565,
        0.021147,
        0.023041,
        0.019227,
        0.018464,
        0.013554,
        0.015007,
        0.019166,
        0.028026,
        0.033004,
        0.033598,
        0.029709,
        0.023371,
        0.020642,
        0.020171,
        0.025212,
        0.02692,
        0.022857,
        0.025955,
        0.028616,
        0.032965,
        0.032376,
        0.026305,
        0.022601,
        0.020451,
        0.021761,
        0.01919,
        0.026324,
        0.026785,
        0.023385,
        0.026388,
        0.027974,
        0.031936,
        0.032693,
        0.030139,
        0.028291,
        0.034974,
        0.032393,
        0.026424,
        0.026576,
        0.023913,
        0.024197,
        0.02767,
        0.029896,
        0.032778,
        0.03767,
        0.03754,
        0.029221,
        0.024895,
        0.026098,
        0.026897,
        0.020325,
        0.023121,
        0.022248,
        0.024908,
        0.033207,
        0.037874,
        0.032948,
        0.03208,
        0.034034,
        0.032431,
        0.030967,
        0.035821,
        0.031469,
        0.028116,
        0.029488,
        0.029409,
        0.025906,
        0.021923,
        0.024502,
        0.029453,
        0.034347,
        0.033009,
        0.030658,
        0.029257,
        0.02899,
        0.02866,
        0.032699,
        0.03146,
        0.031762,
        0.034534,
        0.037384,
        0.03971,
        0.044977,
        0.05383,
        0.051889,
        0.046883,
        0.056277,
        0.06171,
        0.060299,
        0.055097,
        0.052459,
        0.052687,
        0.051075,
        0.052387,
        0.053126,
        0.056049,
        0.060523,
        0.076681,
        0.101154,
        0.108174,
        0.104751,
        0.111304,
        0.116292,
        0.110502,
        0.110242,
        0.112677,
        0.112362,
        0.107777,
        0.105758,
        0.107947,
        0.120456,
        0.119606,
        0.112691,
        0.102452,
        0.086735,
        0.087631,
        0.099248,
        0.091256,
        0.069914,
        0.065188,
        0.069989,
        0.08419,
        0.100493,
        0.110414,
        0.113408,
        0.110549,
        0.093481,
        0.077256,
        0.067773,
        0.061573,
        0.05931,
        0.062927,
        0.079994,
        0.113465,
        0.128644,
        0.137018,
        0.147558,
        0.146842,
        0.132913,
        0.113446,
        0.088133,
        0.087334,
        0.124779,
        0.154245,
        0.161761,
        0.158707,
        0.143122,
        0.154251,
        0.186831,
        0.222036,
        0.265604,
        0.294514,
        0.298259,
        0.284907,
        0.257356,
        0.246612,
        0.256434,
        0.254571,
        0.238128,
        0.232933,
        0.238386,
        0.261427,
        0.262299,
        0.236709,
        0.215031,
        0.238911,
        0.234699,
        0.201381,
        0.216512,
        0.21319,
        0.192364,
        0.186111,
        0.198393,
        0.205163,
        0.197293,
        0.225995,
        0.266395,
        0.269042,
        0.256655,
        0.26051,
        0.270472,
        0.258566,
        0.244171,
        0.255186,
        0.269582,
        0.275997,
        0.280212,
        0.274211,
        0.259278,
        0.244303,
        0.261771,
        0.32075,
        0.346896,
        0.311096,
        0.298821,
        0.315384,
        0.336131,
        0.348017,
        0.335313,
        0.297349,
        0.319066,
        0.306723,
        0.297297,
        0.322289,
        0.356085,
        0.36704,
        0.340077,
        0.322233,
        0.333569,
        0.338242,
        0.363456,
        0.358271,
        0.342532,
        0.333722,
        0.324144,
        0.305903,
        0.295484,
        0.308798,
        0.335091,
        0.35903,
        0.373646,
        0.378941,
        0.394462,
        0.43288,
        0.45984,
        0.444781,
        0.419366,
        0.42006,
        0.440326,
        0.463297,
        0.473794,
        0.462555,
        0.442312,
        0.42837,
        0.424352,
        0.429107,
        0.43408,
        0.433016,
        0.436258,
        0.451435,
        0.458702,
        0.439255,
        0.405923,
        0.377268,
        0.36314,
        0.368656,
        0.388703,
        0.414908,
        0.436099,
        0.443752,
        0.442751,
        0.43997,
        0.43685,
        0.434242,
        0.43607,
        0.44287,
        0.43856,
        0.410882,
        0.379512,
        0.366921,
        0.37483,
        0.396294,
        0.410476,
        0.401744,
        0.389195,
        0.392443,
        0.398443,
        0.393226,
        0.391791,
        0.410228,
        0.440031,
        0.466228,
        0.443919,
        0.436798,
        0.417986,
        0.396676,
        0.425207,
        0.459852,
        0.485281,
        0.496494,
        0.489268,
        0.460079,
        0.441912,
        0.399839,
        0.355083,
        0.345535,
        0.305764,
        0.294387,
        0.361844,
        0.409368,
        0.499935,
        0.468861,
        0.403912,
        0.389581,
        0.406666,
        0.475811,
        0.496136,
        0.491714,
        0.507072,
        0.467681,
        0.469424,
        0.555228,
        0.623284,
        0.619967,
        0.598351,
        0.584963,
        0.551807,
        0.535219,
        0.552884,
        0.59946,
        0.614595,
        0.557175,
        0.534859,
        0.558225,
        0.50011,
        0.495489,
        0.485933,
        0.418467,
        0.4104,
        0.386812,
        0.393918,
        0.478254,
        0.49299,
        0.496993,
        0.534862,
        0.616213,
        0.664232,
        0.624889,
        0.5387,
        0.486991,
        0.497327,
        0.565027,
        0.570412,
        0.482475,
        0.387659,
        0.323335,
        0.293654,
        0.290795,
        0.330812,
        0.426016,
        0.47105,
        0.435897,
        0.395687,
        0.41682,
        0.420893,
        0.43892,
        0.442725,
        0.44389,
        0.47745,
        0.539971,
        0.559374,
        0.561707,
        0.598657,
        0.612527,
        0.556227,
        0.453237,
        0.32564,
        0.273634,
        0.349232,
        0.472749,
        0.583741,
        0.61384,
        0.537261,
        0.373842,
        0.311068,
        0.454357,
        0.641828,
        0.738903,
        0.784447,
        0.805746,
        0.815679,
        0.815347,
        0.835516,
        0.866602,
        0.882447,
        0.871104,
        0.83608,
        0.84128,
        0.855862,
        0.804579,
        0.811093,
        0.80616,
        0.786531,
        0.772079,
        0.778582,
        0.795312,
        0.839883,
        0.907391,
        0.933999,
        0.86568,
        0.783387,
        0.809142,
        0.885501,
        0.923461,
        0.921889,
        0.906149,
        0.875382,
        0.878652,
        0.894355,
        0.873702,
        0.868066,
        0.870269,
        0.907204,
        0.925939,
        0.892787,
        0.852502,
        0.850465,
        0.852391,
        0.858522,
        0.839085,
        0.811912,
        0.865586,
        0.922375,
        0.927063,
        0.897654,
        0.808015,
        0.798774,
        0.828455,
        0.857798,
        0.876001,
        0.847625,
        0.83675,
        0.833158,
        0.850019,
        0.818131,
        0.807722,
        0.839235,
        0.827908,
        0.79505,
        0.749277,
        0.65997,
        0.597066,
        0.620945,
        0.804622,
        0.93572,
        0.894499,
        0.891082,
        0.878661,
        0.828131,
        0.871891,
        0.919622,
        0.938734,
        0.974561,
        1.005103,
        0.983663,
        0.936202,
        0.878509,
        0.81077,
        0.847131,
        0.912785,
        0.935017,
        0.907967,
        0.933784,
        0.972122,
        1.006897,
        1.016255,
        1.008956,
        0.99559,
        1.011327,
        1.032799,
        1.039411,
        0.971482,
        0.931213,
        0.971187,
        1.028964,
        1.070888,
        1.060575,
        1.068564,
        1.065783,
        1.064919,
        1.090642,
        1.130206,
        1.143901,
        1.120624,
        1.097466,
        1.032716,
        0.976644,
        1.012805,
        1.059964,
        1.051277,
        1.034926,
        1.064177,
        1.101925,
        1.096893,
        1.101879,
        1.101136,
        1.069553,
        1.058441,
        1.068638,
        1.056649,
        1.048652,
        1.081296,
        1.110187,
        1.110034,
        1.112058,
        1.11343,
        1.115411,
        1.089379,
        1.065788,
        1.040892,
        1.035655,
        1.068243,
        1.088225,
        1.033445,
        1.011306,
        1.051662,
        1.056576,
        1.065729,
        1.063713,
        1.052884,
        1.018911,
        0.9951,
        1.018682,
        1.06749,
        1.105747,
        1.090945,
        1.045016,
        1.052586,
        1.079803,
        1.102739,
        1.100343,
        1.078957,
        1.06941,
        1.042921,
        1.056829,
        1.105277,
        1.126738,
        1.092262,
        1.08561,
        1.112529,
        1.112436,
        1.094646,
        1.091887,
        1.113889,
        1.119158,
        1.098239,
        1.079269,
        1.067225,
        1.065764,
        1.080593,
        1.067765,
        0.976188,
        0.866911,
        0.883829,
        0.951819,
        0.99673,
        1.034629,
        1.00826,
        0.977046,
        1.048096,
        1.100681,
        1.085255,
        1.053984,
        1.021395,
        0.977442,
        1.01279,
        1.077983,
        1.053847,
        1.036505,
        1.080756,
        1.09632,
        1.065411,
        1.044713,
        1.070483,
        1.072849,
        1.070918,
        1.028583,
        1.002234,
        1.045261,
        1.056362,
        1.018133,
        0.975981,
        0.978406,
        0.972853,
        0.982332,
        1.01385,
        1.039542,
        1.026498,
        0.984189,
        0.992618,
        1.030134,
        1.061155,
        1.08455,
        1.057051,
        1.021578,
        1.003786,
        0.989305,
        1.019933,
        1.061635,
        1.047305,
        1.007049,
        1.013136,
        1.022536,
        1.046059,
        1.043367,
        1.010102,
        0.997687,
        0.992943,
        0.971426,
        0.96879,
        0.988361,
        1.014024,
        0.999836,
        0.881284,
        0.776847,
        0.82641,
        0.90155,
        0.88122,
        0.911487,
        0.955528,
        0.989231,
        0.977781,
        0.966074,
        0.994032,
        1.007886,
        0.969037,
        0.945547,
        0.989146,
        1.041377,
        1.04417,
        1.026836,
        1.03367,
        1.011122,
        0.908917,
        0.862388,
        0.925568,
        1.003729,
        1.036742,
        1.069643,
        1.041056,
        1.008576,
        1.045028,
        1.081462,
        1.075796,
        1.042208,
        0.977307,
        0.954939,
        1.009486,
        1.023106,
        1.020702,
        1.036628,
        1.075087,
        1.083403,
        1.028564,
        0.980582,
        1.007168,
        1.039037,
        1.039405,
        1.023122,
        0.991685,
        0.975085,
        0.951906,
        0.959988,
        1.00281,
        1.022797,
        1.009205,
        0.994503,
        1.000446,
        1.030317,
        1.021768,
        1.011508,
        1.013888,
        1.019947,
        1.020858,
        1.02457,
        0.99922,
        0.981175,
        1.01008,
        1.028607,
        1.027019,
        1.018136,
        1.014917,
        1.017036,
        1.018106,
        1.023466,
        1.015861,
        0.99988,
        1.009392,
        1.023986,
        1.030642,
        1.038051,
        1.02999,
        1.014804,
        0.995186,
        0.977626,
        0.9868,
        1.002331,
        0.974314,
        0.936087,
        0.947649,
        0.964157,
        0.99474,
        1.028725,
        0.996341,
        0.968156,
        0.984407,
        1.002551,
        1.000631,
        0.982578,
        0.995999,
        1.005085,
        0.978024,
        0.953174,
        0.969101,
        0.997525,
        1.00949,
        1.000441,
        0.978311,
        0.971772,
        0.984609,
        0.985194,
        0.955839,
        0.934174,
        0.962873,
        1.009889,
        1.018909,
        1.014217,
        1.011345,
        1.013367,
        1.007526,
        0.992818,
        0.982747,
        0.990028,
        0.998708,
        1.007136,
        0.999017,
        0.98179,
        0.957887,
        0.968262,
        0.989079,
        1.003177,
        0.99568,
        0.988063,
        0.994531,
        1.008587,
        1.016389,
        1.014141,
        1.012558,
        1.014366,
        1.014513,
        0.998608,
        0.978748,
        0.968893,
        0.98484,
        1.005531,
        1.010549,
        0.993468,
        0.946577,
        0.871401,
        0.859721,
        0.924391,
        0.974171,
        0.987895,
        0.98383,
        0.984721,
        0.987907,
        0.979895,
        0.980882,
        0.981324,
        0.973188,
        0.970598,
        0.97184,
        0.979554,
        0.984579,
        0.987413,
        0.976512,
        0.962829,
        0.957358,
        0.965124,
        0.970875,
        0.962218,
        0.951807,
        0.948689,
        0.940559,
        0.927782,
        0.937785,
        0.965605,
        0.973783,
        0.970407,
        0.971711,
        0.972599,
        0.96264,
        0.964362,
        0.964966,
        0.969685,
        0.962608,
        0.948538,
        0.948939,
        0.94602,
        0.945058,
        0.931814,
        0.932799,
        0.949164,
        0.947348,
        0.927155,
        0.928187,
        0.936212,
        0.912259,
        0.905379,
        0.926331,
        0.937508,
        0.92171,
        0.886833,
        0.876161,
        0.894655,
        0.917374,
        0.932294,
        0.929665,
        0.916399,
        0.926976,
        0.94298,
        0.947643,
        0.944499,
        0.925605,
        0.916249,
        0.919369,
        0.906092,
        0.907729,
        0.913083,
        0.903208,
        0.900833,
        0.892202,
        0.894785,
        0.904361,
        0.917361,
        0.907461,
        0.89082,
        0.90719,
        0.922933,
        0.909919,
        0.890837,
        0.896869,
        0.910418,
        0.887213,
        0.876283,
        0.901922,
        0.913574,
        0.897875,
        0.887344,
        0.900209,
        0.911458,
        0.900043,
        0.883401,
        0.8882,
        0.906055,
        0.912146,
        0.908535,
        0.90726,
        0.906161,
        0.890955,
        0.880086,
        0.882201,
        0.880152,
        0.88005,
        0.881645,
        0.889884,
        0.895072,
        0.892927,
        0.889794,
        0.895764,
        0.884921,
        0.882311,
        0.879637,
        0.87373,
        0.880143,
        0.880001,
        0.882032,
        0.88608,
        0.873164,
        0.836758,
        0.846049,
        0.883897,
        0.901495,
        0.891387,
        0.883953,
        0.887767,
        0.887077,
        0.888235,
        0.888585,
        0.883145,
        0.862166,
        0.814347,
        0.734704,
        0.725905,
        0.810398,
        0.850006,
        0.863834,
        0.867202,
        0.862911,
        0.858548,
        0.872488,
        0.875178,
        0.871171,
        0.87901,
        0.883313,
        0.878761,
        0.866894,
        0.852291,
        0.852352,
        0.858486,
        0.865578,
        0.866181,
        0.858135,
        0.851819,
        0.859019,
        0.856034,
        0.851857,
        0.862958,
        0.869401,
        0.85903,
        0.85076,
        0.846003,
        0.843558,
        0.833898,
        0.832672,
        0.843272,
        0.846539,
        0.845089,
        0.841703,
        0.835191,
        0.833472,
        0.838405,
        0.845063,
        0.842188,
        0.831442,
        0.83353,
        0.839576,
        0.834203,
        0.83276,
        0.83003,
        0.831309,
        0.831057,
        0.828934,
        0.828348,
        0.828284,
        0.829871,
        0.826472,
        0.821364,
        0.816539,
        0.815587,
        0.814636,
        0.813684,
        0.812732,
        0.81178,
        0.810829,
        0.809877,
        0.808925,
        0.807973,
        0.807021,
        0.80607,
        0.805118,
        0.804166,
        0.803214,
        0.802263,
        0.801311,
        0.800359,
        0.799407,
        0.798455,
        0.797504,
        0.796552,
        0.7956,
        0.794648,
        0.793697,
        0.792745,
        0.791793,
        0.794649,
        0.779114,
        0.792381,
        0.799056,
        0.801494,
        0.794149,
        0.780428,
        0.781764,
        0.776016,
        0.771672,
        0.774148,
        0.783398,
        0.782363,
        0.786231,
        0.794045,
        0.794639,
        0.789289,
        0.78386,
        0.779315,
        0.780167,
        0.789883,
        0.789396,
        0.776976,
        0.770495,
        0.774505,
        0.783834,
        0.78722,
        0.777465,
        0.778442,
        0.780199,
        0.777896,
        0.775119,
        0.781589,
        0.786091,
        0.77794,
        0.772641,
        0.777316,
        0.778401,
        0.766533,
        0.756243,
        0.745377,
        0.735296,
        0.717311,
        0.710798,
        0.715066,
        0.726347,
        0.73155,
        0.747642,
        0.765636,
        0.774562,
        0.773666,
        0.765488,
        0.747522,
        0.740911,
        0.742185,
        0.748342,
        0.74459,
        0.750653,
        0.744898,
        0.74309,
        0.733291,
        0.729206,
        0.728451,
        0.716711,
        0.720019,
        0.736061,
        0.733759,
        0.729254,
        0.732833,
        0.737189,
        0.738931,
        0.736015,
        0.741213,
        0.747233,
        0.74492,
        0.739297,
        0.73211,
        0.729359,
        0.726899,
        0.73257,
        0.739166,
        0.73434,
        0.718198,
        0.703626,
        0.714364,
        0.721754,
        0.718991,
        0.706361,
        0.702781,
        0.707792,
        0.71535,
        0.727371,
        0.727263,
        0.721739,
        0.710002,
        0.713473,
        0.719523,
        0.717716,
        0.721853,
        0.725397,
        0.72167,
        0.715886,
        0.717445,
        0.713475,
        0.707385,
        0.712113,
        0.706041,
        0.699816,
        0.708515,
        0.718216,
        0.709463,
        0.706646,
        0.711469,
        0.718976,
        0.715221,
        0.709938,
        0.709222,
        0.708507,
        0.707791,
        0.707076,
        0.70636,
        0.705645,
        0.704929,
        0.704214,
        0.703498,
        0.702783,
        0.702067,
        0.701352,
        0.700637,
        0.699921,
        0.699206,
        0.69849,
        0.697775,
        0.697059,
        0.696344,
        0.695628,
        0.694913,
        0.694197,
        0.693482,
        0.692766,
        0.692051,
        0.691335,
        0.69062,
        0.689905,
        0.689189,
        0.688474,
        0.687758,
        0.687043,
        0.686327,
        0.685612,
        0.684896,
        0.684181,
        0.6885,
        0.686067,
        0.671645,
        0.66594,
        0.676167,
        0.683016,
        0.683289,
        0.68026,
        0.67482,
        0.672456,
        0.673474,
        0.673774,
        0.670329,
        0.664621,
        0.664228,
        0.667688,
        0.673682,
        0.68441,
        0.680345,
        0.666134,
        0.661142,
        0.66943,
        0.672143,
        0.67121,
        0.672982,
        0.676042,
        0.671581,
        0.668874,
        0.665864,
        0.663153,
        0.665674,
        0.669634,
        0.661276,
        0.659492,
        0.661581,
        0.661586,
        0.654399,
        0.649483,
        0.648041,
        0.643196,
        0.637782,
        0.634096,
        0.63282,
        0.640983,
        0.648097,
        0.652291,
        0.652969,
        0.652046,
        0.651946,
        0.654457,
        0.653706,
        0.654928,
        0.644937,
        0.632384,
        0.637739,
        0.645066,
        0.652169,
        0.650288,
        0.640047,
        0.634624,
        0.643888,
        0.645041,
        0.630682,
        0.62206,
        0.634334,
        0.644916,
        0.643288,
        0.635032,
        0.63525,
        0.63469,
        0.631205,
        0.628639,
        0.623333,
        0.623687,
        0.626763,
        0.628223,
        0.624699,
        0.621507,
        0.623484,
        0.624864,
        0.619922,
        0.613706,
        0.611968,
        0.612496,
        0.611711,
        0.608528,
        0.603178,
        0.59869,
        0.597744,
        0.598847,
        0.599208,
        0.595028,
        0.585501,
        0.582792,
        0.596194,
        0.610524,
        0.609722,
        0.598683,
        0.587106,
        0.582933,
        0.590461,
        0.601164,
        0.605843,
        0.605428,
        0.603308,
        0.602588,
        0.604768,
        0.605228,
        0.600023,
        0.594034,
        0.592682,
        0.594723,
        0.597275,
        0.597564,
        0.594313,
        0.592113,
        0.594737,
        0.596814,
        0.593092,
        0.587941,
        0.586561,
        0.587828,
        0.589697,
        0.59274,
        0.597232,
        0.599658,
        0.597261,
        0.594132,
        0.594148,
        0.593488,
        0.588722,
        0.585692,
        0.5898,
        0.595436,
        0.596353,
        0.596489,
        0.595664,
        0.594247,
        0.594653,
        0.596428,
        0.582762,
        0.575086,
        0.582977,
        0.592112,
        0.599396,
        0.595411,
        0.589128,
        0.581601,
        0.58461,
        0.588146,
        0.592389,
        0.585252,
        0.539322,
        0.511805,
        0.549776,
        0.573248,
        0.568299,
        0.56073,
        0.562203,
        0.560675,
        0.539179,
        0.482213,
        0.457273,
        0.490177,
        0.522088,
        0.548016,
        0.563149,
        0.562542,
        0.55937,
        0.558893,
        0.557892,
        0.555505,
        0.549341,
        0.551133,
        0.554695,
        0.556465,
        0.555921,
        0.558349,
        0.563344,
        0.567728,
        0.569451,
        0.565505,
        0.562806,
        0.562925,
        0.552727,
        0.504595,
        0.469727,
        0.481648,
        0.509939,
        0.543026,
        0.547266,
        0.537798,
        0.545282,
        0.555421,
        0.551509,
        0.547586,
        0.543123,
        0.55064,
        0.552673,
        0.543266,
        0.5349,
        0.536463,
        0.545768,
        0.544451,
        0.543828,
        0.552305,
        0.557801,
        0.548526,
        0.55064,
        0.55395,
        0.543715,
        0.538629,
        0.535605,
        0.537903,
        0.509293,
        0.520345,
        0.543061,
        0.54679,
        0.555186,
        0.556922,
        0.551979,
        0.545237,
        0.544154,
        0.549231,
        0.546167,
        0.54395,
        0.533909,
        0.542643,
        0.543317,
        0.551631,
        0.563163,
        0.558056,
        0.548965,
        0.556626,
        0.556708,
        0.555928,
        0.55721,
        0.558984,
        0.544884,
        0.542904,
        0.538893,
        0.53674,
        0.537153,
        0.538965,
        0.54054,
        0.540243,
        0.53694,
        0.531517,
        0.525361,
        0.519862,
        0.516092,
        0.51387,
        0.512697,
        0.512075,
        0.511808,
        0.512898,
        0.516645,
        0.524352,
        0.536524,
        0.550478,
        0.562737,
        0.569821,
        0.569272,
        0.562707,
        0.552764,
        0.542079,
        0.532874,
        0.525719,
        0.520764,
        0.518163,
        0.517825,
        0.518684,
        0.519427,
        0.518746,
        0.515767,
        0.511378,
        0.506903,
        0.503668,
        0.50258,
        0.502875,
        0.50337,
        0.502883,
        0.500633,
        0.497458,
        0.494595,
        0.493285,
        0.494359,
        0.497029,
        0.500098,
        0.502372,
        0.502975,
        0.502322,
        0.501148,
        0.50019,
        0.499989,
        0.50031,
        0.500725,
        0.500806,
        0.50019,
        0.498779,
        0.49654,
        0.493443,
        0.489608,
        0.485771,
        0.482823,
        0.481653,
        0.482765,
        0.485116,
        0.487279,
        0.487824,
        0.485731,
        0.481611,
        0.476482,
        0.471362,
        0.467099,
        0.463865,
        0.46166,
        0.460485,
        0.460111,
        0.45939,
        0.456944,
        0.451393,
        0.442145,
        0.431739,
        0.423503,
        0.420763,
        0.425734,
        0.436202,
        0.448842,
        0.460329,
        0.468149,
        0.473031,
        0.476514,
        0.480136,
        0.484645,
        0.487618,
        0.485841,
        0.476099,
        0.456966,
        0.434173,
        0.415239,
        0.407685,
        0.416309,
        0.43502,
        0.455005,
        0.467453,
        0.466226,
        0.455888,
        0.44368,
        0.436843,
        0.440537,
        0.451613,
        0.464843,
        0.474998,
        0.478131,
        0.475413,
        0.469296,
        0.462232,
        0.456375,
        0.452683,
        0.451819,
        0.454445,
        0.460751,
        0.469048,
        0.477175,
        0.482974,
        0.484753,
        0.482694,
        0.477452,
        0.469677,
        0.460313,
        0.451468,
        0.445541,
        0.44493,
        0.450878,
        0.460001,
        0.46776,
        0.469616,
        0.462621,
        0.4502,
        0.43737,
        0.429148,
        0.429194,
        0.435748,
        0.445691,
        0.455906,
        0.463767,
        0.468609,
        0.47026,
        0.468548,
        0.463626,
        0.456959,
        0.450337,
        0.445551,
        0.443884,
        0.444589,
        0.446414,
        0.448103,
        0.448701,
        0.448445,
        0.447871,
        0.447512,
        0.4478,
        0.448742,
        0.450241,
        0.452202,
        0.454527,
        0.45712,
        0.459886,
        0.462727,
        0.465383,
        0.466935,
        0.466295,
        0.46238,
        0.454782,
        0.445806,
        0.438434,
        0.435648,
        0.439288,
        0.446614,
        0.453744,
        0.456795,
        0.453169,
        0.445402,
        0.437315,
        0.43273,
        0.434334,
        0.440293,
        0.44764,
        0.453407,
        0.455351,
        0.454123,
        0.451099,
        0.447653,
        0.444937,
        0.443208,
        0.442499,
        0.442843,
        0.444247,
        0.446603,
        0.449779,
        0.453639,
        0.457903,
        0.461692,
        0.463982,
        0.463749,
        0.460527,
        0.456097,
        0.452801,
        0.452981,
        0.458032,
        0.465575,
        0.472286,
        0.474838,
        0.471035,
        0.463185,
        0.45472,
        0.449077,
        0.448604,
        0.45132,
        0.454154,
        0.45404,
        0.448951,
        0.44103,
        0.433463,
        0.429434,
        0.431102,
        0.436514,
        0.442692,
        0.446658,
        0.446239,
        0.442487,
        0.437261,
        0.43242,
        0.429399,
        0.427937,
        0.427351,
        0.426957,
        0.426213,
        0.425142,
        0.423911,
        0.422685,
        0.421593,
        0.42061,
        0.419676,
        0.41873,
        0.417705,
        0.416525,
        0.415109,
        0.413375,
        0.411337,
        0.409396,
        0.408043,
        0.407774,
        0.40884,
        0.410517,
        0.411841,
        0.411845,
        0.409936,
        0.40701,
        0.404337,
        0.403184,
        0.404488,
        0.407859,
        0.412575,
        0.417914,
        0.423129,
        0.427371,
        0.429768,
        0.429447,
        0.426,
        0.420879,
        0.416,
        0.41328,
        0.421481,
        0.422653,
        0.423839,
        0.424026,
        0.422555,
        0.420179,
        0.418005,
        0.417139,
        0.418342,
        0.420985,
        0.424095,
        0.426696,
        0.428068,
        0.428504,
        0.428551,
        0.428755,
        0.429461,
        0.430205,
        0.430322,
        0.429146,
        0.426311,
        0.422638,
        0.419248,
        0.417262,
        0.417443,
        0.419132,
        0.421312,
        0.422965,
        0.42329,
        0.422337,
        0.420373,
        0.417663,
        0.41454,
        0.411611,
        0.409548,
        0.409024,
        0.410455,
        0.413218,
        0.416435,
        0.419224
      ],
      "range":1
    }
  }
]
