[
  {
    "model":"Star, type A5(v)",
    "name":"Star, type A5(v)",
    "type":"WB_REF",
    "dataQualityMarker":3,
    "dataSource":"https://www.eso.org/sci/facilities/paranal/decommissioned/isaac/tools/lib.html",
    "manufacturer":"A. Pickles (A.J. Pickles, PASP 110,863, 1998)",
    "version":1,
    "wavelength":{
      "value":[
        1150.0,
        1155.0,
        1160.0,
        1165.0,
        1170.0,
        1175.0,
        1180.0,
        1185.0,
        1190.0,
        1195.0,
        1200.0,
        1205.0,
        1210.0,
        1215.0,
        1220.0,
        1225.0,
        1230.0,
        1235.0,
        1240.0,
        1245.0,
        1250.0,
        1255.0,
        1260.0,
        1265.0,
        1270.0,
        1275.0,
        1280.0,
        1285.0,
        1290.0,
        1295.0,
        1300.0,
        1305.0,
        1310.0,
        1315.0,
        1320.0,
        1325.0,
        1330.0,
        1335.0,
        1340.0,
        1345.0,
        1350.0,
        1355.0,
        1360.0,
        1365.0,
        1370.0,
        1375.0,
        1380.0,
        1385.0,
        1390.0,
        1395.0,
        1400.0,
        1405.0,
        1410.0,
        1415.0,
        1420.0,
        1425.0,
        1430.0,
        1435.0,
        1440.0,
        1445.0,
        1450.0,
        1455.0,
        1460.0,
        1465.0,
        1470.0,
        1475.0,
        1480.0,
        1485.0,
        1490.0,
        1495.0,
        1500.0,
        1505.0,
        1510.0,
        1515.0,
        1520.0,
        1525.0,
        1530.0,
        1535.0,
        1540.0,
        1545.0,
        1550.0,
        1555.0,
        1560.0,
        1565.0,
        1570.0,
        1575.0,
        1580.0,
        1585.0,
        1590.0,
        1595.0,
        1600.0,
        1605.0,
        1610.0,
        1615.0,
        1620.0,
        1625.0,
        1630.0,
        1635.0,
        1640.0,
        1645.0,
        1650.0,
        1655.0,
        1660.0,
        1665.0,
        1670.0,
        1675.0,
        1680.0,
        1685.0,
        1690.0,
        1695.0,
        1700.0,
        1705.0,
        1710.0,
        1715.0,
        1720.0,
        1725.0,
        1730.0,
        1735.0,
        1740.0,
        1745.0,
        1750.0,
        1755.0,
        1760.0,
        1765.0,
        1770.0,
        1775.0,
        1780.0,
        1785.0,
        1790.0,
        1795.0,
        1800.0,
        1805.0,
        1810.0,
        1815.0,
        1820.0,
        1825.0,
        1830.0,
        1835.0,
        1840.0,
        1845.0,
        1850.0,
        1855.0,
        1860.0,
        1865.0,
        1870.0,
        1875.0,
        1880.0,
        1885.0,
        1890.0,
        1895.0,
        1900.0,
        1905.0,
        1910.0,
        1915.0,
        1920.0,
        1925.0,
        1930.0,
        1935.0,
        1940.0,
        1945.0,
        1950.0,
        1955.0,
        1960.0,
        1965.0,
        1970.0,
        1975.0,
        1980.0,
        1985.0,
        1990.0,
        1995.0,
        2000.0,
        2005.0,
        2010.0,
        2015.0,
        2020.0,
        2025.0,
        2030.0,
        2035.0,
        2040.0,
        2045.0,
        2050.0,
        2055.0,
        2060.0,
        2065.0,
        2070.0,
        2075.0,
        2080.0,
        2085.0,
        2090.0,
        2095.0,
        2100.0,
        2105.0,
        2110.0,
        2115.0,
        2120.0,
        2125.0,
        2130.0,
        2135.0,
        2140.0,
        2145.0,
        2150.0,
        2155.0,
        2160.0,
        2165.0,
        2170.0,
        2175.0,
        2180.0,
        2185.0,
        2190.0,
        2195.0,
        2200.0,
        2205.0,
        2210.0,
        2215.0,
        2220.0,
        2225.0,
        2230.0,
        2235.0,
        2240.0,
        2245.0,
        2250.0,
        2255.0,
        2260.0,
        2265.0,
        2270.0,
        2275.0,
        2280.0,
        2285.0,
        2290.0,
        2295.0,
        2300.0,
        2305.0,
        2310.0,
        2315.0,
        2320.0,
        2325.0,
        2330.0,
        2335.0,
        2340.0,
        2345.0,
        2350.0,
        2355.0,
        2360.0,
        2365.0,
        2370.0,
        2375.0,
        2380.0,
        2385.0,
        2390.0,
        2395.0,
        2400.0,
        2405.0,
        2410.0,
        2415.0,
        2420.0,
        2425.0,
        2430.0,
        2435.0,
        2440.0,
        2445.0,
        2450.0,
        2455.0,
        2460.0,
        2465.0,
        2470.0,
        2475.0,
        2480.0,
        2485.0,
        2490.0,
        2495.0,
        2500.0,
        2505.0,
        2510.0,
        2515.0,
        2520.0,
        2525.0,
        2530.0,
        2535.0,
        2540.0,
        2545.0,
        2550.0,
        2555.0,
        2560.0,
        2565.0,
        2570.0,
        2575.0,
        2580.0,
        2585.0,
        2590.0,
        2595.0,
        2600.0,
        2605.0,
        2610.0,
        2615.0,
        2620.0,
        2625.0,
        2630.0,
        2635.0,
        2640.0,
        2645.0,
        2650.0,
        2655.0,
        2660.0,
        2665.0,
        2670.0,
        2675.0,
        2680.0,
        2685.0,
        2690.0,
        2695.0,
        2700.0,
        2705.0,
        2710.0,
        2715.0,
        2720.0,
        2725.0,
        2730.0,
        2735.0,
        2740.0,
        2745.0,
        2750.0,
        2755.0,
        2760.0,
        2765.0,
        2770.0,
        2775.0,
        2780.0,
        2785.0,
        2790.0,
        2795.0,
        2800.0,
        2805.0,
        2810.0,
        2815.0,
        2820.0,
        2825.0,
        2830.0,
        2835.0,
        2840.0,
        2845.0,
        2850.0,
        2855.0,
        2860.0,
        2865.0,
        2870.0,
        2875.0,
        2880.0,
        2885.0,
        2890.0,
        2895.0,
        2900.0,
        2905.0,
        2910.0,
        2915.0,
        2920.0,
        2925.0,
        2930.0,
        2935.0,
        2940.0,
        2945.0,
        2950.0,
        2955.0,
        2960.0,
        2965.0,
        2970.0,
        2975.0,
        2980.0,
        2985.0,
        2990.0,
        2995.0,
        3000.0,
        3005.0,
        3010.0,
        3015.0,
        3020.0,
        3025.0,
        3030.0,
        3035.0,
        3040.0,
        3045.0,
        3050.0,
        3055.0,
        3060.0,
        3065.0,
        3070.0,
        3075.0,
        3080.0,
        3085.0,
        3090.0,
        3095.0,
        3100.0,
        3105.0,
        3110.0,
        3115.0,
        3120.0,
        3125.0,
        3130.0,
        3135.0,
        3140.0,
        3145.0,
        3150.0,
        3155.0,
        3160.0,
        3165.0,
        3170.0,
        3175.0,
        3180.0,
        3185.0,
        3190.0,
        3195.0,
        3200.0,
        3205.0,
        3210.0,
        3215.0,
        3220.0,
        3225.0,
        3230.0,
        3235.0,
        3240.0,
        3245.0,
        3250.0,
        3255.0,
        3260.0,
        3265.0,
        3270.0,
        3275.0,
        3280.0,
        3285.0,
        3290.0,
        3295.0,
        3300.0,
        3305.0,
        3310.0,
        3315.0,
        3320.0,
        3325.0,
        3330.0,
        3335.0,
        3340.0,
        3345.0,
        3350.0,
        3355.0,
        3360.0,
        3365.0,
        3370.0,
        3375.0,
        3380.0,
        3385.0,
        3390.0,
        3395.0,
        3400.0,
        3405.0,
        3410.0,
        3415.0,
        3420.0,
        3425.0,
        3430.0,
        3435.0,
        3440.0,
        3445.0,
        3450.0,
        3455.0,
        3460.0,
        3465.0,
        3470.0,
        3475.0,
        3480.0,
        3485.0,
        3490.0,
        3495.0,
        3500.0,
        3505.0,
        3510.0,
        3515.0,
        3520.0,
        3525.0,
        3530.0,
        3535.0,
        3540.0,
        3545.0,
        3550.0,
        3555.0,
        3560.0,
        3565.0,
        3570.0,
        3575.0,
        3580.0,
        3585.0,
        3590.0,
        3595.0,
        3600.0,
        3605.0,
        3610.0,
        3615.0,
        3620.0,
        3625.0,
        3630.0,
        3635.0,
        3640.0,
        3645.0,
        3650.0,
        3655.0,
        3660.0,
        3665.0,
        3670.0,
        3675.0,
        3680.0,
        3685.0,
        3690.0,
        3695.0,
        3700.0,
        3705.0,
        3710.0,
        3715.0,
        3720.0,
        3725.0,
        3730.0,
        3735.0,
        3740.0,
        3745.0,
        3750.0,
        3755.0,
        3760.0,
        3765.0,
        3770.0,
        3775.0,
        3780.0,
        3785.0,
        3790.0,
        3795.0,
        3800.0,
        3805.0,
        3810.0,
        3815.0,
        3820.0,
        3825.0,
        3830.0,
        3835.0,
        3840.0,
        3845.0,
        3850.0,
        3855.0,
        3860.0,
        3865.0,
        3870.0,
        3875.0,
        3880.0,
        3885.0,
        3890.0,
        3895.0,
        3900.0,
        3905.0,
        3910.0,
        3915.0,
        3920.0,
        3925.0,
        3930.0,
        3935.0,
        3940.0,
        3945.0,
        3950.0,
        3955.0,
        3960.0,
        3965.0,
        3970.0,
        3975.0,
        3980.0,
        3985.0,
        3990.0,
        3995.0,
        4000.0,
        4005.0,
        4010.0,
        4015.0,
        4020.0,
        4025.0,
        4030.0,
        4035.0,
        4040.0,
        4045.0,
        4050.0,
        4055.0,
        4060.0,
        4065.0,
        4070.0,
        4075.0,
        4080.0,
        4085.0,
        4090.0,
        4095.0,
        4100.0,
        4105.0,
        4110.0,
        4115.0,
        4120.0,
        4125.0,
        4130.0,
        4135.0,
        4140.0,
        4145.0,
        4150.0,
        4155.0,
        4160.0,
        4165.0,
        4170.0,
        4175.0,
        4180.0,
        4185.0,
        4190.0,
        4195.0,
        4200.0,
        4205.0,
        4210.0,
        4215.0,
        4220.0,
        4225.0,
        4230.0,
        4235.0,
        4240.0,
        4245.0,
        4250.0,
        4255.0,
        4260.0,
        4265.0,
        4270.0,
        4275.0,
        4280.0,
        4285.0,
        4290.0,
        4295.0,
        4300.0,
        4305.0,
        4310.0,
        4315.0,
        4320.0,
        4325.0,
        4330.0,
        4335.0,
        4340.0,
        4345.0,
        4350.0,
        4355.0,
        4360.0,
        4365.0,
        4370.0,
        4375.0,
        4380.0,
        4385.0,
        4390.0,
        4395.0,
        4400.0,
        4405.0,
        4410.0,
        4415.0,
        4420.0,
        4425.0,
        4430.0,
        4435.0,
        4440.0,
        4445.0,
        4450.0,
        4455.0,
        4460.0,
        4465.0,
        4470.0,
        4475.0,
        4480.0,
        4485.0,
        4490.0,
        4495.0,
        4500.0,
        4505.0,
        4510.0,
        4515.0,
        4520.0,
        4525.0,
        4530.0,
        4535.0,
        4540.0,
        4545.0,
        4550.0,
        4555.0,
        4560.0,
        4565.0,
        4570.0,
        4575.0,
        4580.0,
        4585.0,
        4590.0,
        4595.0,
        4600.0,
        4605.0,
        4610.0,
        4615.0,
        4620.0,
        4625.0,
        4630.0,
        4635.0,
        4640.0,
        4645.0,
        4650.0,
        4655.0,
        4660.0,
        4665.0,
        4670.0,
        4675.0,
        4680.0,
        4685.0,
        4690.0,
        4695.0,
        4700.0,
        4705.0,
        4710.0,
        4715.0,
        4720.0,
        4725.0,
        4730.0,
        4735.0,
        4740.0,
        4745.0,
        4750.0,
        4755.0,
        4760.0,
        4765.0,
        4770.0,
        4775.0,
        4780.0,
        4785.0,
        4790.0,
        4795.0,
        4800.0,
        4805.0,
        4810.0,
        4815.0,
        4820.0,
        4825.0,
        4830.0,
        4835.0,
        4840.0,
        4845.0,
        4850.0,
        4855.0,
        4860.0,
        4865.0,
        4870.0,
        4875.0,
        4880.0,
        4885.0,
        4890.0,
        4895.0,
        4900.0,
        4905.0,
        4910.0,
        4915.0,
        4920.0,
        4925.0,
        4930.0,
        4935.0,
        4940.0,
        4945.0,
        4950.0,
        4955.0,
        4960.0,
        4965.0,
        4970.0,
        4975.0,
        4980.0,
        4985.0,
        4990.0,
        4995.0,
        5000.0,
        5005.0,
        5010.0,
        5015.0,
        5020.0,
        5025.0,
        5030.0,
        5035.0,
        5040.0,
        5045.0,
        5050.0,
        5055.0,
        5060.0,
        5065.0,
        5070.0,
        5075.0,
        5080.0,
        5085.0,
        5090.0,
        5095.0,
        5100.0,
        5105.0,
        5110.0,
        5115.0,
        5120.0,
        5125.0,
        5130.0,
        5135.0,
        5140.0,
        5145.0,
        5150.0,
        5155.0,
        5160.0,
        5165.0,
        5170.0,
        5175.0,
        5180.0,
        5185.0,
        5190.0,
        5195.0,
        5200.0,
        5205.0,
        5210.0,
        5215.0,
        5220.0,
        5225.0,
        5230.0,
        5235.0,
        5240.0,
        5245.0,
        5250.0,
        5255.0,
        5260.0,
        5265.0,
        5270.0,
        5275.0,
        5280.0,
        5285.0,
        5290.0,
        5295.0,
        5300.0,
        5305.0,
        5310.0,
        5315.0,
        5320.0,
        5325.0,
        5330.0,
        5335.0,
        5340.0,
        5345.0,
        5350.0,
        5355.0,
        5360.0,
        5365.0,
        5370.0,
        5375.0,
        5380.0,
        5385.0,
        5390.0,
        5395.0,
        5400.0,
        5405.0,
        5410.0,
        5415.0,
        5420.0,
        5425.0,
        5430.0,
        5435.0,
        5440.0,
        5445.0,
        5450.0,
        5455.0,
        5460.0,
        5465.0,
        5470.0,
        5475.0,
        5480.0,
        5485.0,
        5490.0,
        5495.0,
        5500.0,
        5505.0,
        5510.0,
        5515.0,
        5520.0,
        5525.0,
        5530.0,
        5535.0,
        5540.0,
        5545.0,
        5550.0,
        5555.0,
        5560.0,
        5565.0,
        5570.0,
        5575.0,
        5580.0,
        5585.0,
        5590.0,
        5595.0,
        5600.0,
        5605.0,
        5610.0,
        5615.0,
        5620.0,
        5625.0,
        5630.0,
        5635.0,
        5640.0,
        5645.0,
        5650.0,
        5655.0,
        5660.0,
        5665.0,
        5670.0,
        5675.0,
        5680.0,
        5685.0,
        5690.0,
        5695.0,
        5700.0,
        5705.0,
        5710.0,
        5715.0,
        5720.0,
        5725.0,
        5730.0,
        5735.0,
        5740.0,
        5745.0,
        5750.0,
        5755.0,
        5760.0,
        5765.0,
        5770.0,
        5775.0,
        5780.0,
        5785.0,
        5790.0,
        5795.0,
        5800.0,
        5805.0,
        5810.0,
        5815.0,
        5820.0,
        5825.0,
        5830.0,
        5835.0,
        5840.0,
        5845.0,
        5850.0,
        5855.0,
        5860.0,
        5865.0,
        5870.0,
        5875.0,
        5880.0,
        5885.0,
        5890.0,
        5895.0,
        5900.0,
        5905.0,
        5910.0,
        5915.0,
        5920.0,
        5925.0,
        5930.0,
        5935.0,
        5940.0,
        5945.0,
        5950.0,
        5955.0,
        5960.0,
        5965.0,
        5970.0,
        5975.0,
        5980.0,
        5985.0,
        5990.0,
        5995.0,
        6000.0,
        6005.0,
        6010.0,
        6015.0,
        6020.0,
        6025.0,
        6030.0,
        6035.0,
        6040.0,
        6045.0,
        6050.0,
        6055.0,
        6060.0,
        6065.0,
        6070.0,
        6075.0,
        6080.0,
        6085.0,
        6090.0,
        6095.0,
        6100.0,
        6105.0,
        6110.0,
        6115.0,
        6120.0,
        6125.0,
        6130.0,
        6135.0,
        6140.0,
        6145.0,
        6150.0,
        6155.0,
        6160.0,
        6165.0,
        6170.0,
        6175.0,
        6180.0,
        6185.0,
        6190.0,
        6195.0,
        6200.0,
        6205.0,
        6210.0,
        6215.0,
        6220.0,
        6225.0,
        6230.0,
        6235.0,
        6240.0,
        6245.0,
        6250.0,
        6255.0,
        6260.0,
        6265.0,
        6270.0,
        6275.0,
        6280.0,
        6285.0,
        6290.0,
        6295.0,
        6300.0,
        6305.0,
        6310.0,
        6315.0,
        6320.0,
        6325.0,
        6330.0,
        6335.0,
        6340.0,
        6345.0,
        6350.0,
        6355.0,
        6360.0,
        6365.0,
        6370.0,
        6375.0,
        6380.0,
        6385.0,
        6390.0,
        6395.0,
        6400.0,
        6405.0,
        6410.0,
        6415.0,
        6420.0,
        6425.0,
        6430.0,
        6435.0,
        6440.0,
        6445.0,
        6450.0,
        6455.0,
        6460.0,
        6465.0,
        6470.0,
        6475.0,
        6480.0,
        6485.0,
        6490.0,
        6495.0,
        6500.0,
        6505.0,
        6510.0,
        6515.0,
        6520.0,
        6525.0,
        6530.0,
        6535.0,
        6540.0,
        6545.0,
        6550.0,
        6555.0,
        6560.0,
        6565.0,
        6570.0,
        6575.0,
        6580.0,
        6585.0,
        6590.0,
        6595.0,
        6600.0,
        6605.0,
        6610.0,
        6615.0,
        6620.0,
        6625.0,
        6630.0,
        6635.0,
        6640.0,
        6645.0,
        6650.0,
        6655.0,
        6660.0,
        6665.0,
        6670.0,
        6675.0,
        6680.0,
        6685.0,
        6690.0,
        6695.0,
        6700.0,
        6705.0,
        6710.0,
        6715.0,
        6720.0,
        6725.0,
        6730.0,
        6735.0,
        6740.0,
        6745.0,
        6750.0,
        6755.0,
        6760.0,
        6765.0,
        6770.0,
        6775.0,
        6780.0,
        6785.0,
        6790.0,
        6795.0,
        6800.0,
        6805.0,
        6810.0,
        6815.0,
        6820.0,
        6825.0,
        6830.0,
        6835.0,
        6840.0,
        6845.0,
        6850.0,
        6855.0,
        6860.0,
        6865.0,
        6870.0,
        6875.0,
        6880.0,
        6885.0,
        6890.0,
        6895.0,
        6900.0,
        6905.0,
        6910.0,
        6915.0,
        6920.0,
        6925.0,
        6930.0,
        6935.0,
        6940.0,
        6945.0,
        6950.0,
        6955.0,
        6960.0,
        6965.0,
        6970.0,
        6975.0,
        6980.0,
        6985.0,
        6990.0,
        6995.0,
        7000.0,
        7005.0,
        7010.0,
        7015.0,
        7020.0,
        7025.0,
        7030.0,
        7035.0,
        7040.0,
        7045.0,
        7050.0,
        7055.0,
        7060.0,
        7065.0,
        7070.0,
        7075.0,
        7080.0,
        7085.0,
        7090.0,
        7095.0,
        7100.0,
        7105.0,
        7110.0,
        7115.0,
        7120.0,
        7125.0,
        7130.0,
        7135.0,
        7140.0,
        7145.0,
        7150.0,
        7155.0,
        7160.0,
        7165.0,
        7170.0,
        7175.0,
        7180.0,
        7185.0,
        7190.0,
        7195.0,
        7200.0,
        7205.0,
        7210.0,
        7215.0,
        7220.0,
        7225.0,
        7230.0,
        7235.0,
        7240.0,
        7245.0,
        7250.0,
        7255.0,
        7260.0,
        7265.0,
        7270.0,
        7275.0,
        7280.0,
        7285.0,
        7290.0,
        7295.0,
        7300.0,
        7305.0,
        7310.0,
        7315.0,
        7320.0,
        7325.0,
        7330.0,
        7335.0,
        7340.0,
        7345.0,
        7350.0,
        7355.0,
        7360.0,
        7365.0,
        7370.0,
        7375.0,
        7380.0,
        7385.0,
        7390.0,
        7395.0,
        7400.0,
        7405.0,
        7410.0,
        7415.0,
        7420.0,
        7425.0,
        7430.0,
        7435.0,
        7440.0,
        7445.0,
        7450.0,
        7455.0,
        7460.0,
        7465.0,
        7470.0,
        7475.0,
        7480.0,
        7485.0,
        7490.0,
        7495.0,
        7500.0,
        7505.0,
        7510.0,
        7515.0,
        7520.0,
        7525.0,
        7530.0,
        7535.0,
        7540.0,
        7545.0,
        7550.0,
        7555.0,
        7560.0,
        7565.0,
        7570.0,
        7575.0,
        7580.0,
        7585.0,
        7590.0,
        7595.0,
        7600.0,
        7605.0,
        7610.0,
        7615.0,
        7620.0,
        7625.0,
        7630.0,
        7635.0,
        7640.0,
        7645.0,
        7650.0,
        7655.0,
        7660.0,
        7665.0,
        7670.0,
        7675.0,
        7680.0,
        7685.0,
        7690.0,
        7695.0,
        7700.0,
        7705.0,
        7710.0,
        7715.0,
        7720.0,
        7725.0,
        7730.0,
        7735.0,
        7740.0,
        7745.0,
        7750.0,
        7755.0,
        7760.0,
        7765.0,
        7770.0,
        7775.0,
        7780.0,
        7785.0,
        7790.0,
        7795.0,
        7800.0,
        7805.0,
        7810.0,
        7815.0,
        7820.0,
        7825.0,
        7830.0,
        7835.0,
        7840.0,
        7845.0,
        7850.0,
        7855.0,
        7860.0,
        7865.0,
        7870.0,
        7875.0,
        7880.0,
        7885.0,
        7890.0,
        7895.0,
        7900.0,
        7905.0,
        7910.0,
        7915.0,
        7920.0,
        7925.0,
        7930.0,
        7935.0,
        7940.0,
        7945.0,
        7950.0,
        7955.0,
        7960.0,
        7965.0,
        7970.0,
        7975.0,
        7980.0,
        7985.0,
        7990.0,
        7995.0,
        8000.0,
        8005.0,
        8010.0,
        8015.0,
        8020.0,
        8025.0,
        8030.0,
        8035.0,
        8040.0,
        8045.0,
        8050.0,
        8055.0,
        8060.0,
        8065.0,
        8070.0,
        8075.0,
        8080.0,
        8085.0,
        8090.0,
        8095.0,
        8100.0,
        8105.0,
        8110.0,
        8115.0,
        8120.0,
        8125.0,
        8130.0,
        8135.0,
        8140.0,
        8145.0,
        8150.0,
        8155.0,
        8160.0,
        8165.0,
        8170.0,
        8175.0,
        8180.0,
        8185.0,
        8190.0,
        8195.0,
        8200.0,
        8205.0,
        8210.0,
        8215.0,
        8220.0,
        8225.0,
        8230.0,
        8235.0,
        8240.0,
        8245.0,
        8250.0,
        8255.0,
        8260.0,
        8265.0,
        8270.0,
        8275.0,
        8280.0,
        8285.0,
        8290.0,
        8295.0,
        8300.0,
        8305.0,
        8310.0,
        8315.0,
        8320.0,
        8325.0,
        8330.0,
        8335.0,
        8340.0,
        8345.0,
        8350.0,
        8355.0,
        8360.0,
        8365.0,
        8370.0,
        8375.0,
        8380.0,
        8385.0,
        8390.0,
        8395.0,
        8400.0,
        8405.0,
        8410.0,
        8415.0,
        8420.0,
        8425.0,
        8430.0,
        8435.0,
        8440.0,
        8445.0,
        8450.0,
        8455.0,
        8460.0,
        8465.0,
        8470.0,
        8475.0,
        8480.0,
        8485.0,
        8490.0,
        8495.0,
        8500.0,
        8505.0,
        8510.0,
        8515.0,
        8520.0,
        8525.0,
        8530.0,
        8535.0,
        8540.0,
        8545.0,
        8550.0,
        8555.0,
        8560.0,
        8565.0,
        8570.0,
        8575.0,
        8580.0,
        8585.0,
        8590.0,
        8595.0,
        8600.0,
        8605.0,
        8610.0,
        8615.0,
        8620.0,
        8625.0,
        8630.0,
        8635.0,
        8640.0,
        8645.0,
        8650.0,
        8655.0,
        8660.0,
        8665.0,
        8670.0,
        8675.0,
        8680.0,
        8685.0,
        8690.0,
        8695.0,
        8700.0,
        8705.0,
        8710.0,
        8715.0,
        8720.0,
        8725.0,
        8730.0,
        8735.0,
        8740.0,
        8745.0,
        8750.0,
        8755.0,
        8760.0,
        8765.0,
        8770.0,
        8775.0,
        8780.0,
        8785.0,
        8790.0,
        8795.0,
        8800.0,
        8805.0,
        8810.0,
        8815.0,
        8820.0,
        8825.0,
        8830.0,
        8835.0,
        8840.0,
        8845.0,
        8850.0,
        8855.0,
        8860.0,
        8865.0,
        8870.0,
        8875.0,
        8880.0,
        8885.0,
        8890.0,
        8895.0,
        8900.0,
        8905.0,
        8910.0,
        8915.0,
        8920.0,
        8925.0,
        8930.0,
        8935.0,
        8940.0,
        8945.0,
        8950.0,
        8955.0,
        8960.0,
        8965.0,
        8970.0,
        8975.0,
        8980.0,
        8985.0,
        8990.0,
        8995.0,
        9000.0,
        9005.0,
        9010.0,
        9015.0,
        9020.0,
        9025.0,
        9030.0,
        9035.0,
        9040.0,
        9045.0,
        9050.0,
        9055.0,
        9060.0,
        9065.0,
        9070.0,
        9075.0,
        9080.0,
        9085.0,
        9090.0,
        9095.0,
        9100.0,
        9105.0,
        9110.0,
        9115.0,
        9120.0,
        9125.0,
        9130.0,
        9135.0,
        9140.0,
        9145.0,
        9150.0,
        9155.0,
        9160.0,
        9165.0,
        9170.0,
        9175.0,
        9180.0,
        9185.0,
        9190.0,
        9195.0,
        9200.0,
        9205.0,
        9210.0,
        9215.0,
        9220.0,
        9225.0,
        9230.0,
        9235.0,
        9240.0,
        9245.0,
        9250.0,
        9255.0,
        9260.0,
        9265.0,
        9270.0,
        9275.0,
        9280.0,
        9285.0,
        9290.0,
        9295.0,
        9300.0,
        9305.0,
        9310.0,
        9315.0,
        9320.0,
        9325.0,
        9330.0,
        9335.0,
        9340.0,
        9345.0,
        9350.0,
        9355.0,
        9360.0,
        9365.0,
        9370.0,
        9375.0,
        9380.0,
        9385.0,
        9390.0,
        9395.0,
        9400.0,
        9405.0,
        9410.0,
        9415.0,
        9420.0,
        9425.0,
        9430.0,
        9435.0,
        9440.0,
        9445.0,
        9450.0,
        9455.0,
        9460.0,
        9465.0,
        9470.0,
        9475.0,
        9480.0,
        9485.0,
        9490.0,
        9495.0,
        9500.0,
        9505.0,
        9510.0,
        9515.0,
        9520.0,
        9525.0,
        9530.0,
        9535.0,
        9540.0,
        9545.0,
        9550.0,
        9555.0,
        9560.0,
        9565.0,
        9570.0,
        9575.0,
        9580.0,
        9585.0,
        9590.0,
        9595.0,
        9600.0,
        9605.0,
        9610.0,
        9615.0,
        9620.0,
        9625.0,
        9630.0,
        9635.0,
        9640.0,
        9645.0,
        9650.0,
        9655.0,
        9660.0,
        9665.0,
        9670.0,
        9675.0,
        9680.0,
        9685.0,
        9690.0,
        9695.0,
        9700.0,
        9705.0,
        9710.0,
        9715.0,
        9720.0,
        9725.0,
        9730.0,
        9735.0,
        9740.0,
        9745.0,
        9750.0,
        9755.0,
        9760.0,
        9765.0,
        9770.0,
        9775.0,
        9780.0,
        9785.0,
        9790.0,
        9795.0,
        9800.0,
        9805.0,
        9810.0,
        9815.0,
        9820.0,
        9825.0,
        9830.0,
        9835.0,
        9840.0,
        9845.0,
        9850.0,
        9855.0,
        9860.0,
        9865.0,
        9870.0,
        9875.0,
        9880.0,
        9885.0,
        9890.0,
        9895.0,
        9900.0,
        9905.0,
        9910.0,
        9915.0,
        9920.0,
        9925.0,
        9930.0,
        9935.0,
        9940.0,
        9945.0,
        9950.0,
        9955.0,
        9960.0,
        9965.0,
        9970.0,
        9975.0,
        9980.0,
        9985.0,
        9990.0,
        9995.0,
        10000.0,
        10005.0,
        10010.0,
        10015.0,
        10020.0,
        10025.0,
        10030.0,
        10035.0,
        10040.0,
        10045.0,
        10050.0,
        10055.0,
        10060.0,
        10065.0,
        10070.0,
        10075.0,
        10080.0,
        10085.0,
        10090.0,
        10095.0,
        10100.0,
        10105.0,
        10110.0,
        10115.0,
        10120.0,
        10125.0,
        10130.0,
        10135.0,
        10140.0,
        10145.0,
        10150.0,
        10155.0,
        10160.0,
        10165.0,
        10170.0,
        10175.0,
        10180.0,
        10185.0,
        10190.0,
        10195.0,
        10200.0,
        10205.0,
        10210.0,
        10215.0,
        10220.0,
        10225.0,
        10230.0,
        10235.0,
        10240.0,
        10245.0,
        10250.0,
        10255.0,
        10260.0,
        10265.0,
        10270.0,
        10275.0,
        10280.0,
        10285.0,
        10290.0,
        10295.0,
        10300.0,
        10305.0,
        10310.0,
        10315.0,
        10320.0,
        10325.0,
        10330.0,
        10335.0,
        10340.0,
        10345.0,
        10350.0,
        10355.0,
        10360.0,
        10365.0,
        10370.0,
        10375.0,
        10380.0,
        10385.0,
        10390.0,
        10395.0,
        10400.0,
        10405.0,
        10410.0,
        10415.0,
        10420.0,
        10425.0,
        10430.0,
        10435.0,
        10440.0,
        10445.0,
        10450.0,
        10455.0,
        10460.0,
        10465.0,
        10470.0,
        10475.0,
        10480.0,
        10485.0,
        10490.0,
        10495.0,
        10500.0
      ],
      "units":"angstrom"
    },
    "values":{
      "value":[
        0.0,
        0.010112,
        0.035476,
        0.0,
        0.0,
        0.0,
        0.0,
        0.0,
        0.0,
        0.0,
        0.0,
        0.001767,
        0.029337,
        0.044392,
        0.019819,
        0.00776,
        0.005219,
        0.00487,
        0.0046,
        0.000782,
        0.006129,
        0.00615,
        0.004974,
        0.004305,
        0.005035,
        0.004842,
        0.006096,
        0.004384,
        0.004738,
        0.00144,
        0.003983,
        0.003084,
        0.002804,
        0.003681,
        0.001503,
        0.001259,
        0.002836,
        0.002611,
        0.004889,
        0.005078,
        0.004925,
        0.008155,
        0.006243,
        0.001535,
        0.001862,
        0.00703,
        0.008658,
        0.004119,
        0.003104,
        0.004172,
        0.004213,
        0.005551,
        0.000185,
        0.001284,
        0.00592,
        0.007148,
        0.006368,
        0.007133,
        0.00723,
        0.009398,
        0.011723,
        0.010506,
        0.008776,
        0.009922,
        0.009787,
        0.009197,
        0.007739,
        0.012502,
        0.01196,
        0.014853,
        0.014664,
        0.013581,
        0.012138,
        0.014114,
        0.017457,
        0.018865,
        0.021896,
        0.029058,
        0.037799,
        0.04853,
        0.052848,
        0.055661,
        0.070154,
        0.084374,
        0.077362,
        0.101298,
        0.129886,
        0.130405,
        0.118892,
        0.113174,
        0.127537,
        0.134704,
        0.145274,
        0.156276,
        0.154464,
        0.163653,
        0.15963,
        0.181385,
        0.211569,
        0.229657,
        0.207432,
        0.17019,
        0.214272,
        0.256604,
        0.201546,
        0.224185,
        0.264055,
        0.272627,
        0.274305,
        0.271454,
        0.300772,
        0.346971,
        0.386861,
        0.415251,
        0.414083,
        0.422559,
        0.466747,
        0.467921,
        0.463205,
        0.484484,
        0.538499,
        0.575736,
        0.526849,
        0.491737,
        0.535064,
        0.599999,
        0.626271,
        0.573795,
        0.575837,
        0.680539,
        0.715476,
        0.66915,
        0.653244,
        0.674579,
        0.68893,
        0.690887,
        0.671984,
        0.624731,
        0.53214,
        0.504905,
        0.509707,
        0.533169,
        0.566599,
        0.594493,
        0.633111,
        0.642245,
        0.676764,
        0.689008,
        0.663292,
        0.617595,
        0.57515,
        0.607594,
        0.627012,
        0.67135,
        0.681233,
        0.601963,
        0.53384,
        0.566485,
        0.670541,
        0.707369,
        0.708627,
        0.692887,
        0.667588,
        0.667686,
        0.651047,
        0.682029,
        0.679248,
        0.686897,
        0.659822,
        0.619402,
        0.623085,
        0.644395,
        0.610335,
        0.608527,
        0.607278,
        0.614305,
        0.617175,
        0.626261,
        0.63994,
        0.64185,
        0.696646,
        0.715428,
        0.650878,
        0.647524,
        0.668823,
        0.681769,
        0.716492,
        0.741952,
        0.749978,
        0.730749,
        0.710472,
        0.692581,
        0.671304,
        0.659397,
        0.642535,
        0.686194,
        0.690718,
        0.5851,
        0.514737,
        0.540255,
        0.612948,
        0.620163,
        0.629078,
        0.604543,
        0.567451,
        0.53679,
        0.535045,
        0.580701,
        0.615626,
        0.630337,
        0.655744,
        0.65893,
        0.620033,
        0.553369,
        0.525046,
        0.522951,
        0.543051,
        0.546915,
        0.598702,
        0.585284,
        0.52313,
        0.502785,
        0.508325,
        0.496007,
        0.50561,
        0.510665,
        0.550551,
        0.555443,
        0.585447,
        0.587165,
        0.550786,
        0.495129,
        0.492722,
        0.520173,
        0.504818,
        0.499338,
        0.491241,
        0.468923,
        0.447094,
        0.414265,
        0.395155,
        0.423409,
        0.475135,
        0.429197,
        0.415906,
        0.45586,
        0.453002,
        0.414516,
        0.364036,
        0.388762,
        0.404585,
        0.397815,
        0.368462,
        0.35123,
        0.400677,
        0.469792,
        0.498451,
        0.48659,
        0.470138,
        0.485282,
        0.508675,
        0.488443,
        0.492037,
        0.504223,
        0.457793,
        0.439186,
        0.448356,
        0.452255,
        0.464744,
        0.441476,
        0.494864,
        0.553231,
        0.533038,
        0.500283,
        0.461763,
        0.416692,
        0.394034,
        0.396057,
        0.39936,
        0.396874,
        0.399533,
        0.418809,
        0.46638,
        0.472084,
        0.498573,
        0.553502,
        0.491729,
        0.47892,
        0.513981,
        0.534507,
        0.52731,
        0.484805,
        0.462165,
        0.438501,
        0.485421,
        0.53212,
        0.513855,
        0.494526,
        0.593381,
        0.668202,
        0.709052,
        0.700396,
        0.68992,
        0.633534,
        0.585806,
        0.598197,
        0.63115,
        0.628831,
        0.61688,
        0.582406,
        0.590581,
        0.60857,
        0.599201,
        0.55771,
        0.552061,
        0.556486,
        0.597036,
        0.639139,
        0.61302,
        0.536343,
        0.488181,
        0.480162,
        0.495104,
        0.536825,
        0.550577,
        0.554734,
        0.579966,
        0.54617,
        0.551156,
        0.481573,
        0.328659,
        0.304693,
        0.413016,
        0.568873,
        0.665152,
        0.703872,
        0.678579,
        0.672877,
        0.649048,
        0.604551,
        0.601413,
        0.592134,
        0.588374,
        0.635453,
        0.628134,
        0.630405,
        0.639483,
        0.646964,
        0.640215,
        0.627298,
        0.629729,
        0.654855,
        0.70648,
        0.724652,
        0.732838,
        0.693467,
        0.664171,
        0.670408,
        0.676403,
        0.704504,
        0.69317,
        0.683085,
        0.726553,
        0.752268,
        0.733245,
        0.715152,
        0.733119,
        0.727787,
        0.728056,
        0.770202,
        0.759999,
        0.715679,
        0.742422,
        0.757393,
        0.733284,
        0.702522,
        0.705597,
        0.713627,
        0.728026,
        0.735257,
        0.727944,
        0.728135,
        0.716145,
        0.697032,
        0.705283,
        0.724303,
        0.741181,
        0.7543,
        0.760239,
        0.755319,
        0.714564,
        0.712989,
        0.713815,
        0.737271,
        0.731722,
        0.728676,
        0.734064,
        0.740147,
        0.761946,
        0.797493,
        0.796677,
        0.781423,
        0.776577,
        0.795525,
        0.809603,
        0.802516,
        0.755511,
        0.745623,
        0.792941,
        0.786098,
        0.775437,
        0.779023,
        0.783532,
        0.768305,
        0.746014,
        0.733132,
        0.72802,
        0.726138,
        0.729441,
        0.74006,
        0.754306,
        0.76672,
        0.770577,
        0.759649,
        0.730962,
        0.689513,
        0.668929,
        0.695304,
        0.735969,
        0.753759,
        0.752261,
        0.743913,
        0.735793,
        0.73201,
        0.730141,
        0.727203,
        0.724503,
        0.723318,
        0.72051,
        0.714589,
        0.715061,
        0.728026,
        0.734968,
        0.719713,
        0.700087,
        0.696201,
        0.703332,
        0.711779,
        0.716794,
        0.716744,
        0.717533,
        0.724404,
        0.732433,
        0.735359,
        0.731749,
        0.722378,
        0.71203,
        0.705838,
        0.706335,
        0.713601,
        0.720508,
        0.720588,
        0.717231,
        0.715157,
        0.714581,
        0.714245,
        0.711535,
        0.705034,
        0.699488,
        0.699515,
        0.70306,
        0.707091,
        0.71134,
        0.715774,
        0.718536,
        0.71869,
        0.720822,
        0.728834,
        0.738383,
        0.743958,
        0.743614,
        0.748155,
        0.732717,
        0.715044,
        0.706238,
        0.720341,
        0.711868,
        0.702899,
        0.714773,
        0.740366,
        0.736644,
        0.719487,
        0.734367,
        0.722845,
        0.727543,
        0.760214,
        0.766988,
        0.773276,
        0.766523,
        0.752414,
        0.752659,
        0.777257,
        0.787016,
        0.791661,
        0.795639,
        0.790046,
        0.781406,
        0.779312,
        0.786697,
        0.774531,
        0.788026,
        0.770443,
        0.791413,
        0.837548,
        0.829501,
        0.868275,
        0.886229,
        0.821742,
        0.943994,
        0.932475,
        0.859075,
        1.030762,
        1.124718,
        1.050091,
        0.915674,
        1.086725,
        1.343383,
        1.383307,
        1.235686,
        0.989454,
        0.992228,
        1.259302,
        1.44917,
        1.504849,
        1.497401,
        1.351986,
        1.098432,
        0.924558,
        1.160705,
        1.473378,
        1.648823,
        1.74599,
        1.824813,
        1.882723,
        1.81591,
        1.641375,
        1.423672,
        1.113214,
        0.994775,
        1.24703,
        1.493909,
        1.681947,
        1.851618,
        1.89815,
        1.8952,
        1.821252,
        1.449227,
        1.399514,
        1.764507,
        1.836023,
        1.770453,
        1.609942,
        1.362005,
        0.975463,
        0.854487,
        1.173087,
        1.460023,
        1.638019,
        1.787081,
        1.879975,
        1.923907,
        1.934612,
        1.972015,
        2.010712,
        2.034989,
        2.009475,
        1.989225,
        2.002901,
        2.022012,
        1.990518,
        2.011727,
        1.985016,
        1.927083,
        1.879596,
        1.834253,
        1.763525,
        1.708787,
        1.620472,
        1.457553,
        1.187034,
        0.942102,
        1.067371,
        1.336968,
        1.52046,
        1.64809,
        1.713694,
        1.763511,
        1.827951,
        1.867337,
        1.874365,
        1.882913,
        1.846735,
        1.868352,
        1.896084,
        1.865373,
        1.826388,
        1.832668,
        1.853942,
        1.874332,
        1.852948,
        1.818524,
        1.85004,
        1.855378,
        1.837569,
        1.821018,
        1.770562,
        1.78103,
        1.78836,
        1.798473,
        1.770734,
        1.749433,
        1.772878,
        1.788941,
        1.805159,
        1.760168,
        1.750431,
        1.791339,
        1.758116,
        1.717994,
        1.686703,
        1.627077,
        1.607654,
        1.585498,
        1.553586,
        1.514771,
        1.424621,
        1.288781,
        1.061049,
        0.860435,
        0.989333,
        1.188723,
        1.340277,
        1.477284,
        1.54922,
        1.57426,
        1.610295,
        1.627641,
        1.606036,
        1.645384,
        1.646491,
        1.634255,
        1.635607,
        1.649515,
        1.620619,
        1.630793,
        1.639211,
        1.637794,
        1.64702,
        1.647714,
        1.625704,
        1.635208,
        1.621848,
        1.632115,
        1.617414,
        1.610367,
        1.608955,
        1.548678,
        1.55727,
        1.574079,
        1.597045,
        1.591182,
        1.607551,
        1.620242,
        1.601874,
        1.568501,
        1.556972,
        1.54051,
        1.56182,
        1.575664,
        1.564658,
        1.516588,
        1.521982,
        1.535717,
        1.538776,
        1.5421,
        1.537739,
        1.515071,
        1.508062,
        1.524309,
        1.52698,
        1.533995,
        1.535977,
        1.532485,
        1.515598,
        1.509622,
        1.511925,
        1.488963,
        1.491107,
        1.511149,
        1.498264,
        1.48663,
        1.491126,
        1.490156,
        1.468532,
        1.470935,
        1.484875,
        1.481776,
        1.495405,
        1.475877,
        1.471663,
        1.443183,
        1.434273,
        1.446363,
        1.434207,
        1.432466,
        1.435223,
        1.417707,
        1.402517,
        1.399155,
        1.413026,
        1.416623,
        1.405581,
        1.39104,
        1.378525,
        1.379101,
        1.384816,
        1.37714,
        1.363034,
        1.356831,
        1.358875,
        1.335389,
        1.355364,
        1.339227,
        1.318479,
        1.307,
        1.282208,
        1.273696,
        1.257907,
        1.210374,
        1.122519,
        0.998284,
        0.856546,
        0.730202,
        0.757289,
        0.868901,
        0.984595,
        1.090714,
        1.167063,
        1.208373,
        1.241638,
        1.280858,
        1.311447,
        1.306141,
        1.294255,
        1.267041,
        1.277287,
        1.306125,
        1.299915,
        1.315171,
        1.333473,
        1.328196,
        1.299736,
        1.279901,
        1.298314,
        1.303382,
        1.308027,
        1.295714,
        1.289662,
        1.293547,
        1.278683,
        1.279056,
        1.267196,
        1.257689,
        1.24783,
        1.229221,
        1.245324,
        1.248976,
        1.254581,
        1.244249,
        1.237003,
        1.23499,
        1.234663,
        1.255445,
        1.260818,
        1.260425,
        1.255062,
        1.250396,
        1.244905,
        1.235537,
        1.229834,
        1.228711,
        1.227339,
        1.225474,
        1.226436,
        1.229517,
        1.224301,
        1.214718,
        1.215132,
        1.20585,
        1.210114,
        1.212837,
        1.209088,
        1.192156,
        1.159366,
        1.131923,
        1.144526,
        1.145599,
        1.137533,
        1.14582,
        1.144893,
        1.151613,
        1.143806,
        1.14963,
        1.158361,
        1.156814,
        1.140306,
        1.119511,
        1.12532,
        1.136631,
        1.149285,
        1.146057,
        1.134036,
        1.118339,
        1.087572,
        1.073303,
        1.081827,
        1.099681,
        1.116346,
        1.125022,
        1.125745,
        1.112418,
        1.100752,
        1.093653,
        1.085186,
        1.090034,
        1.090728,
        1.088114,
        1.086746,
        1.080667,
        1.091059,
        1.085871,
        1.085141,
        1.075588,
        1.060699,
        1.060756,
        1.070215,
        1.076001,
        1.072604,
        1.071891,
        1.072043,
        1.065391,
        1.059464,
        1.064296,
        1.072664,
        1.070007,
        1.064134,
        1.061049,
        1.061281,
        1.054807,
        1.040793,
        1.048118,
        1.04776,
        1.050138,
        1.0379,
        1.02673,
        1.027466,
        1.029181,
        1.038109,
        1.03985,
        1.035936,
        1.029904,
        1.01537,
        1.012587,
        1.018188,
        1.024679,
        1.018276,
        1.013942,
        1.000005,
        0.992994,
        1.002182,
        1.020404,
        1.016685,
        1.008189,
        1.006593,
        1.004292,
        0.99902,
        0.991342,
        0.980822,
        0.972951,
        0.971359,
        0.970222,
        0.965264,
        0.963473,
        0.959335,
        0.949884,
        0.955438,
        0.959336,
        0.963351,
        0.967293,
        0.962111,
        0.957967,
        0.947348,
        0.940532,
        0.9409,
        0.94724,
        0.95427,
        0.946739,
        0.941479,
        0.937734,
        0.933955,
        0.9259,
        0.921537,
        0.920176,
        0.920448,
        0.920205,
        0.92672,
        0.924601,
        0.920002,
        0.916826,
        0.911793,
        0.918184,
        0.911167,
        0.905681,
        0.901511,
        0.893374,
        0.886966,
        0.892515,
        0.896204,
        0.894192,
        0.884161,
        0.888103,
        0.893782,
        0.890725,
        0.890323,
        0.896207,
        0.90278,
        0.897926,
        0.894476,
        0.887762,
        0.879555,
        0.882336,
        0.882397,
        0.882653,
        0.874496,
        0.875283,
        0.859686,
        0.846118,
        0.834226,
        0.820027,
        0.8235,
        0.836927,
        0.836302,
        0.836761,
        0.832769,
        0.831156,
        0.831351,
        0.834779,
        0.839275,
        0.830127,
        0.821173,
        0.817722,
        0.81939,
        0.821378,
        0.823308,
        0.816948,
        0.818003,
        0.819242,
        0.809964,
        0.80904,
        0.809799,
        0.807166,
        0.79962,
        0.794678,
        0.78976,
        0.790704,
        0.798498,
        0.79371,
        0.790628,
        0.793198,
        0.789809,
        0.789083,
        0.788334,
        0.791044,
        0.787863,
        0.785839,
        0.778388,
        0.774638,
        0.774054,
        0.770385,
        0.769875,
        0.765296,
        0.764287,
        0.770513,
        0.769573,
        0.760601,
        0.753087,
        0.750813,
        0.746198,
        0.740207,
        0.740918,
        0.7455,
        0.744052,
        0.740654,
        0.743308,
        0.737733,
        0.741267,
        0.747425,
        0.74222,
        0.740215,
        0.740021,
        0.742071,
        0.741384,
        0.740159,
        0.736055,
        0.735019,
        0.733322,
        0.724046,
        0.720273,
        0.718369,
        0.717772,
        0.719768,
        0.725595,
        0.722764,
        0.714641,
        0.71438,
        0.705698,
        0.693184,
        0.700322,
        0.703703,
        0.705912,
        0.703097,
        0.702661,
        0.704309,
        0.699221,
        0.700137,
        0.701407,
        0.700079,
        0.699093,
        0.696667,
        0.692668,
        0.692974,
        0.699511,
        0.697571,
        0.691511,
        0.68413,
        0.683151,
        0.681042,
        0.682199,
        0.683973,
        0.687031,
        0.6866,
        0.685154,
        0.679095,
        0.670386,
        0.666859,
        0.668739,
        0.667041,
        0.667499,
        0.668261,
        0.670465,
        0.664738,
        0.654357,
        0.653673,
        0.653233,
        0.655199,
        0.654367,
        0.653806,
        0.649737,
        0.642649,
        0.630319,
        0.63731,
        0.642806,
        0.639231,
        0.630404,
        0.629543,
        0.628834,
        0.619271,
        0.608376,
        0.596827,
        0.573092,
        0.537783,
        0.488401,
        0.422566,
        0.419721,
        0.480456,
        0.525287,
        0.558373,
        0.579478,
        0.593256,
        0.604904,
        0.613373,
        0.616067,
        0.617489,
        0.619764,
        0.6236,
        0.622566,
        0.622501,
        0.620274,
        0.618704,
        0.618827,
        0.618339,
        0.615435,
        0.614241,
        0.612826,
        0.611105,
        0.608152,
        0.607157,
        0.609619,
        0.611048,
        0.61037,
        0.610322,
        0.61015,
        0.610758,
        0.605944,
        0.603146,
        0.600157,
        0.5978,
        0.600734,
        0.602451,
        0.600725,
        0.598445,
        0.594431,
        0.593684,
        0.594086,
        0.591749,
        0.593756,
        0.595114,
        0.591586,
        0.591922,
        0.592987,
        0.594583,
        0.595402,
        0.595391,
        0.595446,
        0.591389,
        0.58678,
        0.581491,
        0.579413,
        0.586007,
        0.587767,
        0.587971,
        0.584908,
        0.57932,
        0.573999,
        0.571738,
        0.573184,
        0.576449,
        0.5784,
        0.576706,
        0.571301,
        0.564215,
        0.558172,
        0.555111,
        0.555465,
        0.558307,
        0.562087,
        0.565406,
        0.567551,
        0.568567,
        0.568825,
        0.568465,
        0.567156,
        0.564449,
        0.560715,
        0.557251,
        0.55311,
        0.551037,
        0.551092,
        0.549373,
        0.547174,
        0.541044,
        0.53444,
        0.53497,
        0.535926,
        0.538435,
        0.537899,
        0.536644,
        0.535311,
        0.534821,
        0.536892,
        0.53995,
        0.539744,
        0.537524,
        0.533812,
        0.53558,
        0.535538,
        0.532335,
        0.532358,
        0.526514,
        0.523234,
        0.520974,
        0.521009,
        0.520238,
        0.523149,
        0.523258,
        0.52164,
        0.521528,
        0.521185,
        0.524169,
        0.52638,
        0.529612,
        0.532603,
        0.529114,
        0.520269,
        0.512847,
        0.503903,
        0.497024,
        0.485342,
        0.483711,
        0.48506,
        0.481241,
        0.482918,
        0.494868,
        0.503274,
        0.505275,
        0.503613,
        0.502572,
        0.492556,
        0.488113,
        0.486,
        0.484049,
        0.483236,
        0.48708,
        0.48666,
        0.486695,
        0.480004,
        0.48419,
        0.487726,
        0.483869,
        0.487574,
        0.489053,
        0.48312,
        0.478479,
        0.480865,
        0.481206,
        0.486612,
        0.485652,
        0.48394,
        0.482854,
        0.477867,
        0.476947,
        0.479698,
        0.480487,
        0.478655,
        0.477218,
        0.474505,
        0.473858,
        0.470224,
        0.468148,
        0.465181,
        0.463896,
        0.459813,
        0.454811,
        0.458018,
        0.462659,
        0.477515,
        0.480175,
        0.478142,
        0.471134,
        0.464087,
        0.46314,
        0.465906,
        0.46679,
        0.468826,
        0.472409,
        0.472608,
        0.472736,
        0.470511,
        0.46613,
        0.460951,
        0.458579,
        0.457936,
        0.454567,
        0.453764,
        0.453074,
        0.450661,
        0.446686,
        0.442589,
        0.442171,
        0.443794,
        0.449063,
        0.448398,
        0.447732,
        0.447067,
        0.446401,
        0.445736,
        0.44507,
        0.444405,
        0.443739,
        0.443074,
        0.442409,
        0.441743,
        0.441078,
        0.440412,
        0.439746,
        0.439081,
        0.438415,
        0.43775,
        0.437084,
        0.436419,
        0.435754,
        0.435088,
        0.434423,
        0.433757,
        0.433092,
        0.432426,
        0.431761,
        0.431095,
        0.43043,
        0.429764,
        0.429099,
        0.428433,
        0.427768,
        0.427102,
        0.426437,
        0.425771,
        0.425106,
        0.424143,
        0.426595,
        0.429951,
        0.432665,
        0.432438,
        0.424903,
        0.41438,
        0.398708,
        0.389423,
        0.398075,
        0.405164,
        0.413296,
        0.418305,
        0.419467,
        0.414705,
        0.409694,
        0.405821,
        0.405271,
        0.406328,
        0.404572,
        0.403196,
        0.402479,
        0.402988,
        0.406423,
        0.410627,
        0.413871,
        0.411832,
        0.406298,
        0.400542,
        0.398149,
        0.400331,
        0.399704,
        0.396336,
        0.391398,
        0.387894,
        0.38494,
        0.384226,
        0.388726,
        0.394165,
        0.396043,
        0.396798,
        0.397301,
        0.393925,
        0.392737,
        0.390204,
        0.386292,
        0.387503,
        0.389226,
        0.391901,
        0.392467,
        0.390567,
        0.387253,
        0.382176,
        0.379086,
        0.379708,
        0.383871,
        0.384216,
        0.38319,
        0.382197,
        0.381118,
        0.380607,
        0.380272,
        0.378203,
        0.378155,
        0.378407,
        0.377186,
        0.37717,
        0.374676,
        0.372887,
        0.371592,
        0.370225,
        0.369734,
        0.370171,
        0.3693,
        0.369297,
        0.368413,
        0.368206,
        0.367725,
        0.368951,
        0.36938,
        0.367781,
        0.367186,
        0.364172,
        0.362099,
        0.357799,
        0.35424,
        0.350469,
        0.351481,
        0.350591,
        0.346264,
        0.348204,
        0.347708,
        0.346398,
        0.348218,
        0.351211,
        0.352505,
        0.349487,
        0.348096,
        0.342935,
        0.336653,
        0.342294,
        0.347018,
        0.34661,
        0.346629,
        0.345569,
        0.3452,
        0.345378,
        0.344795,
        0.340846,
        0.340411,
        0.339849,
        0.338866,
        0.338935,
        0.338655,
        0.339125,
        0.339234,
        0.337835,
        0.336317,
        0.335642,
        0.333831,
        0.331392,
        0.332956,
        0.333618,
        0.334456,
        0.334545,
        0.333838,
        0.333536,
        0.333783,
        0.333484,
        0.33371,
        0.333971,
        0.335651,
        0.338652,
        0.338887,
        0.337436,
        0.33479,
        0.33255,
        0.33014,
        0.329665,
        0.328294,
        0.326334,
        0.324807,
        0.322241,
        0.321299,
        0.322937,
        0.321188,
        0.320243,
        0.32002,
        0.324615,
        0.327651,
        0.328454,
        0.327604,
        0.319775,
        0.313657,
        0.316995,
        0.319943,
        0.320935,
        0.322646,
        0.321892,
        0.320441,
        0.317428,
        0.306195,
        0.304226,
        0.315436,
        0.319959,
        0.323783,
        0.326131,
        0.326355,
        0.328135,
        0.326512,
        0.320955,
        0.315646,
        0.3079,
        0.305332,
        0.310556,
        0.315265,
        0.320188,
        0.324225,
        0.328378,
        0.330562,
        0.332462,
        0.329779,
        0.324443,
        0.31648,
        0.305437,
        0.291399,
        0.283911,
        0.29358,
        0.304142,
        0.311222,
        0.317531,
        0.323097,
        0.328534,
        0.332551,
        0.33598,
        0.335449,
        0.334382,
        0.331834,
        0.32659,
        0.319705,
        0.313121,
        0.302697,
        0.291637,
        0.283051,
        0.28684,
        0.295058,
        0.305391,
        0.313399,
        0.320819,
        0.325067,
        0.325633,
        0.323245,
        0.320849,
        0.320455,
        0.318317,
        0.317303,
        0.319069,
        0.317798,
        0.313394,
        0.308835,
        0.303835,
        0.298556,
        0.292351,
        0.286528,
        0.278755,
        0.268425,
        0.26538,
        0.272028,
        0.278528,
        0.283897,
        0.290511,
        0.298506,
        0.304563,
        0.308343,
        0.311706,
        0.311123,
        0.31117,
        0.311989,
        0.312087,
        0.312955,
        0.31467,
        0.316939,
        0.316124,
        0.312396,
        0.312095,
        0.314041,
        0.310166,
        0.307923,
        0.306201,
        0.301796,
        0.294858,
        0.283413,
        0.279769,
        0.272034,
        0.262097,
        0.253052,
        0.245109,
        0.251688,
        0.264379,
        0.277909,
        0.290012,
        0.29604,
        0.300412,
        0.301417,
        0.300214,
        0.296211,
        0.293551,
        0.29273,
        0.292184,
        0.291097,
        0.294634,
        0.290681,
        0.294194,
        0.296584,
        0.298517,
        0.298207,
        0.300018,
        0.299387,
        0.302521,
        0.299699,
        0.296778,
        0.298438,
        0.299888,
        0.295779,
        0.290096,
        0.289554,
        0.292087,
        0.291583,
        0.286811,
        0.289649,
        0.289378,
        0.287826,
        0.284289,
        0.280778,
        0.273752,
        0.265499,
        0.255296,
        0.246236,
        0.235489,
        0.229279,
        0.23532,
        0.245118,
        0.251948,
        0.260276,
        0.267141,
        0.272605,
        0.280979,
        0.286956,
        0.292401,
        0.293032,
        0.29764,
        0.297801,
        0.296919,
        0.292532,
        0.290596,
        0.289699,
        0.282196,
        0.278936,
        0.280285,
        0.285596,
        0.284301,
        0.278302,
        0.270476,
        0.281542,
        0.272408,
        0.270085,
        0.279778,
        0.271598,
        0.278672,
        0.279856,
        0.28719,
        0.294395,
        0.305062,
        0.297983,
        0.289533,
        0.279442,
        0.277979,
        0.271946,
        0.267637,
        0.259778,
        0.270679,
        0.261669,
        0.263312,
        0.272717,
        0.26879,
        0.262298,
        0.271476,
        0.277584,
        0.274504,
        0.269961,
        0.269949,
        0.274689,
        0.259049,
        0.250714,
        0.258511,
        0.267753,
        0.257643,
        0.246429,
        0.242203,
        0.236495,
        0.233434,
        0.221064,
        0.207011,
        0.215606,
        0.22572,
        0.233028,
        0.234706,
        0.242555,
        0.252101,
        0.248093,
        0.250039,
        0.247455,
        0.247837,
        0.250688,
        0.251352,
        0.251316,
        0.252356,
        0.247792,
        0.252458,
        0.248502,
        0.248502,
        0.247497,
        0.247825,
        0.250086,
        0.251085,
        0.249923,
        0.248318,
        0.252952,
        0.257855,
        0.25521,
        0.255347,
        0.253284,
        0.252174,
        0.248048,
        0.245471,
        0.252127,
        0.24813,
        0.247217,
        0.247778,
        0.248389,
        0.248271,
        0.245453,
        0.245583,
        0.243203,
        0.24157,
        0.242247,
        0.2407,
        0.244308,
        0.243205,
        0.24466,
        0.242116,
        0.237136,
        0.238421,
        0.239782,
        0.237656,
        0.237891,
        0.242053,
        0.240844,
        0.241173,
        0.2429,
        0.241058,
        0.244078,
        0.244059,
        0.242999,
        0.241045,
        0.240889,
        0.241345,
        0.236865,
        0.229282,
        0.229584,
        0.22832,
        0.2319,
        0.23019,
        0.230092,
        0.232907,
        0.235268,
        0.237449,
        0.23132,
        0.233118,
        0.230235,
        0.229695,
        0.231557,
        0.228452,
        0.227128,
        0.238562,
        0.228081,
        0.230461,
        0.224632,
        0.224103,
        0.222667,
        0.223377,
        0.226705,
        0.224207,
        0.222318,
        0.218718,
        0.215953,
        0.212679,
        0.212695,
        0.206278,
        0.201122,
        0.194981,
        0.189292,
        0.184911,
        0.182537,
        0.182913,
        0.189945,
        0.194673,
        0.195237,
        0.203349,
        0.209619,
        0.214674,
        0.214752,
        0.216117,
        0.222924,
        0.221644,
        0.219571,
        0.217371,
        0.215706,
        0.215091,
        0.215441,
        0.216519,
        0.218089,
        0.219865,
        0.221357,
        0.222023,
        0.221324,
        0.219003,
        0.215945,
        0.21332,
        0.212296,
        0.213623,
        0.216365,
        0.219164,
        0.220664,
        0.219869,
        0.217225,
        0.213541,
        0.209622,
        0.206204,
        0.20373,
        0.202571,
        0.203098,
        0.205415,
        0.208559,
        0.211301,
        0.212414,
        0.211086,
        0.208187,
        0.205005,
        0.202828,
        0.202586,
        0.203777,
        0.20554,
        0.207015,
        0.207531,
        0.20736,
        0.207107,
        0.207016,
        0.20726,
        0.207721,
        0.208207,
        0.208526,
        0.208529,
        0.208248,
        0.207757,
        0.207129,
        0.206441,
        0.205768,
        0.205191,
        0.204788,
        0.2046,
        0.204526,
        0.204424,
        0.204157,
        0.203622,
        0.202872,
        0.201996,
        0.201086,
        0.200228,
        0.199495,
        0.198959,
        0.19869,
        0.198726,
        0.198973,
        0.199306,
        0.199598,
        0.199734,
        0.199638,
        0.199245,
        0.198491,
        0.197368,
        0.196099,
        0.194962,
        0.194236
      ],
      "range":1
    }
  }
]
