[
  {
    "model":"Nikon D90",
    "name":"Nikon D90 LPF",
    "type":"OSC_LPF",
    "dataQualityMarker":3,
    "dataSource":"SVO Filter Profile Service",
    "manufacturer":"Nikon",
    "version":1,
    "wavelength":{
      "value":[
        3047.0,
        3074.6633,
        3102.3266,
        3129.9899,
        3157.6533,
        3185.3166,
        3212.9799,
        3240.6432,
        3268.3065,
        3295.9698,
        3323.6332,
        3351.2965,
        3378.9598,
        3406.6231,
        3434.2864,
        3461.9497,
        3489.6131,
        3517.2764,
        3544.9397,
        3572.603,
        3600.2663,
        3627.9296,
        3655.593,
        3683.2563,
        3710.9196,
        3738.5829,
        3766.2462,
        3793.9095,
        3821.5729,
        3849.2362,
        3876.8995,
        3904.5628,
        3932.2261,
        3959.8894,
        3987.5528,
        4015.2161,
        4042.8794,
        4070.5427,
        4098.206,
        4125.8693,
        4153.5327,
        4181.196,
        4208.8593,
        4236.5226,
        4264.1859,
        4291.8492,
        4319.5126,
        4347.1759,
        4374.8392,
        4402.5025,
        4430.1658,
        4457.8291,
        4485.4925,
        4513.1558,
        4540.8191,
        4568.4824,
        4596.1457,
        4623.809,
        4651.4724,
        4679.1357,
        4706.799,
        4734.4623,
        4762.1256,
        4789.7889,
        4817.4523,
        4845.1156,
        4872.7789,
        4900.4422,
        4928.1055,
        4955.7688,
        4983.4322,
        5011.0955,
        5038.7588,
        5066.4221,
        5094.0854,
        5121.7487,
        5149.4121,
        5177.0754,
        5204.7387,
        5232.402,
        5260.0653,
        5287.7286,
        5315.392,
        5343.0553,
        5370.7186,
        5398.3819,
        5426.0452,
        5453.7085,
        5481.3719,
        5509.0352,
        5536.6985,
        5564.3618,
        5592.0251,
        5619.6884,
        5647.3518,
        5675.0151,
        5702.6784,
        5730.3417,
        5758.005,
        5785.6683,
        5813.3317,
        5840.995,
        5868.6583,
        5896.3216,
        5923.9849,
        5951.6482,
        5979.3116,
        6006.9749,
        6034.6382,
        6062.3015,
        6089.9648,
        6117.6281,
        6145.2915,
        6172.9548,
        6200.6181,
        6228.2814,
        6255.9447,
        6283.608,
        6311.2714,
        6338.9347,
        6366.598,
        6394.2613,
        6421.9246,
        6449.5879,
        6477.2513,
        6504.9146,
        6532.5779,
        6560.2412,
        6587.9045,
        6615.5678,
        6643.2312,
        6670.8945,
        6698.5578,
        6726.2211,
        6753.8844,
        6781.5477,
        6809.2111,
        6836.8744,
        6864.5377,
        6892.201,
        6919.8643,
        6947.5276,
        6975.191,
        7002.8543,
        7030.5176,
        7058.1809,
        7085.8442,
        7113.5075,
        7141.1709,
        7168.8342,
        7196.4975,
        7224.1608,
        7251.8241,
        7279.4874,
        7307.1508,
        7334.8141,
        7362.4774,
        7390.1407,
        7417.804,
        7445.4673,
        7473.1307,
        7500.794,
        7528.4573,
        7556.1206,
        7583.7839,
        7611.4472,
        7639.1106,
        7666.7739,
        7694.4372,
        7722.1005,
        7749.7638,
        7777.4271,
        7805.0905,
        7832.7538,
        7860.4171,
        7888.0804,
        7915.7437,
        7943.407,
        7971.0704,
        7998.7337,
        8026.397,
        8054.0603,
        8081.7236,
        8109.3869,
        8137.0503,
        8164.7136,
        8192.3769,
        8220.0402,
        8247.7035,
        8275.3668,
        8303.0302,
        8330.6935,
        8358.3568,
        8386.0201,
        8413.6834,
        8441.3467,
        8469.0101,
        8496.6734,
        8524.3367,
        8552.0
      ],
      "units":"angstrom"
    },
    "values":{
      "value":[
        0.00070556378,
        0.001027724,
        0.0012938868,
        0.0014886597,
        0.0017237161,
        0.0019638727,
        0.0021115282,
        0.002232939,
        0.0025675531,
        0.0033435053,
        0.0045694016,
        0.0060803546,
        0.0077534626,
        0.0095777551,
        0.011654812,
        0.014155124,
        0.017112872,
        0.020411847,
        0.024059208,
        0.028237043,
        0.034852337,
        0.052562001,
        0.096014402,
        0.17160273,
        0.26954989,
        0.37632683,
        0.48562006,
        0.59478314,
        0.69655567,
        0.77659749,
        0.82468866,
        0.84678582,
        0.85744156,
        0.8656339,
        0.8735202,
        0.88117391,
        0.88832854,
        0.89471197,
        0.90029004,
        0.90506409,
        0.90885299,
        0.91154935,
        0.9134468,
        0.91500501,
        0.91646594,
        0.91790966,
        0.91945345,
        0.9212879,
        0.9235452,
        0.92602099,
        0.92801022,
        0.92875788,
        0.92830883,
        0.927624,
        0.927833,
        0.92952155,
        0.93243051,
        0.93569483,
        0.93838528,
        0.93995848,
        0.94053694,
        0.9406501,
        0.94066833,
        0.94068807,
        0.94073952,
        0.94094675,
        0.9415184,
        0.94245138,
        0.94336622,
        0.94390281,
        0.94406269,
        0.94389288,
        0.94306349,
        0.94111939,
        0.93810522,
        0.93468199,
        0.93164223,
        0.92935461,
        0.92762965,
        0.926117,
        0.92465623,
        0.9231949,
        0.92152429,
        0.9191273,
        0.91552982,
        0.91086133,
        0.90562021,
        0.9000714,
        0.89428789,
        0.88819838,
        0.88127753,
        0.87299583,
        0.86364302,
        0.8537645,
        0.84307027,
        0.83092171,
        0.81733087,
        0.80255485,
        0.78644403,
        0.76897167,
        0.75078285,
        0.73273147,
        0.71522361,
        0.69814232,
        0.68108773,
        0.66352947,
        0.64499911,
        0.62522362,
        0.60419479,
        0.58250435,
        0.56078759,
        0.53840786,
        0.51397183,
        0.48701579,
        0.45767796,
        0.42410232,
        0.38226536,
        0.33101501,
        0.27536682,
        0.22287317,
        0.17795931,
        0.14008897,
        0.10733079,
        0.080172256,
        0.059629228,
        0.044318099,
        0.032395058,
        0.023678243,
        0.018048227,
        0.014332458,
        0.011548736,
        0.0094970277,
        0.0080858528,
        0.0070732118,
        0.0062956017,
        0.0056349893,
        0.005000543,
        0.0044995293,
        0.0042647414,
        0.0042122613,
        0.0041511879,
        0.0038930076,
        0.003384412,
        0.002857531,
        0.0025688701,
        0.002496054,
        0.0024925699,
        0.0024947519,
        0.0024969367,
        0.0024991206,
        0.0025013031,
        0.0025034852,
        0.0025056671,
        0.0025078497,
        0.0025100341,
        0.0025122188,
        0.002514402,
        0.0025165842,
        0.0025187665,
        0.0025209485,
        0.0025231312,
        0.0025253159,
        0.0025275006,
        0.0025296833,
        0.0025318653,
        0.0025340476,
        0.0025362299,
        0.0025384131,
        0.0025405978,
        0.0025427821,
        0.0025449647,
        0.0025471468,
        0.0025493289,
        0.0025515109,
        0.0025536931,
        0.0025558751,
        0.0025580577,
        0.0025602421,
        0.002562427,
        0.0025646099,
        0.002566792,
        0.0025689743,
        0.0025711565,
        0.0025733395,
        0.0025755241,
        0.0025777086,
        0.0025798913,
        0.0025820734,
        0.0025842556,
        0.0025864379,
        0.0025886214,
        0.0025908063,
        0.0025929903,
        0.0025951726,
        0.0025973547,
        0.0025995349,
        0.0025963683,
        0.0025348676,
        0.0023394948,
        0.0020797152
      ],
      "range":1
    }
  }
]
