[
  {
    "model": "None",
    "name": "No filter",
    "type": "OSC_FILTER",
    "dataQualityMarker": 3,
    "dataSource": "Mathematical model",
    "manufacturer": "N/A",
    "version": 1,
    "wavelength": { 
       "value":  [200,300,400,500,600,700,800,900,1000,1100],
       "units": "nm"
    },
    "values": {
      "value": [1.0,1.0,1.0,1.0,1.0,1.0,1.0,1.0,1.0,1.0],
      "range": 1
    }
  }
]
